<?xml version="1.0" standalone="no"?>
<!DOCTYPE svg PUBLIC "-//W3C//DTD SVG 1.1//EN" "http://www.w3.org/Graphics/SVG/1.1/DTD/svg11.dtd" >
<svg xmlns="http://www.w3.org/2000/svg">
<metadata></metadata>
<defs>
<font id="fiore_boldregular" horiz-adv-x="1617" >
<font-face units-per-em="2048" ascent="1638" descent="-410" />
<missing-glyph horiz-adv-x="614" />
<glyph horiz-adv-x="0" />
<glyph unicode="&#xd;" horiz-adv-x="614" />
<glyph horiz-adv-x="0" />
<glyph horiz-adv-x="0" />
<glyph unicode=" "  horiz-adv-x="614" />
<glyph unicode="&#x09;" horiz-adv-x="614" />
<glyph unicode="&#xa0;" horiz-adv-x="614" />
<glyph unicode="!" horiz-adv-x="663" d="M150 1393v41h364v-41l-96 -906h-172zM166 0v328h332v-328h-332z" />
<glyph unicode="&#x22;" horiz-adv-x="1064" d="M117 780l37 654h344v-11l-224 -643h-157zM600 780l37 654h344v-11l-223 -643h-158z" />
<glyph unicode="#" horiz-adv-x="1433" d="M72 307v262h200l52 303h-181v263h226l51 299h270l-51 -299h297l51 299h270l-51 -299h156v-263h-201l-51 -303h180v-262h-225l-53 -307h-271l54 307h-297l-54 -307h-270l53 307h-155zM543 569h297l51 303h-297z" />
<glyph unicode="$" horiz-adv-x="1323" d="M90 201l160 233q86 -63 164 -105t170 -61v326q-111 31 -194 68.5t-137 88t-82 118t-28 159.5v4q0 86 31 155.5t87 121t136 83t176 42.5v118h213v-122q111 -16 203 -54.5t178 -97.5l-137 -240q-61 41 -124.5 73t-129.5 48v-309q233 -63 339 -165.5t106 -274.5v-4 q0 -86 -32 -156t-88.5 -122t-136 -84t-178.5 -42v-203h-213v207q-135 16 -256.5 66.5t-226.5 128.5zM442 1047q0 -47 29 -81t113 -65v277q-74 -10 -108 -44t-34 -83v-4zM776 258q145 23 146 131v4q0 53 -30 87t-116 65v-287z" />
<glyph unicode="%" horiz-adv-x="1761" d="M92 1079v4q0 76 25.5 142.5t72 117t111 79t141.5 28.5q78 0 141.5 -28.5t109.5 -78t70.5 -115t24.5 -141.5v-4q0 -76 -25.5 -142.5t-71.5 -116.5t-110.5 -78.5t-142.5 -28.5t-141.5 28.5t-109.5 77.5t-70.5 115t-24.5 141zM236 0l1046 1434h244l-1047 -1434h-243z M307 1083q0 -72 37 -126t98 -54q66 0 98.5 53.5t32.5 122.5v4q0 72 -36.5 126.5t-98.5 54.5q-66 0 -98.5 -52.5t-32.5 -124.5v-4zM973 346v4q0 76 25.5 142.5t71.5 116.5t110.5 79t142.5 29t141.5 -29t109.5 -78t70.5 -114.5t24.5 -141.5v-4q0 -76 -25.5 -142.5 t-71.5 -116.5t-110.5 -78.5t-142.5 -28.5t-141.5 28.5t-109.5 77.5t-70.5 114.5t-24.5 141.5zM1188 350q0 -72 37 -126t98 -54q66 0 98.5 53t32.5 123v4q0 72 -37 126t-98 54q-66 0 -98.5 -52t-32.5 -124v-4z" />
<glyph unicode="&#x26;" horiz-adv-x="1425" d="M70 393v4q0 137 71.5 234.5t206.5 159.5q-53 74 -76.5 143.5t-23.5 142.5v4q0 74 28.5 141.5t84 120t136.5 84t185 31.5q92 0 166 -27.5t127 -76.5t81.5 -114.5t28.5 -141.5v-4q0 -72 -21.5 -129.5t-61 -103.5t-95 -81t-123.5 -61l191 -191q35 55 69.5 118t69.5 128 l232 -127q-41 -76 -88.5 -153.5t-100.5 -149.5l211 -211l-231 -162l-166 168q-88 -72 -191.5 -115.5t-228.5 -43.5q-102 0 -190.5 28.5t-153 82.5t-101 130t-36.5 172zM387 406q0 -76 56.5 -122t144.5 -46q53 0 105 21.5t102 59.5l-275 279q-72 -37 -102.5 -86t-30.5 -102 v-4zM537 1063q0 -47 19.5 -87t64.5 -91q94 35 142 79t48 111v4q0 61 -38 97t-97 36q-63 0 -101 -39.5t-38 -105.5v-4z" />
<glyph unicode="'" horiz-adv-x="585" d="M117 780l37 654h348v-11l-223 -643h-162z" />
<glyph unicode="(" horiz-adv-x="911" d="M121 588q0 297 141 510t426 366l137 -207q-104 -72 -179 -144.5t-123 -153t-70.5 -172t-22.5 -199.5q0 -109 22.5 -200t70.5 -172t123 -153.5t179 -144.5l-137 -207q-285 154 -426 367t-141 510z" />
<glyph unicode=")" horiz-adv-x="911" d="M86 -82q104 72 179 144.5t123 153.5t70.5 172t22.5 200t-22.5 200t-70.5 171.5t-123 153.5t-179 144l137 207q285 -154 426.5 -366.5t141.5 -509.5t-141.5 -510t-426.5 -367z" />
<glyph unicode="*" horiz-adv-x="880" d="M104 1004l230 96l-230 96l86 147l199 -151l-33 246h168l-32 -246l198 151l86 -147l-229 -96l229 -96l-86 -148l-198 152l32 -246h-168l33 246l-199 -152z" />
<glyph unicode="+" horiz-adv-x="1310" d="M139 580v282h371v369h291v-369h370v-282h-370v-369h-291v369h-371z" />
<glyph unicode="," horiz-adv-x="585" d="M53 -203q217 20 201 203h-127v328h332v-277q0 -203 -98.5 -292t-280.5 -91z" />
<glyph unicode="-" horiz-adv-x="835" d="M102 485v299h631v-299h-631z" />
<glyph unicode="." horiz-adv-x="585" d="M127 0v328h332v-328h-332z" />
<glyph unicode="/" horiz-adv-x="1085" d="M-57 -262l907 1896h264l-907 -1896h-264z" />
<glyph unicode="0" horiz-adv-x="1495" d="M111 713v4q0 156 46 291t130 235t201.5 157.5t261.5 57.5q141 0 258.5 -56t200.5 -155.5t129 -234.5t46 -291v-4q0 -156 -46 -291t-130 -235.5t-202 -158t-261 -57.5q-145 0 -261.5 56.5t-199.5 156t-128 233.5t-45 292zM434 717q0 -98 22.5 -182t63.5 -144.5t99.5 -95.5 t130.5 -35t129 34t98 94.5t62.5 143t21.5 181.5v4q0 98 -22.5 181t-64.5 144.5t-100.5 96.5t-128.5 35q-72 0 -129 -34t-97 -94.5t-62.5 -143.5t-22.5 -181v-4z" />
<glyph unicode="1" horiz-adv-x="864" d="M49 1321l412 123h215v-1444h-311v1124l-250 -61z" />
<glyph unicode="2" horiz-adv-x="1275" d="M100 0v250l478 391q68 55 114.5 99t76.5 84t43 78t13 83q0 92 -53 139t-139 47q-84 0 -148.5 -47t-144.5 -145l-221 178q53 72 107.5 127t117 93t138 57.5t171.5 19.5q111 0 202 -31.5t155.5 -89t100.5 -139.5t36 -182v-4q0 -90 -22.5 -161t-69.5 -134.5t-118 -125 t-167 -134.5l-233 -181h624v-272h-1061z" />
<glyph unicode="3" horiz-adv-x="1271" d="M78 223l217 207q74 -86 154.5 -129t191.5 -43q92 0 147.5 47t55.5 127v4q0 88 -73 135t-208 47h-131l-49 201l342 344h-563v271h968v-238l-362 -346q74 -12 142.5 -39t122.5 -74t87 -117.5t33 -170.5v-5q0 -102 -36 -187t-102.5 -148.5t-162.5 -98.5t-215 -35 q-197 0 -332 69t-227 179z" />
<glyph unicode="4" horiz-adv-x="1411" d="M63 532l787 912h266v-879h193v-256h-193v-309h-301v309h-700zM434 565h381v447z" />
<glyph unicode="5" horiz-adv-x="1290" d="M88 190l191 228q82 -74 162.5 -115t179.5 -41q111 0 175 50t64 149v4q0 92 -70.5 143t-183.5 51q-68 0 -128 -15t-111 -38l-183 121l41 707h881v-277h-610l-17 -248q43 10 86 17.5t103 7.5q104 0 195 -26.5t160 -82t107.5 -142.5t38.5 -208v-4q0 -115 -38.5 -206 t-109.5 -155.5t-172 -99.5t-224 -35q-174 0 -303 57.5t-234 157.5z" />
<glyph unicode="6" horiz-adv-x="1355" d="M111 672v4q0 166 37.5 309t115.5 247.5t197 165t278 60.5q74 0 135.5 -10t114.5 -30.5t102.5 -50.5t96.5 -67l-166 -243q-70 53 -135.5 83.5t-157.5 30.5q-68 0 -118 -25.5t-86 -69.5t-56 -105.5t-29 -130.5q53 35 122 63.5t175 28.5t198.5 -30t160 -87t106.5 -142 t39 -198v-4q0 -111 -42 -202t-114.5 -156.5t-173 -101.5t-217.5 -36q-141 0 -239.5 39t-173.5 115q-78 78 -124 204t-46 339zM432 459q0 -92 66.5 -152.5t183.5 -60.5t181.5 59.5t64.5 151.5v4q0 92 -66.5 150.5t-183.5 58.5t-181.5 -57.5t-64.5 -149.5v-4z" />
<glyph unicode="7" horiz-adv-x="1267" d="M139 1161v273h1032v-238l-643 -1196h-356l641 1161h-674z" />
<glyph unicode="8" horiz-adv-x="1290" d="M92 393v4q0 131 57.5 212t174.5 134q-86 51 -134.5 124t-48.5 190v4q0 82 36 153.5t102.5 125t158.5 84t207 30.5q113 0 206 -30.5t159.5 -83t102.5 -125t36 -154.5v-4q0 -117 -48 -189.5t-134 -124.5q109 -57 170 -134t61 -203v-5q0 -100 -42 -178t-115.5 -132 t-175 -82.5t-220.5 -28.5t-220 29.5t-175 83.5t-116 130t-42 170zM397 418q0 -74 65.5 -126t182.5 -52t182.5 51t65.5 127v4q0 86 -68.5 131t-179.5 45t-179.5 -45t-68.5 -131v-4zM440 1024q0 -76 55.5 -126t149.5 -50t149.5 49t55.5 125v4q0 66 -53.5 117t-151.5 51 t-151.5 -50t-53.5 -116v-4z" />
<glyph unicode="9" horiz-adv-x="1355" d="M115 952v4q0 109 40 201t111.5 158.5t173 104.5t222.5 38q143 0 237 -37t176 -118q39 -39 70 -88.5t53.5 -115t34.5 -148.5t12 -189v-4q0 -174 -41 -318.5t-119.5 -247t-195.5 -160t-271 -57.5q-158 0 -268 47.5t-203 122.5l166 240q78 -63 150 -93t164 -30 q133 0 203.5 90t87.5 236q-53 -45 -125 -72t-166 -27q-117 0 -211 32t-162 91.5t-103.5 145.5t-35.5 194zM428 967q0 -98 66.5 -156.5t183.5 -58.5t181.5 60t64.5 153v4q0 98 -66.5 158.5t-185.5 60.5q-117 0 -180.5 -59.5t-63.5 -157.5v-4z" />
<glyph unicode=":" horiz-adv-x="606" d="M137 0v328h332v-328h-332zM137 770v328h332v-328h-332z" />
<glyph unicode=";" horiz-adv-x="606" d="M63 -203q217 20 201 203h-127v328h332v-277q0 -203 -98.5 -292t-280.5 -91zM137 770v328h332v-328h-332z" />
<glyph unicode="&#x3c;" horiz-adv-x="1310" d="M139 580v282l991 434v-288l-692 -285l692 -285v-293z" />
<glyph unicode="=" horiz-adv-x="1310" d="M170 313v283h971v-283h-971zM170 846v282h971v-282h-971z" />
<glyph unicode="&#x3e;" horiz-adv-x="1310" d="M180 145v289l692 285l-692 285v292l991 -434v-282z" />
<glyph unicode="?" horiz-adv-x="1114" d="M41 1231q92 98 213 159.5t289 61.5q111 0 202 -27.5t156.5 -82t101 -133.5t35.5 -181v-4q0 -98 -31.5 -168t-86 -119t-128 -78.5t-157.5 -46.5l-23 -125h-209l-47 332l11 10q195 8 276.5 56.5t81.5 130.5v4q0 70 -48 107.5t-140 37.5q-86 0 -161 -34.5t-147 -106.5z M336 0v328h332v-328h-332z" />
<glyph unicode="@" horiz-adv-x="2007" d="M109 561q0 184 69.5 347t190 285t284.5 193.5t353 71.5q188 0 351 -67.5t283.5 -180t189 -259t68.5 -304.5q0 -129 -31.5 -225t-87 -160.5t-130 -96.5t-158.5 -32q-125 0 -199.5 39t-113.5 84q-53 -47 -128 -85t-176 -38q-78 0 -146.5 27.5t-119.5 79t-79.5 124 t-28.5 164.5q0 109 37.5 203t101 163t146.5 108.5t173 39.5q106 0 173 -39.5t110 -99.5l23 109l241 -39l-96 -551q-4 -16 -5 -33.5t-1 -30.5q0 -55 39 -92t110 -37q55 0 102.5 27t82.5 80t55 131t20 180q0 141 -61 273.5t-168.5 233.5t-256 161.5t-320.5 60.5 q-174 0 -322.5 -64.5t-257.5 -175t-170 -259t-61 -316.5q0 -170 61 -317.5t171 -257t261.5 -173t333.5 -63.5q154 0 269.5 35t232.5 102l41 -65q-119 -72 -251 -113t-292 -41q-197 0 -363.5 71t-289.5 192.5t-191.5 283.5t-68.5 346zM754 543q0 -98 53 -148.5t139 -50.5 q49 0 93 22.5t78 62.5t53.5 93t19.5 117q0 88 -52.5 140t-138.5 52q-49 0 -94 -22.5t-78.5 -60t-53 -91t-19.5 -114.5z" />
<glyph unicode="A" d="M49 0l615 1444h290l615 -1444h-330l-131 322h-606l-131 -322h-322zM614 600h381l-190 465z" />
<glyph unicode="B" horiz-adv-x="1478" d="M172 0v1434h666q248 0 374 -127q98 -98 99 -244v-4q0 -121 -55.5 -194.5t-133.5 -114.5q125 -47 197 -128t72 -225v-4q0 -98 -38 -172t-108.5 -123t-170 -73.5t-220.5 -24.5h-682zM479 276h375q104 0 163.5 38t59.5 118v4q0 72 -55 114t-178 42h-365v-316zM479 854h291 q104 0 165.5 36t61.5 116v4q0 72 -53 109.5t-153 37.5h-312v-303z" />
<glyph unicode="C" horiz-adv-x="1511" d="M109 713v4q0 154 55 288t153.5 235t235.5 159.5t303 58.5q201 0 334 -61.5t231 -159.5l-200 -231q-86 76 -171 118.5t-196 42.5q-90 0 -167 -34.5t-132 -96t-86 -142.5t-31 -173v-4q0 -92 31 -174t85 -143.5t131 -97.5t169 -36q123 0 208 45t169 123l201 -203 q-55 -59 -115 -106t-130.5 -81t-154.5 -51.5t-188 -17.5q-158 0 -293 57.5t-233.5 157t-153.5 234.5t-55 289z" />
<glyph unicode="D" horiz-adv-x="1601" d="M172 0v1434h559q168 0 308.5 -54.5t241.5 -150.5t156.5 -226.5t55.5 -281.5v-4q0 -152 -55.5 -283t-156.5 -227t-241.5 -151.5t-308.5 -55.5h-559zM487 285h244q96 0 176 30.5t136.5 88t88 135t31.5 174.5v4q0 94 -31.5 174t-88 137t-136.5 89t-176 32h-244v-864z" />
<glyph unicode="E" horiz-adv-x="1372" d="M172 0v1434h1081v-281h-768v-291h676v-280h-676v-301h779v-281h-1092z" />
<glyph unicode="F" horiz-adv-x="1343" d="M172 0v1434h1092v-287h-777v-305h684v-287h-684v-555h-315z" />
<glyph unicode="G" horiz-adv-x="1605" d="M109 713v4q0 154 56 288t156.5 235t237.5 159.5t301 58.5q96 0 175 -13t146.5 -38t127 -61.5t114.5 -83.5l-198 -240q-82 70 -167 107.5t-208 37.5q-86 0 -161 -35.5t-131 -96t-88 -141.5t-32 -173v-4q0 -98 32 -181t90 -144.5t137 -95.5t175 -34q176 0 297 86v205h-317 v272h623v-622q-111 -94 -263.5 -161t-349.5 -67q-168 0 -306 55.5t-237.5 154t-154.5 233.5t-55 295z" />
<glyph unicode="H" horiz-adv-x="1556" d="M172 0v1434h315v-568h582v568h315v-1434h-315v575h-582v-575h-315z" />
<glyph unicode="I" horiz-adv-x="688" d="M186 0v1434h316v-1434h-316z" />
<glyph unicode="J" horiz-adv-x="1155" d="M29 195l198 221q61 -68 124 -106t138 -38q92 0 142.5 56.5t50.5 181.5v924h324v-938q0 -129 -35 -223.5t-101 -159.5q-66 -66 -160.5 -99.5t-211.5 -33.5q-168 0 -282 63t-187 152z" />
<glyph unicode="K" horiz-adv-x="1495" d="M172 0v1434h315v-627l582 627h381l-584 -609l611 -825h-379l-445 610l-166 -172v-438h-315z" />
<glyph unicode="L" horiz-adv-x="1267" d="M172 0v1434h315v-1147h715v-287h-1030z" />
<glyph unicode="M" horiz-adv-x="1777" d="M172 0v1434h340l377 -607l377 607h340v-1434h-314v936l-403 -612h-8l-400 606v-930h-309z" />
<glyph unicode="N" d="M172 0v1434h291l672 -883v883h311v-1434h-268l-695 911v-911h-311z" />
<glyph unicode="O" horiz-adv-x="1740" d="M109 713v4q0 154 57 288t158.5 235t242 159.5t305.5 58.5q166 0 305.5 -58.5t241 -157.5t157.5 -233.5t56 -287.5v-4q0 -154 -57 -288t-158.5 -235.5t-242 -160t-306.5 -58.5t-305 58.5t-240.5 158t-157.5 233.5t-56 288zM438 717q0 -92 32 -174t90 -143.5t137 -97.5 t175 -36q94 0 174 35t136.5 96.5t88.5 142.5t32 173v4q0 92 -32 174t-90.5 143.5t-138 97t-174.5 35.5q-96 0 -175 -34.5t-135 -96t-88 -142.5t-32 -173v-4z" />
<glyph unicode="P" horiz-adv-x="1368" d="M172 0v1434h586q129 0 230.5 -36t172 -101.5t108.5 -156.5t38 -202v-4q0 -125 -45 -219t-124 -157.5t-184.5 -95.5t-226.5 -32h-240v-430h-315zM487 711h250q119 0 184.5 62.5t65.5 154.5v4q0 106 -68.5 161.5t-187.5 55.5h-244v-438z" />
<glyph unicode="Q" horiz-adv-x="1740" d="M109 713v4q0 154 57 288t158.5 235t242 159.5t305.5 58.5q166 0 305.5 -58.5t241 -157.5t157.5 -233.5t56 -287.5v-4q0 -113 -32.5 -216.5t-94.5 -195.5l148 -125l-201 -223l-158 141q-188 -123 -426 -123q-166 0 -305 58.5t-240.5 158t-157.5 233.5t-56 288zM438 717 q0 -92 32 -174t90 -143.5t137 -97.5t175 -36q102 0 189 39l-234 199l201 225l236 -213q39 84 39 197v4q0 92 -32 174t-90.5 143.5t-138 97t-174.5 35.5q-96 0 -175 -34.5t-135 -96t-88 -142.5t-32 -173v-4z" />
<glyph unicode="R" horiz-adv-x="1480" d="M172 0v1434h655q272 0 418 -146q123 -123 123 -327v-5q0 -174 -85 -283.5t-222 -160.5l350 -512h-369l-307 459h-4h-244v-459h-315zM487 737h320q117 0 179.5 55.5t62.5 147.5v4q0 104 -65.5 154.5t-182.5 50.5h-314v-412z" />
<glyph unicode="S" horiz-adv-x="1310" d="M74 209l186 223q98 -80 201.5 -127t226.5 -47q98 0 152.5 36t54.5 99v4q0 31 -11.5 54.5t-43 45t-88 41t-146.5 42.5q-109 27 -196.5 58.5t-149 80.5t-95.5 120.5t-34 178.5v4q0 98 37 177t103.5 136.5t158.5 88t203 30.5q160 0 291 -47t241 -135l-164 -238 q-98 66 -189 104t-183 38t-138.5 -36t-46.5 -89v-4q0 -37 13.5 -61.5t48.5 -44t95.5 -39t152.5 -44.5q109 -29 193.5 -64.5t143 -86t88 -118t29.5 -161.5v-4q0 -106 -39 -189t-108.5 -139.5t-165.5 -86t-213 -29.5q-166 0 -322.5 56t-285.5 173z" />
<glyph unicode="T" horiz-adv-x="1327" d="M70 1143v291h1187v-291h-436v-1143h-315v1143h-436z" />
<glyph unicode="U" horiz-adv-x="1548" d="M150 614v820h315v-811q0 -178 81 -266.5t228 -88.5t228 85t81 259v822h316v-809q0 -164 -44 -285t-126 -202t-199 -121t-260 -40q-289 0 -454.5 160t-165.5 477z" />
<glyph unicode="V" horiz-adv-x="1536" d="M49 1434h348l375 -1010l375 1010h340l-580 -1444h-278z" />
<glyph unicode="W" horiz-adv-x="2297" d="M61 1434h338l297 -971l322 975h270l322 -975l297 971h329l-489 -1444h-274l-324 938l-324 -938h-274z" />
<glyph unicode="X" horiz-adv-x="1499" d="M63 0l500 729l-479 705h369l301 -465l303 465h358l-479 -701l500 -733h-369l-322 492l-323 -492h-359z" />
<glyph unicode="Y" horiz-adv-x="1466" d="M25 1434h368l342 -576l348 576h359l-551 -863v-571h-316v565z" />
<glyph unicode="Z" horiz-adv-x="1449" d="M129 0v240l789 917h-764v277h1169v-240l-788 -918h788v-276h-1194z" />
<glyph unicode="[" horiz-adv-x="952" d="M170 -266v1700h661v-244h-362v-1213h362v-243h-661z" />
<glyph unicode="\" horiz-adv-x="1085" d="M-29 1634h265l907 -1896h-264z" />
<glyph unicode="]" horiz-adv-x="952" d="M121 -23h362v1213h-362v244h661v-1700h-661v243z" />
<glyph unicode="^" horiz-adv-x="1024" d="M102 1010l304 424h212l304 -424h-226l-186 239l-186 -239h-222z" />
<glyph unicode="_" horiz-adv-x="1228" d="M-4 -90h1237v-238h-1237v238z" />
<glyph unicode="`" horiz-adv-x="1024" d="M225 1464l269 117l231 -362h-238z" />
<glyph unicode="a" horiz-adv-x="1212" d="M74 315v4q0 88 32.5 155t91 110t139.5 64.5t179 21.5q86 0 147.5 -12.5t120.5 -32.5v18q0 201 -235 201q-92 0 -159.5 -15.5t-143.5 -44.5l-78 238q90 39 188.5 63.5t237.5 24.5q129 0 220 -31.5t151 -91.5q61 -61 89.5 -150t28.5 -200v-637h-301v119 q-57 -63 -135.5 -101t-195.5 -38q-78 0 -146.5 21.5t-120 64.5t-81 105t-29.5 144zM375 328q0 -63 47 -98t123 -35q111 0 177 53t66 139v55q-41 18 -91 29.5t-107 11.5q-100 0 -157.5 -38.5t-57.5 -112.5v-4z" />
<glyph unicode="b" horiz-adv-x="1382" d="M139 0v1495h312v-555q57 78 138 128t204 50q96 0 186 -37t159.5 -109.5t111.5 -178t42 -242.5v-4q0 -137 -42 -242.5t-110.5 -178.5t-158.5 -109.5t-188 -36.5q-125 0 -206 49t-136 114v-143h-312zM446 547q0 -68 21.5 -124t57.5 -96t84.5 -61.5t103.5 -21.5t103 21.5 t85 61.5t58.5 95t21.5 125v4q0 68 -21.5 124t-58.5 96t-85 61.5t-103 21.5t-103.5 -21.5t-84.5 -61.5t-57.5 -96.5t-21.5 -123.5v-4z" />
<glyph unicode="c" horiz-adv-x="1169" d="M86 543v4q0 117 43 221t119 182t181.5 123t232.5 45q156 0 258 -49t180 -135l-191 -205q-53 55 -109.5 88t-140.5 33q-59 0 -107 -23.5t-84 -64.5t-55.5 -95.5t-19.5 -115.5v-4q0 -63 19.5 -118.5t56.5 -96.5t88 -64.5t115 -23.5q78 0 136 31.5t116 84.5l182 -184 q-80 -88 -182.5 -144.5t-266.5 -56.5q-123 0 -228 45.5t-181 122t-119 180t-43 220.5z" />
<glyph unicode="d" horiz-adv-x="1382" d="M90 547v4q0 137 42 242.5t110.5 178t159 109.5t188.5 37q125 0 206 -49t136 -115v541h311v-1495h-311v158q-57 -78 -138 -128t-204 -50q-96 0 -186.5 36.5t-160 109.5t-111.5 178.5t-42 242.5zM401 547q0 -68 21.5 -124t58.5 -96t85.5 -61.5t103.5 -21.5t103 21.5 t84 61.5t57.5 96t21.5 124v4q0 68 -21.5 124t-57.5 96t-84 61.5t-103 21.5t-103.5 -21.5t-85.5 -61.5t-58.5 -95t-21.5 -125v-4z" />
<glyph unicode="e" horiz-adv-x="1255" d="M86 543v4q0 117 40 221t111.5 182t171 123t220.5 45q137 0 237.5 -49t167 -132t98 -190.5t31.5 -224.5q0 -18 -1 -38.5t-3 -43.5h-764q23 -106 93.5 -160.5t175.5 -54.5q78 0 139 27t127 86l178 -158q-78 -98 -188.5 -151.5t-260.5 -53.5q-123 0 -228 41t-182 117 t-120 179.5t-43 230.5zM391 635h469q-14 104 -73.5 168.5t-157.5 64.5t-158.5 -63.5t-79.5 -169.5z" />
<glyph unicode="f" horiz-adv-x="782" d="M63 831v256h130v70q0 178 88 266q86 86 251 86q74 0 126.5 -8t95.5 -22v-258q-35 12 -68 19t-74 7q-113 0 -112 -119v-43h252v-254h-248v-831h-311v831h-130z" />
<glyph unicode="g" horiz-adv-x="1382" d="M90 602v4q0 123 41 218.5t108.5 161t155.5 99t183 33.5q127 0 208.5 -47t145.5 -117v144h311v-850q0 -293 -139 -432q-78 -78 -195.5 -113t-277.5 -35q-135 0 -258 30t-228 85l107 233q86 -47 173 -73.5t198 -26.5q160 0 236.5 76t76.5 223v53q-70 -86 -152 -132 t-206 -46q-96 0 -184.5 34t-156 99.5t-107.5 160.5t-40 218zM401 602q0 -117 75 -185.5t192 -68.5q57 0 106 18.5t85 52.5t56.5 81t20.5 102v4q0 55 -20.5 102.5t-56.5 81t-85 52t-106 18.5t-105.5 -18.5t-84.5 -52t-56.5 -80.5t-20.5 -103v-4z" />
<glyph unicode="h" horiz-adv-x="1275" d="M139 0v1495h312v-553q53 70 128.5 123t192.5 53q180 0 276.5 -107.5t96.5 -299.5v-711h-311v612q0 111 -48.5 167.5t-140.5 56.5t-143 -56.5t-51 -167.5v-612h-312z" />
<glyph unicode="i" horiz-adv-x="618" d="M145 1219v276h328v-276h-328zM154 0v1098h311v-1098h-311z" />
<glyph unicode="j" horiz-adv-x="618" d="M-23 -78q37 -6 66 -6q49 0 80 28.5t31 98.5v1055h311v-1080q0 -184 -89 -268t-263 -84q-43 0 -73 3t-63 9v244zM145 1219v276h328v-276h-328z" />
<glyph unicode="k" horiz-adv-x="1212" d="M139 0v1495h312v-797l364 400h373l-418 -432l432 -666h-356l-287 449l-108 -115v-334h-312z" />
<glyph unicode="l" horiz-adv-x="618" d="M154 0v1495h311v-1495h-311z" />
<glyph unicode="m" horiz-adv-x="1945" d="M139 0v1098h312v-156q27 35 58.5 66.5t70 56.5t87 39t107.5 14q221 0 309 -174q72 86 160 130t201 44q174 0 272.5 -102.5t98.5 -300.5v-715h-312v612q0 111 -47 167.5t-135 56.5t-138 -56.5t-50 -167.5v-612h-312v612q0 111 -47 167.5t-135 56.5t-138 -56.5t-50 -167.5 v-612h-312z" />
<glyph unicode="n" horiz-adv-x="1275" d="M139 0v1098h312v-156q53 70 128.5 123t192.5 53q180 0 276.5 -107.5t96.5 -299.5v-711h-311v612q0 111 -48.5 167.5t-140.5 56.5t-143 -56.5t-51 -167.5v-612h-312z" />
<glyph unicode="o" horiz-adv-x="1359" d="M86 543v4q0 119 45 222t125 181t188.5 123t237.5 45q127 0 235.5 -44t187.5 -120.5t124 -180t45 -222.5v-4q0 -119 -45 -222.5t-125 -181t-188.5 -123t-237.5 -45.5q-127 0 -235.5 44t-187.5 121t-124 180.5t-45 222.5zM393 547q0 -61 20.5 -115.5t59.5 -96.5t91 -66.5 t118 -24.5q68 0 120 23.5t89 64.5t56.5 95t19.5 116v4q0 61 -20.5 115.5t-59.5 96.5t-92.5 66.5t-116.5 24.5q-68 0 -120 -23.5t-89 -64.5t-56.5 -95.5t-19.5 -115.5v-4z" />
<glyph unicode="p" horiz-adv-x="1382" d="M139 -328v1426h312v-158q57 78 138 128t204 50q96 0 186 -37t159.5 -109.5t111.5 -178t42 -242.5v-4q0 -137 -42 -242.5t-110.5 -178.5t-158.5 -109.5t-188 -36.5q-125 0 -206 49t-136 114v-471h-312zM446 547q0 -68 21.5 -124t57.5 -96t84.5 -61.5t103.5 -21.5t103 21.5 t85 61.5t58.5 95t21.5 125v4q0 68 -21.5 124t-58.5 96t-85 61.5t-103 21.5t-103.5 -21.5t-84.5 -61.5t-57.5 -96.5t-21.5 -123.5v-4z" />
<glyph unicode="q" horiz-adv-x="1382" d="M90 547v4q0 137 42 242.5t110.5 178t159 109.5t188.5 37q125 0 206 -49t136 -115v144h311v-1426h-311v486q-57 -78 -138 -128t-204 -50q-96 0 -186.5 36.5t-160 109.5t-111.5 178.5t-42 242.5zM401 547q0 -68 21.5 -124t58.5 -96t85.5 -61.5t103.5 -21.5t103 21.5 t84 61.5t57.5 96t21.5 124v4q0 68 -21.5 124t-57.5 96t-84 61.5t-103 21.5t-103.5 -21.5t-85.5 -61.5t-58.5 -95t-21.5 -125v-4z" />
<glyph unicode="r" horiz-adv-x="856" d="M139 0v1098h312v-221q47 113 129 180q75 61 199 61h22v-325h-17q-156 0 -244.5 -94.5t-88.5 -292.5v-406h-312z" />
<glyph unicode="s" horiz-adv-x="1028" d="M53 145l133 205q92 -66 180.5 -98.5t165.5 -32.5q68 0 100 22.5t32 59.5v4q0 25 -18.5 43.5t-50.5 31.5t-73 25.5t-86 26.5q-57 16 -115.5 40t-105.5 61.5t-76.5 93t-29.5 135.5v4q0 84 31.5 148.5t86 109.5t127 67.5t156.5 22.5q104 0 210.5 -33.5t199.5 -93.5 l-119 -215q-82 47 -160 74.5t-137 27.5q-57 0 -86 -21.5t-29 -53.5v-4q0 -23 18.5 -40.5t49 -32.5t70.5 -29.5t85 -28.5q57 -18 116.5 -43t107 -63t78 -91t30.5 -129v-4q0 -92 -31.5 -158.5t-89 -109.5t-134.5 -64.5t-165 -21.5q-117 0 -238.5 39.5t-232.5 125.5z" />
<glyph unicode="t" horiz-adv-x="849" d="M59 831v267h131v280h312v-280h258v-267h-258v-469q0 -106 100 -106q84 0 154 39v-250q-49 -29 -108.5 -46t-137.5 -17q-72 0 -130 15t-100 54t-66 101.5t-24 158.5v520h-131z" />
<glyph unicode="u" horiz-adv-x="1275" d="M131 387v711h311v-613q0 -111 48.5 -167t140.5 -56t143 56.5t51 166.5v613h312v-1098h-312v156q-53 -70 -128.5 -123t-192.5 -53q-180 0 -276.5 107.5t-96.5 299.5z" />
<glyph unicode="v" horiz-adv-x="1228" d="M41 1098h330l245 -736l248 736h324l-432 -1106h-283z" />
<glyph unicode="w" horiz-adv-x="1763" d="M49 1098h316l176 -666l207 670h268l209 -672l180 668h309l-342 -1106h-280l-211 674l-215 -674h-279z" />
<glyph unicode="x" horiz-adv-x="1196" d="M47 0l385 557l-371 541h334l205 -320l207 320h326l-371 -535l387 -563h-334l-221 342l-221 -342h-326z" />
<glyph unicode="y" horiz-adv-x="1228" d="M41 1098h330l250 -748l239 748h324l-422 -1125q-31 -84 -65.5 -142t-76.5 -95t-95.5 -53.5t-123.5 -16.5q-86 0 -151.5 20.5t-124.5 55.5l104 225q31 -18 67 -30.5t66 -12.5q41 0 65 15.5t44 56.5z" />
<glyph unicode="z" horiz-adv-x="1153" d="M102 0v219l568 627h-549v252h936v-219l-570 -627h570v-252h-955z" />
<glyph unicode="{" horiz-adv-x="1003" d="M100 469v238h54q121 0 173 45t52 166q0 12 -1 31.5t-2 40t-2 39t-1 30.5q0 78 22.5 142.5t76.5 114.5t146.5 87t233.5 61l55 -207q-82 -23 -131 -46t-75.5 -52t-35 -64.5t-8.5 -80.5q0 -31 3.5 -75t3.5 -77q0 -113 -54.5 -176t-158.5 -98q104 -35 158.5 -98.5 t54.5 -176.5q0 -33 -3.5 -76.5t-3.5 -74.5q0 -47 8.5 -82t35 -63.5t75.5 -52t131 -46.5l-55 -207q-141 25 -233.5 62t-146.5 87t-76.5 114.5t-22.5 142.5q0 12 1 30.5t2 39t2 40t1 31.5q0 121 -52.5 166t-172.5 45h-54z" />
<glyph unicode="|" horiz-adv-x="716" d="M236 -262v1896h245v-1896h-245z" />
<glyph unicode="}" horiz-adv-x="1003" d="M96 -82q82 23 131 46.5t76 52t35 63.5t8 82q0 31 -3 75t-3 76q0 113 54.5 176.5t158.5 98.5q-104 35 -158.5 98.5t-54.5 175.5q0 33 3 77t3 75q0 45 -8 80.5t-35 64.5t-76 52.5t-131 45.5l56 207q141 -25 233 -61.5t146.5 -86.5t77 -114.5t22.5 -142.5q0 -12 -1 -30.5 t-2 -39t-2 -40t-1 -31.5q0 -121 52 -166t173 -45h53v-238h-53q-121 0 -173 -45t-52 -166q0 -12 1 -31.5t2 -40t2 -39t1 -30.5q0 -78 -22.5 -142.5t-77 -114.5t-146.5 -87t-233 -62z" />
<glyph unicode="~" horiz-adv-x="1044" d="M100 510q18 63 40 115.5t51.5 89.5t69.5 57.5t93 20.5q47 0 91 -12.5t83 -28t72 -27.5t62 -12q47 0 70.5 25.5t45.5 74.5l166 -51q-35 -129 -91 -206t-163 -77q-47 0 -91 12.5t-83 28t-72.5 27.5t-60.5 12q-47 0 -70.5 -25.5t-46.5 -74.5z" />
<glyph unicode="&#xa1;" horiz-adv-x="663" d="M150 0v41l96 905h172l96 -905v-41h-364zM166 1106v328h332v-328h-332z" />
<glyph unicode="&#xa2;" horiz-adv-x="1189" d="M96 723v4q0 119 43 222.5t120 181t181.5 122.5t229.5 45h12l29 148h213l-35 -180q68 -23 121 -62t100 -90l-184 -199q-25 25 -48.5 44.5t-52.5 33.5l-112 -567q66 8 119 38t102 77l176 -179q-80 -92 -184.5 -147t-253.5 -59l-33 -168h-213l39 200q-82 31 -149.5 83.5 t-116.5 122t-76 153.5t-27 176zM397 727q0 -86 34 -155.5t97 -108.5l111 567q-53 -4 -97 -29.5t-77 -65.5t-50.5 -93.5t-17.5 -110.5v-4z" />
<glyph unicode="&#xa3;" horiz-adv-x="1318" d="M123 0v207l156 51v289h-156v260h156v166q0 111 31.5 201t90.5 149q63 63 153.5 97t209.5 34q86 0 155.5 -18.5t125 -50t99.5 -74.5t81 -92l-240 -193q-53 68 -102 101.5t-115 33.5q-72 0 -117 -45q-25 -25 -39 -63.5t-14 -87.5v-158h467v-260h-467v-275h623v-272h-1098z " />
<glyph unicode="&#xa4;" horiz-adv-x="1474" d="M100 444v207h154q-2 16 -2 30.5v31.5v4v36.5t2 37.5h-154v206h193q31 100 86 185.5t131 147t171 95t208 33.5q94 0 170 -19.5t136 -54t108.5 -83t89.5 -105.5l-238 -180q-59 78 -120.5 120t-151.5 42q-92 0 -156.5 -47.5t-105.5 -133.5h378v-206h-426q-2 -16 -2 -34v-36 v-4v-32.5t2 -33.5h426v-207h-381q84 -188 277 -188q88 0 148.5 41t127.5 127l226 -166q-90 -127 -208 -205t-294 -78q-117 0 -215 34t-175 95.5t-131.5 148.5t-84.5 191h-189z" />
<glyph unicode="&#xa5;" horiz-adv-x="1404" d="M29 1434h362l316 -531l317 531h352l-442 -676h297v-221h-377v-127h377v-222h-377v-188h-303v188h-377v222h377v127h-377v221h293z" />
<glyph unicode="&#xa7;" horiz-adv-x="1294" d="M113 702v5q0 104 54 157.5t128 81.5q-45 35 -65.5 84t-20.5 103v4q0 147 110.5 232t309.5 85q160 0 275.5 -50t201.5 -144l-168 -168q-72 66 -143.5 100.5t-157.5 34.5q-135 0 -135 -74v-4q0 -16 8 -29.5t31.5 -27t67.5 -26.5t118 -30q121 -27 207 -55.5t141 -64 t81 -80.5t26 -105v-4q0 -102 -54.5 -156.5t-128.5 -83.5q41 -33 63.5 -83t22.5 -103v-4q0 -147 -108 -232t-311 -85q-160 0 -276 50t-202 144l168 168q72 -66 143.5 -100.5t157.5 -34.5q70 0 103 20.5t33 53.5v4q0 18 -10.5 32.5t-35 26.5t-68.5 25.5t-112 27.5 q-242 53 -348 122t-106 183zM385 748q0 -41 50 -67t157 -52q80 -20 126 -28.5t79 -8.5q47 0 79.5 23.5t32.5 66.5v4q0 41 -50 66.5t-157 52.5q-80 20 -126 28.5t-78 8.5q-47 0 -80 -23.5t-33 -66.5v-4z" />
<glyph unicode="&#xa8;" horiz-adv-x="1024" d="M143 1219v276h299v-276h-299zM582 1219v276h299v-276h-299z" />
<glyph unicode="&#xa9;" horiz-adv-x="1699" d="M109 713v4q0 150 57 285t157.5 236t235.5 160.5t293 59.5q156 0 291 -58.5t234.5 -158.5t156.5 -234.5t57 -285.5v-4q0 -152 -57 -286t-157.5 -235.5t-236.5 -161t-292 -59.5t-291 58.5t-234.5 159t-156.5 234.5t-57 286zM195 713q0 -135 49 -255t137 -209t208 -140.5 t259 -51.5q141 0 261 52.5t208 141.5t138 210t50 256v4q0 135 -50 255t-137 209t-207 140t-259 51q-141 0 -261 -52t-208 -141t-138 -210t-50 -256v-4zM455 723v4q0 82 29.5 156.5t84 130t130 88.5t165.5 33q113 0 184.5 -34t127.5 -87l-113 -131q-45 41 -93 64.5t-106 23.5 q-49 0 -90 -19.5t-71.5 -52.5t-47 -77t-16.5 -93v-4q0 -49 16.5 -93t46 -77t71.5 -52.5t91 -19.5q66 0 111 26t92 66l115 -114q-61 -66 -135 -104t-189 -38q-86 0 -160.5 32t-128 86.5t-84 128t-30.5 157.5z" />
<glyph unicode="&#xaa;" horiz-adv-x="798" d="M100 567v135h570v-135h-570zM106 1001v5q0 98 67 145t177 47q45 0 80 -7t68 -17v10q0 111 -131 110q-47 0 -86 -8t-80 -24l-43 129q51 23 103 36t130 13q137 0 205 -68q35 -35 50.5 -84t15.5 -108v-351h-166v66q-31 -35 -75.5 -56.5t-107.5 -21.5q-86 0 -146.5 46 t-60.5 138zM272 1010q0 -35 26 -54.5t67 -19.5q59 0 97 29.5t38 76.5v31q-49 23 -111 23q-53 0 -85 -20.5t-32 -61.5v-4z" />
<glyph unicode="&#xab;" horiz-adv-x="1320" d="M84 541v16l344 459l238 -115l-267 -350l267 -350l-238 -119zM641 541v16l344 459l238 -115l-267 -350l267 -350l-238 -119z" />
<glyph unicode="&#xad;" horiz-adv-x="835" d="M102 485v299h631v-299h-631z" />
<glyph unicode="&#xae;" horiz-adv-x="1699" d="M109 713v4q0 150 57 285t157.5 236t235.5 160.5t293 59.5q156 0 291 -58.5t234.5 -158.5t156.5 -234.5t57 -285.5v-4q0 -152 -57 -286t-157.5 -235.5t-236.5 -161t-292 -59.5t-291 58.5t-234.5 159t-156.5 234.5t-57 286zM195 713q0 -135 49 -255t137 -209t208 -140.5 t259 -51.5q141 0 261 52.5t208 141.5t138 210t50 256v4q0 135 -50 255t-137 209t-207 140t-259 51q-141 0 -261 -52t-208 -141t-138 -210t-50 -256v-4zM545 344v789h350q158 0 244 -86q66 -66 65 -173v-4q0 -98 -47 -156.5t-123 -86.5l193 -283h-203l-168 254h-4h-133v-254 h-174zM719 748h174q66 0 100.5 31.5t34.5 80.5v4q0 57 -37 86t-102 29h-170v-231z" />
<glyph unicode="&#xaf;" horiz-adv-x="1024" d="M143 1229v215h738v-215h-738z" />
<glyph unicode="&#xb0;" horiz-adv-x="983" d="M137 1098v4q0 70 29 132t78 109.5t112.5 75t135.5 27.5q70 0 134 -27.5t113 -75t78 -110t29 -131.5v-4q0 -70 -29 -132.5t-78 -109.5t-113 -74.5t-134 -27.5q-72 0 -135.5 27.5t-112.5 74.5t-78 109.5t-29 132.5zM303 1098q0 -39 14.5 -74t39 -60.5t59.5 -41t76 -15.5 t75.5 15.5t59 41t39 60.5t14.5 74v4q0 39 -14.5 73.5t-39 60.5t-59.5 41t-75 15q-41 0 -76 -15t-59.5 -41t-39 -60.5t-14.5 -73.5v-4z" />
<glyph unicode="&#xb1;" horiz-adv-x="1257" d="M76 219l211 205q72 -76 157.5 -121t202.5 -45q104 0 157.5 45t53.5 123v4q0 80 -70.5 121t-199.5 41h-158v262h166q111 0 167 47t56 119v4q0 66 -54 109t-153 43q-92 0 -159.5 -46.5t-133.5 -119.5l-217 184q49 61 100.5 109.5t113 83t135 53t165.5 18.5 q117 0 211.5 -28.5t162 -80t103 -122t35.5 -154.5v-4q0 -129 -51 -207t-137 -125q98 -43 162.5 -114.5t64.5 -196.5v-4q0 -96 -34.5 -177t-101 -141.5t-165 -94.5t-223.5 -34q-180 0 -321.5 65.5t-245.5 178.5z" />
<glyph unicode="&#xb4;" horiz-adv-x="1024" d="M299 1219l231 362l269 -117l-262 -245h-238z" />
<glyph unicode="&#xb5;" horiz-adv-x="1740" d="M109 713v4q0 154 57 288t158.5 235t242 159.5t305.5 58.5q166 0 305.5 -58.5t241 -157.5t157.5 -233.5t56 -287.5v-4q0 -160 -60.5 -297t-170.5 -242l362 -364v-21h-463l-215 211q-109 -29 -217 -29q-166 0 -305 58.5t-240.5 158t-157.5 233.5t-56 288zM438 717 q0 -92 32 -174t90 -143.5t137 -97.5t175 -36q94 0 174 35t136.5 96.5t88.5 142.5t32 173v4q0 92 -32 174t-90.5 143.5t-138 97t-174.5 35.5q-96 0 -175 -34.5t-135 -96t-88 -142.5t-32 -173v-4z" />
<glyph unicode="&#xb6;" horiz-adv-x="1208" d="M72 948v4q0 113 41 202t115.5 151.5t178 95.5t230.5 33h399v-1434h-315v471h-49q-129 0 -238.5 29.5t-190.5 90t-126 149.5t-45 208z" />
<glyph unicode="&#xb7;" horiz-adv-x="585" d="M127 471v328h332v-328h-332z" />
<glyph unicode="&#xb8;" horiz-adv-x="1024" d="M242 -246l182 266h229l-151 -374z" />
<glyph unicode="&#xba;" horiz-adv-x="798" d="M84 1126v4q0 66 24.5 123.5t66.5 99.5t100.5 66.5t125.5 24.5q68 0 125.5 -24.5t99.5 -66.5t65.5 -99.5t23.5 -120.5v-5q0 -66 -24.5 -123t-66.5 -99t-100.5 -66.5t-126.5 -24.5t-125 24.5t-99 66.5t-65.5 98.5t-23.5 121.5zM104 567v135h590v-135h-590zM252 1128 q0 -66 40.5 -115.5t108.5 -49.5t107 49t39 114v4q0 66 -41 116t-109 50t-106.5 -49t-38.5 -114v-5z" />
<glyph unicode="&#xbb;" horiz-adv-x="1320" d="M98 197l267 350l-267 350l238 119l344 -459v-16l-344 -459zM655 197l267 350l-267 350l238 119l344 -459v-16l-344 -459z" />
<glyph unicode="&#xbf;" horiz-adv-x="1114" d="M76 406v4q0 98 31.5 167.5t86 118.5t128 79t157.5 46l23 125h209l47 -332l-10 -10q-195 -8 -277 -56t-82 -130v-4q0 -70 48 -108t141 -38q86 0 160.5 35t146.5 107l188 -207q-92 -98 -213 -159.5t-289 -61.5q-111 0 -201.5 27.5t-156.5 81.5t-101.5 133t-35.5 182z M446 1106v328h332v-328h-332z" />
<glyph unicode="&#xc0;" d="M49 0l615 1444h290l615 -1444h-330l-131 322h-606l-131 -322h-322zM440 1792l269 117l231 -363h-238zM614 600h381l-190 465z" />
<glyph unicode="&#xc1;" d="M49 0l615 1444h290l615 -1444h-330l-131 322h-606l-131 -322h-322zM614 600h381l-190 465zM678 1546l231 363l269 -117l-263 -246h-237z" />
<glyph unicode="&#xc2;" d="M49 0l615 1444h290l615 -1444h-330l-131 322h-606l-131 -322h-322zM410 1546l252 322h294l252 -322h-239l-162 135l-162 -135h-235zM614 600h381l-190 465z" />
<glyph unicode="&#xc3;" d="M49 0l615 1444h290l615 -1444h-330l-131 322h-606l-131 -322h-322zM387 1577q18 63 40 115.5t51.5 89.5t69.5 57.5t93 20.5q47 0 91 -12.5t83 -28t72 -27.5t61 -12q47 0 70.5 25.5t46.5 74.5l166 -51q-35 -129 -91.5 -206t-162.5 -77q-47 0 -91 12.5t-83 28t-73 27.5 t-60 12q-47 0 -71 -25.5t-46 -74.5zM614 600h381l-190 465z" />
<glyph unicode="&#xc4;" d="M49 0l615 1444h290l615 -1444h-330l-131 322h-606l-131 -322h-322zM440 1546v277h299v-277h-299zM614 600h381l-190 465zM879 1546v277h299v-277h-299z" />
<glyph unicode="&#xc5;" d="M49 0l598 1407q-39 35 -62.5 80t-23.5 98v4q0 49 20.5 92t54.5 75t79 51.5t94 19.5t94 -19.5t79 -51.5t54.5 -75t20.5 -92v-4q0 -53 -23.5 -98t-62.5 -80l598 -1407h-330l-131 322h-606l-131 -322h-322zM614 600h381l-190 465zM682 1585q0 -51 37 -88t90 -37t90 37t37 88 v4q0 51 -37 88t-90 37t-90 -37t-37 -88v-4z" />
<glyph unicode="&#xc6;" horiz-adv-x="2140" d="M18 0l773 1434h1230v-281h-716v-291h624v-280h-624v-301h727v-281h-1041v322h-481l-170 -322h-322zM657 600h334v561h-37z" />
<glyph unicode="&#xc7;" horiz-adv-x="1511" d="M109 713v4q0 154 55 288t153.5 235t235.5 159.5t303 58.5q201 0 334 -61.5t231 -159.5l-200 -231q-86 76 -171 118.5t-196 42.5q-90 0 -167 -34.5t-132 -96t-86 -142.5t-31 -173v-4q0 -92 31 -174t85 -143.5t131 -97.5t169 -36q123 0 208 45t169 123l201 -203 q-102 -111 -226.5 -178t-308.5 -76l-133 -331l-260 108l164 242q-123 29 -226.5 95.5t-177.5 159.5t-114.5 211t-40.5 251z" />
<glyph unicode="&#xc8;" horiz-adv-x="1372" d="M172 0v1434h1081v-281h-768v-291h676v-280h-676v-301h779v-281h-1092zM387 1792l268 117l232 -363h-238z" />
<glyph unicode="&#xc9;" horiz-adv-x="1372" d="M172 0v1434h1081v-281h-768v-291h676v-280h-676v-301h779v-281h-1092zM541 1546l231 363l268 -117l-262 -246h-237z" />
<glyph unicode="&#xca;" horiz-adv-x="1372" d="M172 0v1434h1081v-281h-768v-291h676v-280h-676v-301h779v-281h-1092zM309 1546l252 322h295l252 -322h-240l-161 135l-162 -135h-236z" />
<glyph unicode="&#xcb;" horiz-adv-x="1372" d="M172 0v1434h1081v-281h-768v-291h676v-280h-676v-301h779v-281h-1092zM340 1546v277h299v-277h-299zM778 1546v277h299v-277h-299z" />
<glyph unicode="&#xcc;" horiz-adv-x="688" d="M-25 1792l269 117l231 -363h-237zM186 0v1434h316v-1434h-316z" />
<glyph unicode="&#xcd;" horiz-adv-x="688" d="M186 0v1434h316v-1434h-316zM213 1546l231 363l269 -117l-262 -246h-238z" />
<glyph unicode="&#xce;" horiz-adv-x="688" d="M-55 1546l252 322h295l251 -322h-239l-162 135l-162 -135h-235zM186 0v1434h316v-1434h-316z" />
<glyph unicode="&#xcf;" horiz-adv-x="688" d="M-25 1546v277h299v-277h-299zM186 0v1434h316v-1434h-316zM414 1546v277h299v-277h-299z" />
<glyph unicode="&#xd0;" horiz-adv-x="1662" d="M80 582v278h153v574h560q168 0 308 -54.5t241.5 -150.5t156.5 -226.5t55 -281.5v-4q0 -152 -55 -283t-156.5 -227t-241.5 -151.5t-308 -55.5h-560v582h-153zM545 285h248q96 0 176 30.5t136 88t88 135t32 174.5v4q0 94 -32 174t-88 137t-136 89t-176 32h-248v-289h311 v-278h-311v-297z" />
<glyph unicode="&#xd1;" d="M172 0v1434h291l672 -883v883h311v-1434h-268l-695 911v-911h-311zM387 1577q18 63 40 115.5t51.5 89.5t69.5 57.5t93 20.5q47 0 91 -12.5t83 -28t72 -27.5t61 -12q47 0 70.5 25.5t46.5 74.5l166 -51q-35 -129 -91.5 -206t-162.5 -77q-47 0 -91 12.5t-83 28t-73 27.5 t-60 12q-47 0 -71 -25.5t-46 -74.5z" />
<glyph unicode="&#xd2;" horiz-adv-x="1740" d="M109 713v4q0 154 57 288t158.5 235t242 159.5t305.5 58.5q166 0 305.5 -58.5t241 -157.5t157.5 -233.5t56 -287.5v-4q0 -154 -57 -288t-158.5 -235.5t-242 -160t-306.5 -58.5t-305 58.5t-240.5 158t-157.5 233.5t-56 288zM438 717q0 -92 32 -174t90 -143.5t137 -97.5 t175 -36q94 0 174 35t136.5 96.5t88.5 142.5t32 173v4q0 92 -32 174t-90.5 143.5t-138 97t-174.5 35.5q-96 0 -175 -34.5t-135 -96t-88 -142.5t-32 -173v-4zM481 1792l269 117l231 -363h-238z" />
<glyph unicode="&#xd3;" horiz-adv-x="1740" d="M109 713v4q0 154 57 288t158.5 235t242 159.5t305.5 58.5q166 0 305.5 -58.5t241 -157.5t157.5 -233.5t56 -287.5v-4q0 -154 -57 -288t-158.5 -235.5t-242 -160t-306.5 -58.5t-305 58.5t-240.5 158t-157.5 233.5t-56 288zM438 717q0 -92 32 -174t90 -143.5t137 -97.5 t175 -36q94 0 174 35t136.5 96.5t88.5 142.5t32 173v4q0 92 -32 174t-90.5 143.5t-138 97t-174.5 35.5q-96 0 -175 -34.5t-135 -96t-88 -142.5t-32 -173v-4zM760 1546l231 363l269 -117l-263 -246h-237z" />
<glyph unicode="&#xd4;" horiz-adv-x="1740" d="M109 713v4q0 154 57 288t158.5 235t242 159.5t305.5 58.5q166 0 305.5 -58.5t241 -157.5t157.5 -233.5t56 -287.5v-4q0 -154 -57 -288t-158.5 -235.5t-242 -160t-306.5 -58.5t-305 58.5t-240.5 158t-157.5 233.5t-56 288zM438 717q0 -92 32 -174t90 -143.5t137 -97.5 t175 -36q94 0 174 35t136.5 96.5t88.5 142.5t32 173v4q0 92 -32 174t-90.5 143.5t-138 97t-174.5 35.5q-96 0 -175 -34.5t-135 -96t-88 -142.5t-32 -173v-4zM471 1546l252 322h295l252 -322h-240l-162 135l-161 -135h-236z" />
<glyph unicode="&#xd5;" horiz-adv-x="1740" d="M109 713v4q0 154 57 288t158.5 235t242 159.5t305.5 58.5q166 0 305.5 -58.5t241 -157.5t157.5 -233.5t56 -287.5v-4q0 -154 -57 -288t-158.5 -235.5t-242 -160t-306.5 -58.5t-305 58.5t-240.5 158t-157.5 233.5t-56 288zM438 717q0 -92 32 -174t90 -143.5t137 -97.5 t175 -36q94 0 174 35t136.5 96.5t88.5 142.5t32 173v4q0 92 -32 174t-90.5 143.5t-138 97t-174.5 35.5q-96 0 -175 -34.5t-135 -96t-88 -142.5t-32 -173v-4zM449 1577q18 63 39.5 115.5t51 89.5t69.5 57.5t93 20.5q47 0 91.5 -12.5t83 -28t71.5 -27.5t62 -12q47 0 70.5 25.5 t45.5 74.5l166 -51q-35 -129 -91 -206t-163 -77q-47 0 -91 12.5t-83 28t-72.5 27.5t-60.5 12q-47 0 -70.5 -25.5t-46.5 -74.5z" />
<glyph unicode="&#xd6;" horiz-adv-x="1740" d="M109 713v4q0 154 57 288t158.5 235t242 159.5t305.5 58.5q166 0 305.5 -58.5t241 -157.5t157.5 -233.5t56 -287.5v-4q0 -154 -57 -288t-158.5 -235.5t-242 -160t-306.5 -58.5t-305 58.5t-240.5 158t-157.5 233.5t-56 288zM438 717q0 -92 32 -174t90 -143.5t137 -97.5 t175 -36q94 0 174 35t136.5 96.5t88.5 142.5t32 173v4q0 92 -32 174t-90.5 143.5t-138 97t-174.5 35.5q-96 0 -175 -34.5t-135 -96t-88 -142.5t-32 -173v-4zM502 1546v277h299v-277h-299zM940 1546v277h299v-277h-299z" />
<glyph unicode="&#xd8;" horiz-adv-x="1740" d="M92 -10l201 231q-88 98 -136 224t-48 268v4q0 154 57 288t158.5 235t242 159.5t305.5 58.5q111 0 210.5 -26.5t185.5 -75.5l80 88h301l-201 -234q88 -98 136 -223t48 -266v-4q0 -154 -57 -288t-158.5 -235.5t-242 -160t-306.5 -58.5q-111 0 -210 27t-185 76l-80 -88h-301 zM432 717q0 -139 70 -252l569 659q-45 23 -95 36.5t-108 13.5q-96 0 -176 -36t-138 -97.5t-90 -144.5t-32 -175v-4zM670 309q45 -23 95 -36t107 -13q96 0 176 36t138.5 97.5t90.5 144.5t32 175v4q0 139 -70 252z" />
<glyph unicode="&#xd9;" horiz-adv-x="1548" d="M150 614v820h315v-811q0 -178 81 -266.5t228 -88.5t228 85t81 259v822h316v-809q0 -164 -44 -285t-126 -202t-199 -121t-260 -40q-289 0 -454.5 160t-165.5 477zM416 1782l268 116l231 -362h-237z" />
<glyph unicode="&#xda;" horiz-adv-x="1548" d="M150 614v820h315v-811q0 -178 81 -266.5t228 -88.5t228 85t81 259v822h316v-809q0 -164 -44 -285t-126 -202t-199 -121t-260 -40q-289 0 -454.5 160t-165.5 477zM633 1536l231 362l269 -116l-263 -246h-237z" />
<glyph unicode="&#xdb;" horiz-adv-x="1548" d="M150 614v820h315v-811q0 -178 81 -266.5t228 -88.5t228 85t81 259v822h316v-809q0 -164 -44 -285t-126 -202t-199 -121t-260 -40q-289 0 -454.5 160t-165.5 477zM375 1546l252 322h295l252 -322h-240l-162 135l-162 -135h-235z" />
<glyph unicode="&#xdc;" horiz-adv-x="1548" d="M150 614v820h315v-811q0 -178 81 -266.5t228 -88.5t228 85t81 259v822h316v-809q0 -164 -44 -285t-126 -202t-199 -121t-260 -40q-289 0 -454.5 160t-165.5 477zM406 1546v277h299v-277h-299zM844 1546v277h299v-277h-299z" />
<glyph unicode="&#xdd;" horiz-adv-x="1466" d="M25 1434h368l342 -576l348 576h359l-551 -863v-571h-316v565zM612 1536l232 362l268 -116l-262 -246h-238z" />
<glyph unicode="&#xde;" horiz-adv-x="1378" d="M172 0v1434h315v-209h271q129 0 230.5 -36t172 -101.5t108.5 -156.5t38 -202v-4q0 -125 -45 -219t-124 -157.5t-184.5 -95.5t-226.5 -32h-240v-221h-315zM487 502h250q119 0 184.5 62.5t65.5 154.5v4q0 106 -68.5 161.5t-187.5 55.5h-244v-438z" />
<glyph unicode="&#xdf;" horiz-adv-x="1269" d="M139 0v1030q0 113 36 202t101.5 150.5t158.5 94t208 32.5q111 0 196 -30.5t143 -84t88 -126t30 -156.5v-4q0 -66 -14.5 -116t-40 -90t-59.5 -70.5t-73 -57.5q51 -23 99.5 -54.5t86.5 -75.5t60.5 -101.5t22.5 -130.5v-4q0 -102 -40 -181.5t-115 -132.5t-180.5 -78.5 t-234.5 -19.5v233q129 6 195.5 53.5t66.5 135.5v4q0 84 -74.5 133t-187.5 66v204q76 47 128.5 107.5t52.5 146.5v4q0 78 -44 121t-120 43q-80 0 -130 -55t-50 -150v-1042h-310z" />
<glyph unicode="&#xe0;" horiz-adv-x="1212" d="M74 315v4q0 88 32.5 155t91 110t139.5 64.5t179 21.5q86 0 147.5 -12.5t120.5 -32.5v18q0 201 -235 201q-92 0 -159.5 -15.5t-143.5 -44.5l-78 238q90 39 188.5 63.5t237.5 24.5q129 0 220 -31.5t151 -91.5q61 -61 89.5 -150t28.5 -200v-637h-301v119 q-57 -63 -135.5 -101t-195.5 -38q-78 0 -146.5 21.5t-120 64.5t-81 105t-29.5 144zM258 1464l268 117l232 -362h-238zM375 328q0 -63 47 -98t123 -35q111 0 177 53t66 139v55q-41 18 -91 29.5t-107 11.5q-100 0 -157.5 -38.5t-57.5 -112.5v-4z" />
<glyph unicode="&#xe1;" horiz-adv-x="1212" d="M74 315v4q0 88 32.5 155t91 110t139.5 64.5t179 21.5q86 0 147.5 -12.5t120.5 -32.5v18q0 201 -235 201q-92 0 -159.5 -15.5t-143.5 -44.5l-78 238q90 39 188.5 63.5t237.5 24.5q129 0 220 -31.5t151 -91.5q61 -61 89.5 -150t28.5 -200v-637h-301v119 q-57 -63 -135.5 -101t-195.5 -38q-78 0 -146.5 21.5t-120 64.5t-81 105t-29.5 144zM375 328q0 -63 47 -98t123 -35q111 0 177 53t66 139v55q-41 18 -91 29.5t-107 11.5q-100 0 -157.5 -38.5t-57.5 -112.5v-4zM465 1219l231 362l269 -117l-263 -245h-237z" />
<glyph unicode="&#xe2;" horiz-adv-x="1212" d="M74 315v4q0 88 32.5 155t91 110t139.5 64.5t179 21.5q86 0 147.5 -12.5t120.5 -32.5v18q0 201 -235 201q-92 0 -159.5 -15.5t-143.5 -44.5l-78 238q90 39 188.5 63.5t237.5 24.5q129 0 220 -31.5t151 -91.5q61 -61 89.5 -150t28.5 -200v-637h-301v119 q-57 -63 -135.5 -101t-195.5 -38q-78 0 -146.5 21.5t-120 64.5t-81 105t-29.5 144zM203 1219l252 321h295l251 -321h-239l-162 135l-162 -135h-235zM375 328q0 -63 47 -98t123 -35q111 0 177 53t66 139v55q-41 18 -91 29.5t-107 11.5q-100 0 -157.5 -38.5t-57.5 -112.5v-4z " />
<glyph unicode="&#xe3;" horiz-adv-x="1212" d="M74 315v4q0 88 32.5 155t91 110t139.5 64.5t179 21.5q86 0 147.5 -12.5t120.5 -32.5v18q0 201 -235 201q-92 0 -159.5 -15.5t-143.5 -44.5l-78 238q90 39 188.5 63.5t237.5 24.5q129 0 220 -31.5t151 -91.5q61 -61 89.5 -150t28.5 -200v-637h-301v119 q-57 -63 -135.5 -101t-195.5 -38q-78 0 -146.5 21.5t-120 64.5t-81 105t-29.5 144zM184 1249q18 63 40 115.5t51.5 89.5t69.5 57.5t93 20.5q47 0 91 -12.5t83 -27.5t72 -27.5t61 -12.5q47 0 71 25.5t46 74.5l166 -51q-35 -129 -91 -205.5t-163 -76.5q-47 0 -91 12t-83 27.5 t-72.5 27.5t-60.5 12q-47 0 -70.5 -25.5t-46.5 -74.5zM375 328q0 -63 47 -98t123 -35q111 0 177 53t66 139v55q-41 18 -91 29.5t-107 11.5q-100 0 -157.5 -38.5t-57.5 -112.5v-4z" />
<glyph unicode="&#xe4;" horiz-adv-x="1212" d="M74 315v4q0 88 32.5 155t91 110t139.5 64.5t179 21.5q86 0 147.5 -12.5t120.5 -32.5v18q0 201 -235 201q-92 0 -159.5 -15.5t-143.5 -44.5l-78 238q90 39 188.5 63.5t237.5 24.5q129 0 220 -31.5t151 -91.5q61 -61 89.5 -150t28.5 -200v-637h-301v119 q-57 -63 -135.5 -101t-195.5 -38q-78 0 -146.5 21.5t-120 64.5t-81 105t-29.5 144zM233 1219v276h299v-276h-299zM375 328q0 -63 47 -98t123 -35q111 0 177 53t66 139v55q-41 18 -91 29.5t-107 11.5q-100 0 -157.5 -38.5t-57.5 -112.5v-4zM672 1219v276h299v-276h-299z" />
<glyph unicode="&#xe5;" horiz-adv-x="1212" d="M74 315v4q0 88 32.5 155t91 110t139.5 64.5t179 21.5q86 0 147.5 -12.5t120.5 -32.5v18q0 201 -235 201q-92 0 -159.5 -15.5t-143.5 -44.5l-78 238q90 39 188.5 63.5t237.5 24.5q129 0 220 -31.5t151 -91.5q61 -61 89.5 -150t28.5 -200v-637h-301v119 q-57 -63 -135.5 -101t-195.5 -38q-78 0 -146.5 21.5t-120 64.5t-81 105t-29.5 144zM354 1452v4q0 49 20.5 92t54.5 75t79 51.5t94 19.5t94 -19.5t79 -51.5t54.5 -75t20.5 -92v-4q0 -49 -20.5 -92t-54.5 -75t-79 -51.5t-94 -19.5t-94 19.5t-79 51.5t-54.5 75t-20.5 92z M375 328q0 -63 47 -98t123 -35q111 0 177 53t66 139v55q-41 18 -91 29.5t-107 11.5q-100 0 -157.5 -38.5t-57.5 -112.5v-4zM475 1452q0 -51 37 -88t90 -37t90 37t37 88v4q0 51 -37 88t-90 37t-90 -37t-37 -88v-4z" />
<glyph unicode="&#xe6;" horiz-adv-x="1947" d="M74 315v4q0 88 32.5 155t91 110t139.5 64.5t179 21.5q86 0 147.5 -12.5t120.5 -32.5v18q0 201 -235 201q-92 0 -159.5 -15.5t-143.5 -44.5l-78 238q90 39 188.5 63.5t237.5 24.5q135 0 226 -36t147 -103q68 70 159 108.5t203 38.5q133 0 232.5 -49t165 -132t97 -190.5 t31.5 -224.5q0 -18 -1 -38.5t-3 -43.5h-764q23 -106 93.5 -160.5t175.5 -54.5q78 0 139 27t127 86l178 -158q-78 -98 -188.5 -151.5t-259.5 -53.5q-129 0 -234.5 44t-183.5 122q-94 -70 -205 -115.5t-242 -45.5q-90 0 -165.5 22.5t-131 65.5t-86 105.5t-30.5 141.5zM375 328 q0 -59 49 -94t121 -35q70 0 140.5 25.5t139.5 78.5q-14 33 -24 68t-15 73q-41 16 -91 27.5t-105 11.5q-100 0 -157.5 -38.5t-57.5 -112.5v-4zM1083 635h469q-14 104 -73.5 168.5t-157.5 64.5t-158.5 -63.5t-79.5 -169.5z" />
<glyph unicode="&#xe7;" horiz-adv-x="1169" d="M86 543v4q0 117 43 221t119 182t181.5 123t232.5 45q156 0 258 -49t180 -135l-191 -205q-53 55 -109.5 88t-140.5 33q-59 0 -107 -23.5t-84 -64.5t-55.5 -95.5t-19.5 -115.5v-4q0 -63 19.5 -118.5t56.5 -96.5t88 -64.5t115 -23.5q78 0 136 31.5t116 84.5l182 -184 q-74 -80 -165 -134t-232 -65l-134 -331l-260 108l168 246q-90 27 -162.5 79t-125 122.5t-81 157.5t-28.5 184z" />
<glyph unicode="&#xe8;" horiz-adv-x="1255" d="M86 543v4q0 117 40 221t111.5 182t171 123t220.5 45q137 0 237.5 -49t167 -132t98 -190.5t31.5 -224.5q0 -18 -1 -38.5t-3 -43.5h-764q23 -106 93.5 -160.5t175.5 -54.5q78 0 139 27t127 86l178 -158q-78 -98 -188.5 -151.5t-260.5 -53.5q-123 0 -228 41t-182 117 t-120 179.5t-43 230.5zM250 1464l268 117l232 -362h-238zM391 635h469q-14 104 -73.5 168.5t-157.5 64.5t-158.5 -63.5t-79.5 -169.5z" />
<glyph unicode="&#xe9;" horiz-adv-x="1255" d="M86 543v4q0 117 40 221t111.5 182t171 123t220.5 45q137 0 237.5 -49t167 -132t98 -190.5t31.5 -224.5q0 -18 -1 -38.5t-3 -43.5h-764q23 -106 93.5 -160.5t175.5 -54.5q78 0 139 27t127 86l178 -158q-78 -98 -188.5 -151.5t-260.5 -53.5q-123 0 -228 41t-182 117 t-120 179.5t-43 230.5zM391 635h469q-14 104 -73.5 168.5t-157.5 64.5t-158.5 -63.5t-79.5 -169.5zM504 1219l231 362l269 -117l-263 -245h-237z" />
<glyph unicode="&#xea;" horiz-adv-x="1255" d="M86 543v4q0 117 40 221t111.5 182t171 123t220.5 45q137 0 237.5 -49t167 -132t98 -190.5t31.5 -224.5q0 -18 -1 -38.5t-3 -43.5h-764q23 -106 93.5 -160.5t175.5 -54.5q78 0 139 27t127 86l178 -158q-78 -98 -188.5 -151.5t-260.5 -53.5q-123 0 -228 41t-182 117 t-120 179.5t-43 230.5zM227 1219l252 321h295l252 -321h-240l-161 135l-162 -135h-236zM391 635h469q-14 104 -73.5 168.5t-157.5 64.5t-158.5 -63.5t-79.5 -169.5z" />
<glyph unicode="&#xeb;" horiz-adv-x="1255" d="M86 543v4q0 117 40 221t111.5 182t171 123t220.5 45q137 0 237.5 -49t167 -132t98 -190.5t31.5 -224.5q0 -18 -1 -38.5t-3 -43.5h-764q23 -106 93.5 -160.5t175.5 -54.5q78 0 139 27t127 86l178 -158q-78 -98 -188.5 -151.5t-260.5 -53.5q-123 0 -228 41t-182 117 t-120 179.5t-43 230.5zM258 1219v276h299v-276h-299zM391 635h469q-14 104 -73.5 168.5t-157.5 64.5t-158.5 -63.5t-79.5 -169.5zM696 1219v276h299v-276h-299z" />
<glyph unicode="&#xec;" horiz-adv-x="618" d="M-55 1464l268 117l231 -362h-237zM154 0v1098h311v-1098h-311z" />
<glyph unicode="&#xed;" horiz-adv-x="618" d="M154 0v1098h311v-1098h-311zM174 1219l232 362l268 -117l-262 -245h-238z" />
<glyph unicode="&#xee;" horiz-adv-x="618" d="M-90 1219l252 321h295l252 -321h-240l-162 135l-162 -135h-235zM154 0v1098h311v-1098h-311z" />
<glyph unicode="&#xef;" horiz-adv-x="618" d="M-59 1219v276h299v-276h-299zM154 0v1098h311v-1098h-311zM379 1219v276h299v-276h-299z" />
<glyph unicode="&#xf0;" horiz-adv-x="1327" d="M86 512v4q0 106 35 194.5t97.5 152t148.5 98t188 34.5q72 0 129 -15t123 -50l-178 237l-234 -96l-114 154l235 94l-131 176h350l47 -68l205 84l113 -153l-209 -84l166 -236q96 -137 138 -251.5t42 -245.5v-4q0 -115 -39 -216.5t-114.5 -178t-184.5 -122t-246 -45.5 q-123 0 -227 42t-179 114t-118 170t-43 211zM389 506q0 -55 19.5 -104.5t56.5 -86t87.5 -57t111.5 -20.5q129 0 199.5 77.5t70.5 190.5v4q0 55 -19.5 103.5t-54.5 84t-86 56t-112 20.5q-125 0 -199 -73.5t-74 -190.5v-4z" />
<glyph unicode="&#xf1;" horiz-adv-x="1275" d="M139 0v1098h312v-156q53 70 128.5 123t192.5 53q180 0 276.5 -107.5t96.5 -299.5v-711h-311v612q0 111 -48.5 167.5t-140.5 56.5t-143 -56.5t-51 -167.5v-612h-312zM225 1249q18 63 40 115.5t51.5 89.5t69.5 57.5t93 20.5q47 0 91 -12.5t83 -27.5t72 -27.5t61 -12.5 q47 0 71 25.5t46 74.5l166 -51q-35 -129 -91 -205.5t-163 -76.5q-47 0 -91 12t-83 27.5t-72.5 27.5t-60.5 12q-47 0 -70.5 -25.5t-46.5 -74.5z" />
<glyph unicode="&#xf2;" horiz-adv-x="1359" d="M86 543v4q0 119 45 222t125 181t188.5 123t237.5 45q127 0 235.5 -44t187.5 -120.5t124 -180t45 -222.5v-4q0 -119 -45 -222.5t-125 -181t-188.5 -123t-237.5 -45.5q-127 0 -235.5 44t-187.5 121t-124 180.5t-45 222.5zM299 1464l268 117l232 -362h-238zM393 547 q0 -61 20.5 -115.5t59.5 -96.5t91 -66.5t118 -24.5q68 0 120 23.5t89 64.5t56.5 95t19.5 116v4q0 61 -20.5 115.5t-59.5 96.5t-92.5 66.5t-116.5 24.5q-68 0 -120 -23.5t-89 -64.5t-56.5 -95.5t-19.5 -115.5v-4z" />
<glyph unicode="&#xf3;" horiz-adv-x="1359" d="M86 543v4q0 119 45 222t125 181t188.5 123t237.5 45q127 0 235.5 -44t187.5 -120.5t124 -180t45 -222.5v-4q0 -119 -45 -222.5t-125 -181t-188.5 -123t-237.5 -45.5q-127 0 -235.5 44t-187.5 121t-124 180.5t-45 222.5zM393 547q0 -61 20.5 -115.5t59.5 -96.5t91 -66.5 t118 -24.5q68 0 120 23.5t89 64.5t56.5 95t19.5 116v4q0 61 -20.5 115.5t-59.5 96.5t-92.5 66.5t-116.5 24.5q-68 0 -120 -23.5t-89 -64.5t-56.5 -95.5t-19.5 -115.5v-4zM561 1219l232 362l268 -117l-262 -245h-238z" />
<glyph unicode="&#xf4;" horiz-adv-x="1359" d="M86 543v4q0 119 45 222t125 181t188.5 123t237.5 45q127 0 235.5 -44t187.5 -120.5t124 -180t45 -222.5v-4q0 -119 -45 -222.5t-125 -181t-188.5 -123t-237.5 -45.5q-127 0 -235.5 44t-187.5 121t-124 180.5t-45 222.5zM281 1219l251 321h295l252 -321h-239l-162 135 l-162 -135h-235zM393 547q0 -61 20.5 -115.5t59.5 -96.5t91 -66.5t118 -24.5q68 0 120 23.5t89 64.5t56.5 95t19.5 116v4q0 61 -20.5 115.5t-59.5 96.5t-92.5 66.5t-116.5 24.5q-68 0 -120 -23.5t-89 -64.5t-56.5 -95.5t-19.5 -115.5v-4z" />
<glyph unicode="&#xf5;" horiz-adv-x="1359" d="M86 543v4q0 119 45 222t125 181t188.5 123t237.5 45q127 0 235.5 -44t187.5 -120.5t124 -180t45 -222.5v-4q0 -119 -45 -222.5t-125 -181t-188.5 -123t-237.5 -45.5q-127 0 -235.5 44t-187.5 121t-124 180.5t-45 222.5zM258 1249q18 63 39.5 115.5t51.5 89.5t70 57.5 t93 20.5q47 0 91 -12.5t83 -27.5t72 -27.5t61 -12.5q47 0 70.5 25.5t46.5 74.5l166 -51q-35 -129 -91.5 -205.5t-162.5 -76.5q-47 0 -91 12t-83 27.5t-73 27.5t-60 12q-47 0 -71 -25.5t-46 -74.5zM393 547q0 -61 20.5 -115.5t59.5 -96.5t91 -66.5t118 -24.5q68 0 120 23.5 t89 64.5t56.5 95t19.5 116v4q0 61 -20.5 115.5t-59.5 96.5t-92.5 66.5t-116.5 24.5q-68 0 -120 -23.5t-89 -64.5t-56.5 -95.5t-19.5 -115.5v-4z" />
<glyph unicode="&#xf6;" horiz-adv-x="1359" d="M86 543v4q0 119 45 222t125 181t188.5 123t237.5 45q127 0 235.5 -44t187.5 -120.5t124 -180t45 -222.5v-4q0 -119 -45 -222.5t-125 -181t-188.5 -123t-237.5 -45.5q-127 0 -235.5 44t-187.5 121t-124 180.5t-45 222.5zM311 1219v276h299v-276h-299zM393 547 q0 -61 20.5 -115.5t59.5 -96.5t91 -66.5t118 -24.5q68 0 120 23.5t89 64.5t56.5 95t19.5 116v4q0 61 -20.5 115.5t-59.5 96.5t-92.5 66.5t-116.5 24.5q-68 0 -120 -23.5t-89 -64.5t-56.5 -95.5t-19.5 -115.5v-4zM750 1219v276h299v-276h-299z" />
<glyph unicode="&#xf8;" horiz-adv-x="1359" d="M55 -10l164 188q-63 74 -98 167t-35 198v4q0 119 45 222t125 181t188.5 123t237.5 45q166 0 293 -71l57 61h273l-52 -59l-114 -131q135 -152 135 -367v-4q0 -119 -45 -222.5t-125 -181t-188.5 -123t-237.5 -45.5q-162 0 -295 72l-55 -57h-273zM385 547q0 -76 33 -144 l377 431q-53 25 -117 24q-70 0 -124 -24.5t-92 -66.5t-57.5 -98.5t-19.5 -117.5v-4zM565 258q58 -22 117 -22q70 0 124 24.5t92 66.5t57.5 98t19.5 118v4q0 76 -33 143z" />
<glyph unicode="&#xf9;" horiz-adv-x="1275" d="M131 387v711h311v-613q0 -111 48.5 -167t140.5 -56t143 56.5t51 166.5v613h312v-1098h-312v156q-53 -70 -128.5 -123t-192.5 -53q-180 0 -276.5 107.5t-96.5 299.5zM289 1464l268 117l231 -362h-237z" />
<glyph unicode="&#xfa;" horiz-adv-x="1275" d="M131 387v711h311v-613q0 -111 48.5 -167t140.5 -56t143 56.5t51 166.5v613h312v-1098h-312v156q-53 -70 -128.5 -123t-192.5 -53q-180 0 -276.5 107.5t-96.5 299.5zM485 1219l232 362l268 -117l-262 -245h-238z" />
<glyph unicode="&#xfb;" horiz-adv-x="1275" d="M131 387v711h311v-613q0 -111 48.5 -167t140.5 -56t143 56.5t51 166.5v613h312v-1098h-312v156q-53 -70 -128.5 -123t-192.5 -53q-180 0 -276.5 107.5t-96.5 299.5zM238 1219l251 321h295l252 -321h-239l-162 135l-162 -135h-235z" />
<glyph unicode="&#xfc;" horiz-adv-x="1275" d="M131 387v711h311v-613q0 -111 48.5 -167t140.5 -56t143 56.5t51 166.5v613h312v-1098h-312v156q-53 -70 -128.5 -123t-192.5 -53q-180 0 -276.5 107.5t-96.5 299.5zM268 1219v276h299v-276h-299zM707 1219v276h299v-276h-299z" />
<glyph unicode="&#xfd;" horiz-adv-x="1228" d="M41 1098h330l250 -748l239 748h324l-422 -1125q-31 -84 -65.5 -142t-76.5 -95t-95.5 -53.5t-123.5 -16.5q-86 0 -151.5 20.5t-124.5 55.5l104 225q31 -18 67 -30.5t66 -12.5q41 0 65 15.5t44 56.5zM469 1219l231 362l269 -117l-262 -245h-238z" />
<glyph unicode="&#xfe;" horiz-adv-x="1382" d="M139 -328v1823h312v-555q57 78 138 128t204 50q96 0 186 -37t159.5 -109.5t111.5 -178t42 -242.5v-4q0 -137 -42 -242.5t-110.5 -178.5t-158.5 -109.5t-188 -36.5q-125 0 -206 49t-136 114v-471h-312zM446 547q0 -68 21.5 -124t57.5 -96t84.5 -61.5t103.5 -21.5t103 21.5 t85 61.5t58.5 95t21.5 125v4q0 68 -21.5 124t-58.5 96t-85 61.5t-103 21.5t-103.5 -21.5t-84.5 -61.5t-57.5 -96.5t-21.5 -123.5v-4z" />
<glyph unicode="&#xff;" horiz-adv-x="1228" d="M41 1098h330l250 -748l239 748h324l-422 -1125q-31 -84 -65.5 -142t-76.5 -95t-95.5 -53.5t-123.5 -16.5q-86 0 -151.5 20.5t-124.5 55.5l104 225q31 -18 67 -30.5t66 -12.5q41 0 65 15.5t44 56.5zM246 1219v276h299v-276h-299zM684 1219v276h299v-276h-299z" />
<glyph unicode="&#x152;" horiz-adv-x="2201" d="M109 713v4q0 152 55 282.5t156.5 227t240.5 152t309 55.5h1213v-281h-717v-291h625v-280h-625v-301h727v-281h-1223q-170 0 -309 54.5t-240.5 150.5t-156.5 226t-55 282zM438 717q0 -96 31 -175t88 -136.5t137 -89t176 -31.5h183v864h-183q-96 0 -176 -31t-137 -88 t-88 -136t-31 -173v-4z" />
<glyph unicode="&#x153;" horiz-adv-x="2115" d="M86 543v4q0 119 46 222t125 181t185.5 123t229.5 45q129 0 234.5 -48t178.5 -134q72 86 175.5 134t228.5 48q137 0 237.5 -49t167 -132t98 -190.5t31.5 -224.5q0 -18 -1 -38.5t-3 -43.5h-764q23 -106 93.5 -160.5t175.5 -54.5q78 0 139 27t127 86l178 -158 q-78 -98 -188.5 -151.5t-259.5 -53.5q-135 0 -248 49.5t-191 137.5q-76 -86 -184.5 -136.5t-237.5 -50.5q-117 0 -221 44t-183 121t-124 180.5t-45 222.5zM393 547q0 -61 20.5 -115.5t57.5 -96.5t88.5 -66.5t112.5 -24.5q63 0 114.5 23.5t87 64.5t54 95t18.5 116v4 q0 61 -20.5 115.5t-57.5 96.5t-88 66.5t-112 24.5q-66 0 -116 -24.5t-86 -65.5t-54.5 -95.5t-18.5 -113.5v-4zM1251 635h469q-14 104 -73.5 168.5t-157.5 64.5t-158.5 -63.5t-79.5 -169.5z" />
<glyph unicode="&#x178;" horiz-adv-x="1466" d="M25 1434h368l342 -576l348 576h359l-551 -863v-571h-316v565zM365 1546v277h299v-277h-299zM803 1546v277h299v-277h-299z" />
<glyph unicode="&#x2c6;" horiz-adv-x="1024" d="M113 1219l252 321h294l252 -321h-239l-162 135l-162 -135h-235z" />
<glyph unicode="&#x2dc;" horiz-adv-x="1024" d="M90 1249q18 63 40 115.5t51.5 89.5t69.5 57.5t93 20.5q47 0 91 -12.5t83 -27.5t72 -27.5t61 -12.5q47 0 70.5 25.5t46.5 74.5l166 -51q-35 -129 -91.5 -205.5t-162.5 -76.5q-47 0 -91 12t-83 27.5t-73 27.5t-60 12q-47 0 -70.5 -25.5t-46.5 -74.5z" />
<glyph unicode="&#x2000;" horiz-adv-x="954" />
<glyph unicode="&#x2001;" horiz-adv-x="1909" />
<glyph unicode="&#x2002;" horiz-adv-x="954" />
<glyph unicode="&#x2003;" horiz-adv-x="1909" />
<glyph unicode="&#x2004;" horiz-adv-x="636" />
<glyph unicode="&#x2005;" horiz-adv-x="477" />
<glyph unicode="&#x2006;" horiz-adv-x="318" />
<glyph unicode="&#x2007;" horiz-adv-x="318" />
<glyph unicode="&#x2008;" horiz-adv-x="238" />
<glyph unicode="&#x2009;" horiz-adv-x="381" />
<glyph unicode="&#x200a;" horiz-adv-x="106" />
<glyph unicode="&#x2010;" horiz-adv-x="835" d="M102 485v299h631v-299h-631z" />
<glyph unicode="&#x2011;" horiz-adv-x="835" d="M102 485v299h631v-299h-631z" />
<glyph unicode="&#x2012;" horiz-adv-x="835" d="M102 485v299h631v-299h-631z" />
<glyph unicode="&#x2013;" horiz-adv-x="1081" d="M102 489v291h877v-291h-877z" />
<glyph unicode="&#x2014;" horiz-adv-x="1839" d="M102 489v291h1635v-291h-1635z" />
<glyph unicode="&#x2018;" horiz-adv-x="585" d="M117 784v277q0 203 98 291t281 92l26 -129q-217 -20 -200 -203h127v-328h-332z" />
<glyph unicode="&#x2019;" horiz-adv-x="585" d="M63 903q217 20 201 203h-127v328h332v-277q0 -203 -98.5 -292t-280.5 -91z" />
<glyph unicode="&#x201a;" horiz-adv-x="585" d="M53 -203q217 20 201 203h-127v328h332v-277q0 -203 -98.5 -292t-280.5 -91z" />
<glyph unicode="&#x201c;" horiz-adv-x="1105" d="M117 784v277q0 203 98 291t281 92l26 -129q-217 -20 -200 -203h127v-328h-332zM637 784v277q0 203 98.5 291t280.5 92l26 -129q-217 -20 -200 -203h127v-328h-332z" />
<glyph unicode="&#x201d;" horiz-adv-x="1105" d="M63 903q217 20 201 203h-127v328h332v-277q0 -203 -98.5 -292t-280.5 -91zM584 903q217 20 200 203h-127v328h332v-277q0 -203 -98 -292t-281 -91z" />
<glyph unicode="&#x201e;" horiz-adv-x="1105" d="M53 -203q217 20 201 203h-127v328h332v-277q0 -203 -98.5 -292t-280.5 -91zM573 -203q217 20 201 203h-127v328h332v-277q0 -203 -98.5 -292t-280.5 -91z" />
<glyph unicode="&#x2022;" horiz-adv-x="1024" d="M207 719v4q0 63 23.5 118.5t65.5 96.5t97.5 64.5t118.5 23.5t118.5 -23.5t96.5 -64.5t65.5 -96.5t24.5 -118.5v-4q0 -63 -24.5 -118.5t-65.5 -96.5t-96.5 -64.5t-118.5 -23.5t-118.5 23.5t-97.5 64.5t-65.5 96t-23.5 119z" />
<glyph unicode="&#x2026;" horiz-adv-x="1720" d="M127 0v319h324v-319h-324zM698 0v319h324v-319h-324zM1270 0v319h323v-319h-323z" />
<glyph unicode="&#x202f;" horiz-adv-x="381" />
<glyph unicode="&#x2039;" horiz-adv-x="763" d="M84 541v16l344 459l238 -115l-267 -350l267 -350l-238 -119z" />
<glyph unicode="&#x203a;" horiz-adv-x="763" d="M98 197l267 350l-267 350l238 119l344 -459v-16l-344 -459z" />
<glyph unicode="&#x205f;" horiz-adv-x="477" />
<glyph unicode="&#x2122;" horiz-adv-x="1413" d="M53 1307v127h520v-127h-188v-504h-143v504h-189zM707 803v631h151l166 -267l166 267h147v-631h-135v426l-174 -277h-12l-174 277v-426h-135z" />
<glyph unicode="&#xe000;" horiz-adv-x="1095" d="M0 0v1096h1096v-1096h-1096z" />
<glyph unicode="&#xfb01;" horiz-adv-x="1400" d="M63 831v256h130v70q0 178 88 266q86 86 251 86q74 0 126.5 -8t95.5 -22v-258q-35 12 -68 19t-74 7q-113 0 -112 -119v-43h252v-254h-248v-831h-311v831h-130zM928 1219v276h327v-276h-327zM936 0v1098h311v-1098h-311z" />
<glyph unicode="&#xfb02;" horiz-adv-x="1400" d="M63 831v256h130v70q0 178 88 266q86 86 251 86q74 0 126.5 -8t95.5 -22v-258q-35 12 -68 19t-74 7q-113 0 -112 -119v-43h252v-254h-248v-831h-311v831h-130zM936 0v1495h311v-1495h-311z" />
</font>
</defs></svg> 