<?xml version="1.0" encoding="UTF-8"?>
<svg width="357px" height="98px" viewBox="0 0 357 98" version="1.1" xmlns="http://www.w3.org/2000/svg" xmlns:xlink="http://www.w3.org/1999/xlink">
    <!-- Generator: Sketch 44.1 (41455) - http://www.bohemiancoding.com/sketch -->
    <title>LandscapeHub Logo</title>
    <desc>Created with Sketch.</desc>
    <defs></defs>
    <g id="Logo" stroke="none" stroke-width="1" fill="none" fill-rule="evenodd">
        <g transform="translate(0.000000, -1.000000)" id="landscape-hub-logo">
            <g transform="translate(0.000000, 1.568359)">
                <path d="M0.521955218,50.6669386 L9.37033891,50.6669386 L9.37033891,87.551774 L0.521955218,87.551774 L0.521955218,50.6669386 Z M37.1582405,62.8707487 C39.2129316,64.577468 40.2568316,66.97181 40.2899718,70.0538467 L40.2899718,87.551774 L31.5907182,87.551774 L31.5907182,84.5194627 C29.8011485,86.8061351 27.1002644,87.9494542 23.4879848,87.9494542 C20.6379294,87.9494542 18.3927159,87.1789566 16.752277,85.6379382 C15.1118381,84.0969199 14.291631,82.0671143 14.291631,79.5484607 C14.291631,76.9966668 15.1781175,75.0082859 16.9511171,73.5832582 C18.7241167,72.1582305 21.2675873,71.4291574 24.5816052,71.3960173 L31.5907182,71.3960173 L31.5907182,71.0977571 C31.5907182,69.8052901 31.1516174,68.8110997 30.2734026,68.1151559 C29.3951879,67.4192121 28.127595,67.0712455 26.470586,67.0712455 C25.3438199,67.0712455 24.0762271,67.2535137 22.6677695,67.6180557 C21.2593118,67.9825977 19.8425904,68.5128326 18.4175627,69.2087764 L15.9817717,63.2435739 C18.1690235,62.2493685 20.2651084,61.5120106 22.2700893,61.0314779 C24.2750701,60.5509453 26.3545852,60.3106826 28.5086969,60.3106826 C32.220397,60.3106826 35.1035494,61.1640295 37.1582405,62.8707487 Z M29.7017374,80.9651963 C30.6959428,80.3189628 31.3255967,79.4821858 31.5907182,78.4548402 L31.5907182,76.1184692 L26.321456,76.1184692 C23.8359425,76.1184692 22.5932044,77.0463803 22.5932044,78.9022304 C22.5932044,79.8301554 22.9163163,80.5675134 23.5625498,81.1143263 C24.2087833,81.6611393 25.0952698,81.9345417 26.2220359,81.9345417 C27.5476431,81.9345417 28.707532,81.6114298 29.7017374,80.9651963 Z M71.0853296,63.0944438 C72.8583292,64.9502939 73.7448157,67.4523399 73.7448157,70.6006569 L73.7448157,87.551774 L64.9461421,87.551774 L64.9461421,73.135868 C64.9461421,71.6114197 64.531896,70.4101062 63.7033916,69.5318915 C62.8748871,68.6536767 61.7647077,68.2145759 60.3728202,68.2145759 C58.9146523,68.2477161 57.7133388,68.7282415 56.7688437,69.6561665 C55.8243486,70.5840916 55.2692589,71.8102598 55.103558,73.3347081 L55.103558,87.551774 L46.2551743,87.551774 L46.2551743,60.6586528 L55.103558,60.6586528 L55.103558,65.0331346 C56.0646232,63.4755462 57.2990764,62.2990875 58.8069545,61.5037231 C60.3148327,60.7083588 62.0463811,60.3106826 64.0016517,60.3106826 C66.9511277,60.3106826 69.31233,61.2385938 71.0853296,63.0944438 Z M106.9014,50.6669386 L106.9014,87.551774 L98.0530159,87.551774 L98.0530159,84.0720726 C97.1250909,85.3313994 95.9900567,86.2841652 94.6478795,86.9303987 C93.3057022,87.5766322 91.7895617,87.8997442 90.0994126,87.8997442 C87.6138991,87.8997442 85.4266801,87.3197997 83.5376898,86.1598934 C81.6486996,84.9999871 80.1822687,83.3678578 79.138353,81.2634564 C78.0944373,79.159055 77.5724873,76.7315732 77.5724873,73.9809383 C77.5724873,71.2634436 78.0861524,68.8773865 79.113498,66.8226954 C80.1408436,64.7680042 81.5824197,63.1772995 83.4382698,62.0505334 C85.2941198,60.9237673 87.4481992,60.3603927 89.9005725,60.3603927 C91.6238618,60.3603927 93.173142,60.6917895 94.5484594,61.3545931 C95.9237769,62.0173967 97.0919507,62.9618776 98.0530159,64.1880643 L98.0530159,50.6669386 L106.9014,50.6669386 Z M96.4622952,79.0762155 C97.522781,77.8334587 98.0530159,76.2178992 98.0530159,74.2294885 C98.0530159,72.2079375 97.522781,70.5840931 96.4622952,69.3579064 C95.4018095,68.1317198 94.0099428,67.5186357 92.2866535,67.5186357 C90.5633641,67.5186357 89.1632126,68.1400047 88.0861567,69.3827614 C87.0091009,70.6255182 86.4705811,72.2410777 86.4705811,74.2294885 C86.4705811,76.2178992 87.0091009,77.8334587 88.0861567,79.0762155 C89.1632126,80.3189722 90.5633641,80.9403412 92.2866535,80.9403412 C94.0099428,80.9403412 95.4018095,80.3189722 96.4622952,79.0762155 Z M123.305706,66.4250152 C122.543482,66.4250152 121.930398,66.5658588 121.466436,66.8475504 C121.002473,67.1292419 120.770495,67.5517728 120.770495,68.1151559 C120.770495,68.7116791 121.135032,69.1922045 121.864116,69.5567465 C122.5932,69.9212885 123.753089,70.3189647 125.343817,70.749787 C127.265948,71.3131701 128.864937,71.8682597 130.140834,72.4150727 C131.416731,72.9618857 132.518626,73.7903777 133.446551,74.9005737 C134.374476,76.0107697 134.838431,77.4606309 134.838431,79.2502005 C134.838431,81.9676953 133.786246,84.0969199 131.681845,85.6379382 C129.577444,87.1789566 126.835135,87.9494542 123.454836,87.9494542 C121.168164,87.9494542 118.980945,87.6263423 116.893114,86.9801088 C114.805282,86.3338753 112.94946,85.3811094 111.325591,84.1217826 L114.109353,78.4051302 C115.633801,79.4656159 117.232791,80.2858231 118.90637,80.8657762 C120.579949,81.4457294 122.162368,81.7357016 123.653677,81.7357016 C124.515321,81.7357016 125.20297,81.5948579 125.716642,81.3131664 C126.230315,81.0314749 126.487148,80.6255138 126.487148,80.0952709 C126.487148,79.4324673 126.114326,78.9188022 125.368672,78.5542603 C124.623018,78.1897183 123.454844,77.7920421 121.864116,77.3612198 C119.975126,76.7978367 118.417561,76.242747 117.191374,75.6959341 C115.965187,75.1491211 114.896432,74.328914 113.985078,73.235288 C113.073723,72.1416621 112.618052,70.7166558 112.618052,68.9602263 C112.618052,66.2427315 113.645382,64.1135069 115.700073,62.5724886 C117.754764,61.0314702 120.405939,60.2609726 123.653677,60.2609726 C125.608947,60.2609726 127.539334,60.5260901 129.444894,61.056333 C131.350454,61.5865758 133.148282,62.3653584 134.838431,63.3927039 L131.85583,69.1590663 C128.376111,67.3363565 125.526098,66.4250152 123.305706,66.4250152 Z M151.690128,67.6677657 C150.0994,67.6677657 148.806952,68.2725649 147.812747,69.4821815 C146.818541,70.691798 146.321446,72.257648 146.321446,74.1797784 C146.321446,76.135049 146.818541,77.7091839 147.812747,78.9022304 C148.806952,80.0952769 150.0994,80.6917911 151.690128,80.6917911 C154.142502,80.6917911 155.898905,79.6810308 156.95939,77.6594799 L163.471403,81.3877314 C162.410917,83.4424226 160.820213,85.0331273 158.699241,86.1598934 C156.57827,87.2866595 154.092794,87.8500341 151.242738,87.8500341 C148.492103,87.8500341 146.072906,87.2866595 143.985075,86.1598934 C141.897244,85.0331273 140.281684,83.4424226 139.138348,81.3877314 C137.995012,79.3330403 137.423352,76.9469832 137.423352,74.2294885 C137.423352,71.4788536 138.003297,69.0513718 139.163203,66.9469704 C140.323109,64.842569 141.955239,63.2187246 144.05964,62.0753884 C146.164041,60.9320522 148.591523,60.3603927 151.342158,60.3603927 C154.026513,60.3603927 156.41257,60.9154823 158.500401,62.0256784 C160.588232,63.1358744 162.212077,64.7017244 163.371983,66.7232753 L156.95939,70.4515269 C155.700064,68.5956768 153.94366,67.6677657 151.690128,67.6677657 Z M188.326414,62.8707487 C190.381105,64.577468 191.425005,66.97181 191.458145,70.0538467 L191.458145,87.551774 L182.758891,87.551774 L182.758891,84.5194627 C180.969322,86.8061351 178.268437,87.9494542 174.656158,87.9494542 C171.806102,87.9494542 169.560889,87.1789566 167.92045,85.6379382 C166.280011,84.0969199 165.459804,82.0671143 165.459804,79.5484607 C165.459804,76.9966668 166.34629,75.0082859 168.11929,73.5832582 C169.89229,72.1582305 172.43576,71.4291574 175.749778,71.3960173 L182.758891,71.3960173 L182.758891,71.0977571 C182.758891,69.8052901 182.31979,68.8110997 181.441576,68.1151559 C180.563361,67.4192121 179.295768,67.0712455 177.638759,67.0712455 C176.511993,67.0712455 175.2444,67.2535137 173.835942,67.6180557 C172.427485,67.9825977 171.010763,68.5128326 169.585736,69.2087764 L167.149945,63.2435739 C169.337197,62.2493685 171.433281,61.5120106 173.438262,61.0314779 C175.443243,60.5509453 177.522758,60.3106826 179.67687,60.3106826 C183.38857,60.3106826 186.271722,61.1640295 188.326414,62.8707487 Z M180.86991,80.9651963 C181.864116,80.3189628 182.49377,79.4821858 182.758891,78.4548402 L182.758891,76.1184692 L177.489629,76.1184692 C175.004116,76.1184692 173.761377,77.0463803 173.761377,78.9022304 C173.761377,79.8301554 174.084489,80.5675134 174.730723,81.1143263 C175.376956,81.6611393 176.263443,81.9345417 177.390209,81.9345417 C178.715816,81.9345417 179.875705,81.6114298 180.86991,80.9651963 Z M220.985897,62.0753884 C222.874887,63.2187246 224.341318,64.842569 225.385234,66.9469704 C226.42915,69.0513718 226.9511,71.4788536 226.9511,74.2294885 C226.9511,76.9469832 226.445719,79.3330403 225.434944,81.3877314 C224.424169,83.4424226 222.982592,85.0331273 221.110172,86.1598934 C219.237752,87.2866595 217.075388,87.8500341 214.623014,87.8500341 C212.932865,87.8500341 211.400155,87.5269222 210.024838,86.8806887 C208.64952,86.2344552 207.481346,85.2982592 206.520281,84.0720726 L206.520281,97.195518 L197.671897,97.195518 L197.671897,60.6586528 L206.520281,60.6586528 L206.520281,64.1383542 C208.475552,61.6197006 211.110156,60.3603927 214.424174,60.3603927 C216.909688,60.3603927 219.096907,60.9320522 220.985897,62.0753884 Z M216.43743,78.8525204 C217.514486,77.6263337 218.053006,76.0190591 218.053006,74.0306484 C218.053006,72.0422376 217.514486,70.4266781 216.43743,69.1839213 C215.360374,67.9411646 213.960223,67.3197956 212.236933,67.3197956 C210.546784,67.3197956 209.171488,67.9411646 208.111002,69.1839213 C207.050516,70.4266781 206.520281,72.0422376 206.520281,74.0306484 C206.520281,76.0190591 207.050516,77.6263337 208.111002,78.8525204 C209.171488,80.078707 210.546784,80.6917911 212.236933,80.6917911 C213.960223,80.6917911 215.360374,80.078707 216.43743,78.8525204 Z M253.446541,64.2377743 C255.799493,66.8227083 256.975952,70.3686543 256.975952,74.8757187 C256.975952,75.5716625 256.959382,76.1018974 256.926242,76.4664394 L238.235274,76.4664394 C238.666097,77.9908876 239.41174,79.1590614 240.472225,79.9709958 C241.532711,80.7829302 242.825159,81.1888914 244.349607,81.1888914 C245.509513,81.1888914 246.627977,80.9569136 247.705033,80.4929511 C248.782089,80.0289885 249.767995,79.3496251 250.66278,78.4548402 L255.285811,83.0778721 C253.893924,84.6354606 252.212085,85.8202042 250.240244,86.6321386 C248.268404,87.444073 246.03976,87.8500341 243.554247,87.8500341 C240.671051,87.8500341 238.152435,87.2866595 235.998323,86.1598934 C233.844212,85.0331273 232.195513,83.4424226 231.052176,81.3877314 C229.90884,79.3330403 229.337181,76.9469832 229.337181,74.2294885 C229.337181,71.4788536 229.917125,69.0513718 231.077031,66.9469704 C232.236938,64.842569 233.877352,63.2187246 235.998323,62.0753884 C238.119295,60.9320522 240.571631,60.3603927 243.355406,60.3603927 C247.72991,60.3603927 251.093588,61.6528403 253.446541,64.2377743 Z M248.376119,71.7439874 C248.376119,70.186399 247.920448,68.935376 247.009093,67.9908808 C246.097738,67.0463857 244.896425,66.5741453 243.405116,66.5741453 C242.013229,66.5741453 240.845055,67.0381008 239.90056,67.9660258 C238.956065,68.8939509 238.334696,70.1532588 238.036434,71.7439874 L248.376119,71.7439874 Z" id="landscape" fill="#4A4A4A"></path>
                <path d="M268.047613,54.5789904 L266.78301,53.8802052 C242.06525,40.2043839 242.06525,14.5021008 266.78301,0.826279471 L268.047613,0.127494229 L269.312216,0.826279471 C294.029976,14.5021008 294.029976,40.2043839 269.312216,53.8802052 L268.047613,54.5789904 Z" id="Fill-466" fill="#B8CCD1" fill-rule="nonzero"></path>
                <path d="M287.634607,63.8258583 C289.391037,65.6319981 290.269239,68.1257592 290.269239,71.3072164 L290.269239,87.5623932 L285.646207,87.5623932 L285.646207,72.549967 C285.646207,70.3295749 285.024838,68.5980265 283.782081,67.3552698 C282.539324,66.1125131 280.824346,65.491144 278.637094,65.491144 C276.0853,65.5242842 274.063779,66.3859159 272.572471,68.0760651 C271.081163,69.7662142 270.33552,71.9534333 270.33552,74.6377878 L270.33552,87.5623932 L265.712488,87.5623932 L265.675206,18.4237764 L270.298238,18.4237764 L270.33552,66.9327346 C272.09195,63.121614 275.439058,61.1829425 280.376944,61.1166622 C283.458981,61.1166622 285.878178,62.0197185 287.634607,63.8258583 Z M321.785392,61.2657922 L321.785392,87.5623932 L317.11265,87.5623932 L317.11265,81.9948709 C315.38936,85.7397112 312.141672,87.6452429 307.369486,87.7115233 C304.320589,87.7115233 301.934532,86.8084669 300.211243,85.0023271 C298.487953,83.1961874 297.626322,80.7024263 297.626322,77.520969 L297.626322,61.2657922 L302.299064,61.2657922 L302.299064,76.2782185 C302.299064,78.4986105 302.903863,80.2301589 304.113479,81.4729157 C305.323096,82.7156724 306.988365,83.3370414 309.109336,83.3370414 C311.56171,83.3039013 313.508666,82.4339846 314.950264,80.7272654 C316.391862,79.0205461 317.11265,76.841612 317.11265,74.1903976 L317.11265,61.2657922 L321.785392,61.2657922 Z M350.405936,62.8068029 C352.328067,63.933569 353.819352,65.5077039 354.879838,67.5292549 C355.940324,69.5508058 356.470559,71.8705836 356.470559,74.4886578 C356.470559,77.0735918 355.948609,79.3685148 354.904693,81.3734956 C353.860777,83.3784765 352.386061,84.9360416 350.480501,86.0462376 C348.574941,87.1564336 346.396007,87.7115233 343.943633,87.7115233 C341.723241,87.7115233 339.768,87.2475677 338.077851,86.3196427 C336.387702,85.3917177 335.062115,84.0661304 334.101049,82.342841 L334.101049,87.5623932 L329.478017,87.5623932 L329.478017,50.6775578 L334.101049,50.6775578 L334.101049,66.4853444 C335.062115,64.7620551 336.379417,63.4364678 338.052996,62.5085428 C339.726575,61.5806177 341.656962,61.1166622 343.844213,61.1166622 C346.296587,61.1166622 348.483806,61.6800368 350.405936,62.8068029 Z M347.4979,82.4919711 C348.840077,81.6966068 349.883977,80.5864274 350.629631,79.1613997 C351.375285,77.736372 351.748107,76.1290974 351.748107,74.3395277 C351.748107,72.5830982 351.367,70.9923934 350.604776,69.5673657 C349.842552,68.142338 348.798652,67.0321586 347.473045,66.2367943 C346.147438,65.44143 344.639582,65.0437538 342.949433,65.0437538 C341.259284,65.0437538 339.743143,65.44143 338.400966,66.2367943 C337.058789,67.0321586 336.006604,68.142338 335.24438,69.5673657 C334.482156,70.9923934 334.101049,72.5830982 334.101049,74.3395277 C334.101049,76.1622376 334.482156,77.7777971 335.24438,79.1862547 C336.006604,80.5947123 337.058789,81.6966068 338.400966,82.4919711 C339.743143,83.2873354 341.259284,83.6850116 342.949433,83.6850116 C344.639582,83.6850116 346.155723,83.2873354 347.4979,82.4919711 Z" id="hub" fill="#7199A3"></path>
                <path d="M269.74586,25.8604369 C269.744645,25.8616578 269.743427,25.8628776 269.742208,25.8640965 C269.287406,26.3189312 268.691163,26.5465047 268.094826,26.5465842 C267.497913,26.5465047 266.90167,26.3189312 266.446868,25.8640975 C266.445648,25.8628776 266.444431,25.8616578 266.443216,25.8604369 L259.122335,18.5152785 C258.21386,17.6037904 258.216302,16.1284185 259.12779,15.2199431 C260.039278,14.3114677 261.51465,14.31391 262.423125,15.2253981 L268.094538,20.9156184 L273.76595,15.2253981 C274.674426,14.31391 276.149798,14.3114677 277.061286,15.2199431 C277.972774,16.1284185 277.975216,17.6037904 277.066741,18.5152785 L269.74586,25.8604369 Z" id="Combined-Shape" fill="#7199A3" fill-rule="nonzero" transform="translate(268.094538, 20.543383) scale(1, -1) translate(-268.094538, -20.543383) "></path>
                <path d="M269.74586,40.2839736 C269.744645,40.2851945 269.743427,40.2864143 269.742208,40.2876332 C269.287406,40.7424678 268.691163,40.9700414 268.094826,40.9701209 C267.497913,40.9700414 266.90167,40.7424678 266.446868,40.2876342 C266.445648,40.2864143 266.444431,40.2851945 266.443216,40.2839736 L259.122335,32.9388152 C258.21386,32.0273271 258.216302,30.5519551 259.12779,29.6434797 C260.039278,28.7350044 261.51465,28.7374467 262.423125,29.6489348 L268.094538,35.3391551 L273.76595,29.6489348 C274.674426,28.7374467 276.149798,28.7350044 277.061286,29.6434797 C277.972774,30.5519551 277.975216,32.0273271 277.066741,32.9388152 L269.74586,40.2839736 Z" id="Combined-Shape-Copy" fill="#7199A3" fill-rule="nonzero" transform="translate(268.094538, 34.966919) scale(1, -1) translate(-268.094538, -34.966919) "></path>
            </g>
        </g>
    </g>
</svg>