<?xml version="1.0" standalone="no"?>
<!DOCTYPE svg PUBLIC "-//W3C//DTD SVG 1.1//EN" "http://www.w3.org/Graphics/SVG/1.1/DTD/svg11.dtd" >
<svg xmlns="http://www.w3.org/2000/svg">
<metadata></metadata>
<defs>
<font id="fiore_bookregular" horiz-adv-x="1617" >
<font-face units-per-em="2048" ascent="1638" descent="-410" />
<missing-glyph horiz-adv-x="614" />
<glyph horiz-adv-x="0" />
<glyph unicode="&#xd;" horiz-adv-x="614" />
<glyph horiz-adv-x="0" />
<glyph horiz-adv-x="0" />
<glyph unicode=" "  horiz-adv-x="614" />
<glyph unicode="&#x09;" horiz-adv-x="614" />
<glyph unicode="&#xa0;" horiz-adv-x="614" />
<glyph unicode="!" horiz-adv-x="555" d="M184 0v215h189v-215h-189zM186 1317v117h185v-117l-49 -911h-89z" />
<glyph unicode="&#x22;" horiz-adv-x="901" d="M133 877l62 557h190v-11l-166 -546h-86zM532 877l64 557h188v-11l-166 -546h-86z" />
<glyph unicode="#" horiz-adv-x="1433" d="M92 362v142h248l76 434h-244v141h266l62 355h143l-59 -355h389l61 355h144l-60 -355h221v-141h-245l-76 -434h242v-142h-265l-63 -362h-144l62 362h-389l-64 -362h-143l61 362h-223zM485 504h389l74 434h-389z" />
<glyph unicode="$" horiz-adv-x="1302" d="M115 215l92 123q92 -86 186 -134t211 -61v512q-227 53 -331.5 145.5t-104.5 252.5v4q0 80 31.5 146.5t89 116.5t136.5 80t173 34v118h131v-122q117 -10 208 -52.5t183 -111.5l-88 -123q-74 63 -150.5 98t-158.5 49v-504q233 -53 337.5 -147t104.5 -250v-4 q0 -84 -31.5 -151.5t-89 -117.5t-138.5 -80t-177 -36v-201h-131v205q-137 12 -255 65.5t-228 145.5zM326 1063q0 -43 12 -79t43 -66.5t85 -56t138 -46.5v481q-129 -4 -203.5 -69.5t-74.5 -159.5v-4zM723 137q131 6 208 71.5t77 166.5v4q0 45 -12.5 82t-45 67.5t-87 54 t-140.5 44.5v-490z" />
<glyph unicode="%" horiz-adv-x="1708" d="M106 1079v4q0 74 24 139.5t67 117t103 81t134 29.5q72 0 131.5 -29.5t101.5 -80t65.5 -116t23.5 -137.5v-4q0 -74 -23.5 -139t-66.5 -116.5t-102.5 -81t-133.5 -29.5t-133 29.5t-101 80t-66 116t-24 136.5zM244 1083q0 -53 14 -99t41 -80t60.5 -53.5t74.5 -19.5t76 19.5 t59.5 53.5t38 79t13.5 96v4q0 53 -15.5 99.5t-41 80t-60.5 53t-74 19.5q-43 0 -77 -19.5t-58.5 -53t-37.5 -78.5t-13 -97v-4zM254 0l1053 1434h145l-1051 -1434h-147zM952 346v4q0 74 23.5 139.5t66.5 116.5t102.5 81t133.5 30t133 -30t101 -80t64.5 -115.5t22.5 -137.5v-4 q0 -74 -23.5 -139.5t-65.5 -116.5t-102 -80.5t-134 -29.5q-72 0 -131.5 29.5t-101.5 79.5t-65.5 115.5t-23.5 137.5zM1087 350q0 -53 14.5 -99t41 -80t60.5 -53.5t75 -19.5q43 0 77 19.5t58.5 53.5t37.5 79t13 96v4q0 53 -14 99.5t-41 80t-61.5 53t-73.5 19.5 q-41 0 -76 -19.5t-59.5 -53t-38 -78.5t-13.5 -97v-4z" />
<glyph unicode="&#x26;" horiz-adv-x="1425" d="M92 381v4q0 143 90 245.5t256 168.5q-74 86 -108.5 157.5t-34.5 157.5v4q0 70 27.5 132.5t77 108.5t119 72.5t155.5 26.5q76 0 139.5 -25.5t109.5 -69.5t72.5 -102.5t26.5 -125.5v-5q0 -137 -89 -227t-249 -145l328 -334q94 137 172 319l133 -61q-47 -104 -97.5 -193.5 t-109.5 -166.5l250 -256l-123 -95l-225 232q-98 -106 -213 -164.5t-256 -58.5q-96 0 -179 28.5t-143.5 81.5t-94.5 127t-34 164zM256 387q0 -57 21.5 -106.5t61.5 -86t95 -57t121 -20.5q104 0 192.5 50t165.5 136l-383 395q-143 -53 -208.5 -134t-65.5 -173v-4zM451 1114 q0 -63 30.5 -120.5t112.5 -143.5q137 47 206.5 113.5t69.5 158.5v4q0 86 -57 142.5t-145 56.5q-98 0 -157.5 -59.5t-59.5 -147.5v-4z" />
<glyph unicode="'" horiz-adv-x="501" d="M133 877l62 557h192v-11l-166 -546h-88z" />
<glyph unicode="(" horiz-adv-x="888" d="M139 588q0 287 145.5 505t422.5 371l67 -104q-236 -150 -355.5 -337t-119.5 -435t120 -435.5t355 -336.5l-67 -105q-276 154 -422 372t-146 505z" />
<glyph unicode=")" horiz-adv-x="888" d="M115 -184q236 150 355.5 337t119.5 435t-120 435t-355 337l67 104q276 -154 422 -372t146 -504q0 -287 -145.5 -505t-422.5 -372z" />
<glyph unicode="*" horiz-adv-x="880" d="M141 1016l238 108l-238 111l56 94l211 -147l-21 256h107l-21 -256l211 147l55 -94l-237 -111l237 -108l-55 -96l-211 149l21 -256h-107l21 256l-211 -149z" />
<glyph unicode="+" horiz-adv-x="1310" d="M154 647v148h426v422h151v-422h426v-148h-426v-422h-151v422h-426z" />
<glyph unicode="," horiz-adv-x="501" d="M94 -178q78 29 111 70.5t26 107.5h-73v215h188v-184q0 -125 -55 -189.5t-172 -91.5z" />
<glyph unicode="-" horiz-adv-x="835" d="M133 532v166h569v-166h-569z" />
<glyph unicode="." horiz-adv-x="501" d="M158 0v215h188v-215h-188z" />
<glyph unicode="/" horiz-adv-x="1040" d="M-43 -262l950 1896h146l-951 -1896h-145z" />
<glyph unicode="0" horiz-adv-x="1464" d="M127 713v4q0 150 43 285t123 236t191.5 160.5t250.5 59.5q137 0 249 -58.5t190.5 -159.5t120.5 -235.5t42 -283.5v-4q0 -152 -43 -286t-121.5 -235.5t-191.5 -161t-250 -59.5q-139 0 -250.5 58.5t-190.5 160t-121 234.5t-42 285zM295 717q0 -117 30.5 -224.5t88 -189.5 t138.5 -131t183 -49q100 0 181 48t137.5 129t86 188.5t29.5 224.5v4q0 117 -30.5 224.5t-88 189t-138.5 131t-181 49.5t-181 -48.5t-137.5 -129t-87 -187t-30.5 -225.5v-4z" />
<glyph unicode="1" horiz-adv-x="733" d="M57 1323l351 121h118v-1444h-159v1276l-271 -84z" />
<glyph unicode="2" horiz-adv-x="1226" d="M98 0v125l520 459q82 74 139.5 133t93.5 111.5t51.5 102.5t15.5 103q0 63 -24 113.5t-62.5 86.5t-92 55.5t-110.5 19.5q-123 0 -211 -61.5t-174 -184.5l-119 86q49 72 100 129t111.5 96t134.5 59.5t170 20.5t178 -30.5t141.5 -85t92 -128t32.5 -161.5v-5 q0 -78 -21.5 -143t-66.5 -129.5t-112.5 -133.5t-161.5 -151l-383 -340h760v-147h-1002z" />
<glyph unicode="3" horiz-adv-x="1255" d="M102 231l117 105q86 -104 185.5 -158.5t234.5 -54.5q66 0 123 19.5t99 56.5t66.5 88t24.5 114v5q0 68 -29.5 118.5t-83 85.5t-127 53.5t-161.5 18.5h-92l-33 96l453 510h-701v146h916v-119l-451 -500q94 -8 179 -34.5t150.5 -76t104.5 -122t39 -170.5v-4q0 -96 -38 -176 t-102.5 -136.5t-151.5 -88.5t-187 -32q-180 0 -313.5 70t-221.5 186z" />
<glyph unicode="4" horiz-adv-x="1374" d="M88 457l811 987h141v-969h224v-135h-224v-340h-155v340h-756zM283 475h602v739z" />
<glyph unicode="5" horiz-adv-x="1253" d="M109 203l106 116q94 -92 195.5 -144t212.5 -52q76 0 140 23.5t109.5 66.5t71 101.5t25.5 125.5v4q0 68 -27 123.5t-74 95t-112.5 61t-143.5 21.5q-92 0 -164.5 -23.5t-136.5 -57.5l-108 71l41 699h825v-150h-684l-31 -459q63 29 127 46.5t156 17.5q104 0 194.5 -30 t158 -87t105.5 -138t38 -183v-5q0 -104 -38 -191t-105.5 -149.5t-161.5 -96.5t-207 -34q-154 0 -284 64.5t-228 163.5z" />
<glyph unicode="6" horiz-adv-x="1325" d="M125 676v4q0 164 40 306t116.5 246.5t187.5 165t252 60.5q129 0 229.5 -43t194.5 -121l-94 -125q-80 68 -160 105t-178 37t-176 -47t-132.5 -131t-83 -201t-28.5 -254q29 43 66.5 83t88 69.5t113 48t139.5 18.5q100 0 190.5 -30.5t158 -88t107.5 -139.5t40 -182v-4 q0 -104 -40 -191.5t-108.5 -151t-162.5 -99.5t-203 -36q-119 0 -214 39t-163 107q-43 43 -76.5 94t-56 116.5t-35 149.5t-12.5 195zM322 440q0 -68 26.5 -127t74.5 -102t114.5 -67.5t146.5 -24.5t143.5 25.5t108.5 69.5t69.5 104.5t24.5 127.5v5q0 66 -25.5 122t-71.5 97 t-110.5 64.5t-142.5 23.5q-80 0 -146.5 -26.5t-113.5 -71t-72.5 -100.5t-25.5 -116v-4z" />
<glyph unicode="7" horiz-adv-x="1220" d="M139 1286v148h973v-121l-651 -1313h-180l647 1286h-789z" />
<glyph unicode="8" horiz-adv-x="1290" d="M106 385v4q0 129 83 217t212 135q-49 23 -94 54.5t-78.5 71.5t-53 91.5t-19.5 112.5v4q0 82 40 151.5t106.5 121t155.5 79t187 27.5t187.5 -27.5t156 -79t106.5 -121t40 -151.5v-4q0 -61 -19.5 -112.5t-53.5 -91.5t-79 -71.5t-94 -54.5q127 -47 211 -135t84 -215v-4 q0 -92 -41 -167t-114 -128t-171 -82.5t-213 -29.5t-213 29.5t-171 82.5t-114 128t-41 165zM270 389q0 -55 26 -103t74 -85t117.5 -58.5t157.5 -21.5t157.5 21.5t118 58.5t74 85t25.5 103v4q0 59 -29.5 109.5t-80 86.5t-119 56.5t-146.5 20.5t-146.5 -20.5t-119.5 -56.5 t-80 -86t-29 -110v-4zM317 1061q0 -59 26 -107.5t70 -82t104 -53t128 -19.5t128.5 19.5t104.5 53t69.5 81.5t25.5 108v4q0 53 -24.5 98t-68.5 79t-104.5 52.5t-130.5 18.5q-72 0 -131 -18.5t-103 -51.5t-69 -79t-25 -99v-4z" />
<glyph unicode="9" horiz-adv-x="1325" d="M129 967v4q0 102 38 191t105.5 154.5t162.5 103.5t210 38q123 0 215 -39t162 -108q82 -82 130 -211t48 -344v-4q0 -170 -43 -313.5t-122 -246t-188.5 -160t-242.5 -57.5q-141 0 -245.5 50.5t-196.5 126.5l94 124q88 -78 171 -115.5t181 -37.5q96 0 176 47t136.5 130 t86 198.5t27.5 253.5q-31 -47 -69.5 -89t-89 -73t-112 -49.5t-134.5 -18.5q-111 0 -203 33t-157.5 92.5t-102.5 141t-37 178.5zM295 975q0 -68 25.5 -126t71.5 -99t111.5 -64.5t143.5 -23.5q82 0 148.5 27.5t112.5 72.5t71 103.5t25 119.5v4q0 68 -27 127.5t-75 103.5 t-115.5 69.5t-147.5 25.5t-144.5 -27.5t-108.5 -74t-67.5 -106.5t-23.5 -128v-4z" />
<glyph unicode=":" horiz-adv-x="522" d="M168 0v215h188v-215h-188zM168 844v215h188v-215h-188z" />
<glyph unicode=";" horiz-adv-x="522" d="M104 -178q78 29 111 70.5t27 107.5h-74v215h188v-184q0 -125 -55 -189.5t-172 -91.5zM168 844v215h188v-215h-188z" />
<glyph unicode="&#x3c;" horiz-adv-x="1310" d="M147 653v135l961 478v-158l-789 -385l789 -387v-160z" />
<glyph unicode="=" horiz-adv-x="1310" d="M184 406v151h942v-151h-942zM184 885v151h942v-151h-942z" />
<glyph unicode="&#x3e;" horiz-adv-x="1310" d="M203 176v158l788 385l-788 387v160l960 -478v-135z" />
<glyph unicode="?" horiz-adv-x="1099" d="M61 1214q88 106 203 172t279 66q104 0 188 -30.5t144.5 -85t93 -128t32.5 -161.5v-5q0 -96 -33.5 -168.5t-92 -123t-135 -81t-165.5 -42.5l-20 -221h-104l-31 331l10 11q203 4 305.5 81.5t102.5 206.5v4q0 55 -20.5 103.5t-59.5 85.5t-94.5 57.5t-124.5 20.5 q-117 0 -206 -50.5t-167 -142.5zM408 0v215h188v-215h-188z" />
<glyph unicode="@" horiz-adv-x="2007" d="M109 561q0 184 69.5 347t190 285t284.5 193.5t353 71.5q188 0 351 -66.5t283.5 -178t189 -259t68.5 -307.5q0 -131 -33.5 -225t-87 -155.5t-123 -91.5t-138.5 -30q-113 0 -186 47.5t-101 124.5q-59 -72 -140 -122t-198 -50q-76 0 -142.5 27t-116.5 76t-79 117.5 t-29 152.5q0 109 41 202t108.5 161.5t152.5 107.5t171 39q119 0 191 -52t108 -118l27 141l137 -18l-82 -465q-8 -43 -11 -75.5t-3 -49.5q0 -78 44 -122t130 -44q55 0 106.5 24.5t91.5 77t64.5 132.5t24.5 188q0 141 -62.5 274.5t-172 238t-260 167t-324.5 62.5 q-176 0 -327 -66t-261.5 -178.5t-173 -263t-62.5 -320.5q0 -172 62.5 -321.5t173 -261t265.5 -176t339 -64.5q154 0 272.5 34.5t237.5 104.5l33 -55q-119 -72 -251 -113t-292 -41q-197 0 -363.5 71t-289.5 192.5t-191.5 283.5t-68.5 346zM672 528q0 -123 69.5 -189.5 t180.5 -66.5q66 0 127 31t107 82t73.5 117.5t27.5 138.5q0 55 -18 103.5t-52 83t-80 54t-99 19.5q-66 0 -126.5 -28.5t-106.5 -79t-74.5 -118t-28.5 -147.5z" />
<glyph unicode="A" d="M80 0l653 1444h152l653 -1444h-174l-168 379h-780l-170 -379h-166zM479 524h654l-326 731z" />
<glyph unicode="B" horiz-adv-x="1478" d="M203 0v1434h610q248 0 375 -127q92 -92 92 -230v-4q0 -70 -19.5 -124t-52 -94t-72.5 -67.5t-83 -46.5q63 -18 119.5 -46.5t97.5 -70.5t65.5 -98.5t24.5 -130.5v-4q0 -92 -37 -164.5t-105.5 -123t-165 -77t-212.5 -26.5h-637zM362 145h482q166 0 259 67t93 189v5 q0 117 -95 181t-286 64h-453v-506zM362 795h424q147 0 238.5 63.5t91.5 192.5v4q0 106 -82 169.5t-235 63.5h-437v-493z" />
<glyph unicode="C" horiz-adv-x="1511" d="M139 713v4q0 152 54.5 287t150.5 236t229.5 159.5t290.5 58.5q98 0 177 -16.5t146.5 -46t125 -71.5t110.5 -93l-110 -119q-92 86 -197.5 141.5t-253.5 55.5q-119 0 -220 -45t-176 -125t-117 -187.5t-42 -230.5v-4q0 -125 42 -232.5t117 -187.5t176 -126t220 -46 q147 0 254 54t209 153l107 -105q-111 -115 -246 -183.5t-328 -68.5q-156 0 -287 57.5t-227 157t-150.5 234.5t-54.5 289z" />
<glyph unicode="D" horiz-adv-x="1601" d="M203 0v1434h497q168 0 308.5 -54.5t242 -150.5t156.5 -226.5t55 -281.5v-4q0 -152 -55 -283t-156.5 -227t-242 -151.5t-308.5 -55.5h-497zM365 150h335q135 0 246 43t187.5 118.5t118.5 178t42 223.5v4q0 119 -42 222t-118.5 180t-187 121t-246.5 44h-335v-1134z" />
<glyph unicode="E" horiz-adv-x="1372" d="M203 0v1434h1036v-148h-874v-489h782v-148h-782v-502h884v-147h-1046z" />
<glyph unicode="F" horiz-adv-x="1343" d="M203 0v1434h1030v-150h-868v-512h776v-147h-776v-625h-162z" />
<glyph unicode="G" horiz-adv-x="1605" d="M139 713v4q0 147 52.5 281.5t146.5 236.5t226 162.5t294 60.5q90 0 165 -12t139.5 -37t120.5 -60.5t110 -80.5l-105 -123q-82 72 -183 118t-253 46q-119 0 -219.5 -47.5t-172 -127t-112.5 -187t-41 -226.5v-4q0 -129 40 -237.5t114 -188.5t178 -125t235 -45 q123 0 231.5 42t182.5 101v357h-436v145h592v-571q-100 -92 -246 -156t-330 -64q-170 0 -304 57.5t-229 158t-145.5 234.5t-50.5 288z" />
<glyph unicode="H" horiz-adv-x="1556" d="M203 0v1434h162v-637h827v637h162v-1434h-162v645h-827v-645h-162z" />
<glyph unicode="I" horiz-adv-x="595" d="M217 0v1434h162v-1434h-162z" />
<glyph unicode="J" horiz-adv-x="1132" d="M63 233l117 101q66 -100 140.5 -152.5t187.5 -52.5q121 0 200.5 87t79.5 257v961h164v-959q0 -129 -34.5 -222t-96.5 -155q-120 -118 -315 -118q-162 0 -268.5 71.5t-174.5 181.5z" />
<glyph unicode="K" horiz-adv-x="1472" d="M203 0v1434h162v-856l823 856h209l-615 -627l641 -807h-202l-551 694l-305 -309v-385h-162z" />
<glyph unicode="L" horiz-adv-x="1267" d="M203 0v1434h162v-1284h806v-150h-968z" />
<glyph unicode="M" horiz-adv-x="1777" d="M203 0v1434h164l522 -783l522 783h164v-1434h-162v1161l-522 -768h-8l-523 766v-1159h-157z" />
<glyph unicode="N" d="M203 0v1434h151l903 -1149v1149h158v-1434h-129l-926 1176v-1176h-157z" />
<glyph unicode="O" horiz-adv-x="1740" d="M139 713v4q0 147 53.5 282.5t149.5 236.5t231.5 161.5t298.5 60.5q164 0 298.5 -59.5t230.5 -160.5t148.5 -235.5t52.5 -281.5q1 -1 1 -2t-1 -2q0 -147 -53.5 -282.5t-149.5 -237t-231.5 -162t-299.5 -60.5t-298 59.5t-230 161t-148.5 235.5t-52.5 282zM307 717 q0 -123 42 -230.5t118 -187.5t179 -127t226 -47t226.5 46t177.5 126t116 186.5t42 229.5v4q0 123 -42 230.5t-118 187t-179.5 127t-226.5 47.5t-226 -46t-177 -126t-116 -186.5t-42 -229.5v-4z" />
<glyph unicode="P" horiz-adv-x="1368" d="M203 0v1434h536q121 0 220.5 -32t170 -90.5t108.5 -142.5t38 -190v-4q0 -117 -45 -204t-122 -146.5t-179.5 -89t-216.5 -29.5h-348v-506h-162zM365 653h354q88 0 160.5 22.5t125 64.5t80 99.5t27.5 129.5v4q0 154 -105.5 232.5t-279.5 78.5h-362v-631z" />
<glyph unicode="Q" horiz-adv-x="1740" d="M139 713v4q0 147 53.5 282.5t149.5 236.5t231.5 161.5t298.5 60.5q164 0 298.5 -59.5t230.5 -160.5t148.5 -235.5t52.5 -281.5q2 -2 0 -4q0 -135 -43 -259t-129 -222l190 -158l-111 -121l-188 172q-92 -72 -204.5 -113t-248.5 -41q-164 0 -298 59.5t-230 161 t-148.5 235.5t-52.5 282zM307 717q0 -123 42 -230.5t118 -187.5t179 -127t226 -47q98 0 181.5 28.5t148.5 79.5l-266 228l108 121l265 -240q59 76 92 170t33 201v4q0 123 -42 230.5t-118 187t-179.5 127t-226.5 47.5t-226 -46t-177 -126t-116 -186.5t-42 -229.5v-4z" />
<glyph unicode="R" horiz-adv-x="1480" d="M203 0v1434h616q135 0 237.5 -38t170.5 -106q111 -111 110 -282v-4q0 -90 -28.5 -161t-80.5 -123t-124 -86t-156 -48l441 -586h-199l-416 557h-4h-405v-557h-162zM365 702h440q80 0 147.5 20.5t116.5 58.5t77 92.5t28 123.5v4q0 135 -96.5 209t-270.5 74h-442v-582z" />
<glyph unicode="S" horiz-adv-x="1310" d="M109 209l100 119q113 -104 227.5 -153.5t263.5 -49.5q147 0 233.5 68.5t86.5 175.5v4q0 49 -16.5 89t-57.5 72.5t-113.5 59.5t-185.5 51q-123 27 -214 61.5t-150.5 84t-88 115t-28.5 153.5v4q0 84 35 155.5t98 124t149.5 82t188.5 29.5q158 0 275.5 -44t228.5 -132 l-94 -125q-100 82 -202 119t-212 37q-141 0 -223 -66.5t-82 -165.5v-4q0 -51 16 -91t59 -74t119 -61.5t195 -51.5q240 -53 353.5 -147.5t113.5 -258.5v-4q0 -92 -37 -167t-101.5 -128t-155 -81.5t-196.5 -28.5q-174 0 -315 56t-270 173z" />
<glyph unicode="T" horiz-adv-x="1327" d="M100 1284v150h1127v-150h-482v-1284h-163v1284h-482z" />
<glyph unicode="U" horiz-adv-x="1554" d="M180 600v834h162v-824q0 -236 114.5 -359.5t323.5 -123.5q199 0 315.5 119t116.5 354v834h162v-822q0 -158 -43 -276.5t-122 -198.5t-188.5 -120t-244.5 -40q-133 0 -242.5 40t-188.5 119t-122 196t-43 268z" />
<glyph unicode="V" horiz-adv-x="1536" d="M80 1434h180l510 -1235l512 1235h174l-616 -1444h-144z" />
<glyph unicode="W" horiz-adv-x="2267" d="M92 1434h176l410 -1194l393 1198h133l393 -1198l410 1194h170l-512 -1444h-137l-393 1163l-396 -1163h-135z" />
<glyph unicode="X" horiz-adv-x="1484" d="M94 0l551 731l-530 703h190l440 -586l437 586h188l-530 -701l551 -733h-193l-459 616l-458 -616h-187z" />
<glyph unicode="Y" horiz-adv-x="1466" d="M55 1434h197l483 -717l488 717h188l-596 -865v-569h-164v567z" />
<glyph unicode="Z" horiz-adv-x="1419" d="M137 0v109l928 1179h-897v146h1118v-109l-930 -1180h930v-145h-1149z" />
<glyph unicode="[" horiz-adv-x="899" d="M193 -266v1700h585v-123h-436v-1454h436v-123h-585z" />
<glyph unicode="\" horiz-adv-x="1040" d="M-12 1634h145l950 -1896h-145z" />
<glyph unicode="]" horiz-adv-x="899" d="M121 -143h438v1454h-438v123h586v-1700h-586v123z" />
<glyph unicode="^" horiz-adv-x="1024" d="M133 1010l318 428h122l318 -428h-139l-242 315l-242 -315h-135z" />
<glyph unicode="_" horiz-adv-x="1228" d="M-4 -199h1237v-129h-1237v129z" />
<glyph unicode="`" horiz-adv-x="1024" d="M295 1440l164 76l194 -297h-127z" />
<glyph unicode="a" horiz-adv-x="1185" d="M96 307v4q0 86 33 150.5t93.5 107.5t143.5 65.5t183 22.5q102 0 177 -12t146 -33v33q0 141 -81.5 214t-231.5 73q-94 0 -171 -20.5t-150 -55.5l-48 129q88 41 178.5 65.5t206.5 24.5q225 0 343 -117q111 -111 110 -311v-647h-156v158q-55 -72 -147 -126.5t-233 -54.5 q-74 0 -146 20.5t-127 62.5t-89 103.5t-34 143.5zM256 315q0 -49 21.5 -89t58.5 -66.5t85 -41t101 -14.5q74 0 137.5 20.5t111.5 58.5t75.5 90.5t27.5 115.5v98q-59 16 -134.5 30.5t-174.5 14.5q-147 0 -228 -57t-81 -156v-4z" />
<glyph unicode="b" horiz-adv-x="1359" d="M176 0v1495h158v-649q33 47 72.5 90t89 74.5t110 51t133.5 19.5q94 0 185.5 -36.5t163 -107.5t114.5 -172t43 -233v-4q0 -129 -43 -231t-113.5 -173t-162 -109t-187.5 -38q-74 0 -135 18.5t-110.5 49.5t-89 72t-70.5 86v-203h-158zM328 528q0 -92 31.5 -167.5t86 -129 t123 -83t142.5 -29.5q76 0 144.5 27.5t118.5 80t79.5 128t29.5 171.5v4q0 94 -29.5 170t-80.5 129.5t-119 82t-143 28.5q-74 0 -142.5 -29.5t-123 -84t-86 -129t-31.5 -165.5v-4z" />
<glyph unicode="c" horiz-adv-x="1169" d="M111 524v4q0 113 41 213.5t113.5 176t172 119.5t215.5 44q76 0 137.5 -14t112.5 -40t94 -60.5t80 -73.5l-104 -111q-63 66 -138 113t-184 47q-80 0 -149.5 -31.5t-120.5 -87t-80 -130.5t-29 -161v-4q0 -86 30 -160.5t82 -131t123 -88t155 -31.5q104 0 182 45t141 112 l100 -94q-80 -92 -181 -148.5t-251 -56.5q-117 0 -216 44t-171.5 119t-113.5 175.5t-41 210.5z" />
<glyph unicode="d" horiz-adv-x="1359" d="M115 526v4q0 129 43 231.5t114.5 173.5t161.5 108.5t187 37.5q74 0 135 -18.5t110 -49t89 -71.5t71 -86v639h158v-1495h-158v213q-33 -47 -73 -90t-89 -76t-109 -51.5t-134 -18.5q-96 0 -186.5 37t-162 108t-114.5 172t-43 232zM276 528q0 -94 30 -169.5t81 -129 t118.5 -82t143.5 -28.5q74 0 142.5 29.5t123 84t86 129t31.5 166.5v4q0 92 -31.5 167t-86 128.5t-123 83t-142.5 29.5q-78 0 -145.5 -27.5t-117.5 -80t-80 -128t-30 -172.5v-4z" />
<glyph unicode="e" horiz-adv-x="1212" d="M111 528q0 115 37.5 216.5t105.5 176t161 117.5t203 43q117 0 209.5 -44t156 -119.5t96 -178t32.5 -219.5v-23.5t-2 -31.5h-840q8 -84 41 -149.5t84 -110.5t114.5 -68.5t133.5 -23.5q111 0 189.5 41t144.5 108l98 -88q-80 -90 -182 -144.5t-254 -54.5q-109 0 -205 40 t-167.5 113t-113.5 175.5t-42 224.5zM270 592h682q-6 72 -30.5 136.5t-66.5 113.5t-102.5 77.5t-138.5 28.5q-68 0 -127 -26.5t-104 -74.5t-74.5 -113.5t-38.5 -141.5z" />
<glyph unicode="f" horiz-adv-x="751" d="M90 920v137h146v92q0 180 92 272q82 82 227 82q55 0 95 -6t79 -20v-138q-43 12 -78 19.5t-76 7.5q-184 0 -184 -225v-86h336v-135h-334v-920h-157v920h-146z" />
<glyph unicode="g" horiz-adv-x="1359" d="M115 578v4q0 117 42 209t111.5 156.5t158.5 99t185 34.5q74 0 135.5 -17t112.5 -46t92 -68t74 -82v191h158v-875q0 -123 -35 -216t-100 -158q-72 -72 -173.5 -107t-230.5 -35q-270 0 -481 148l72 123q92 -66 191 -101t216 -35q178 0 281.5 95.5t103.5 281.5v125 q-70 -92 -170 -157.5t-246 -65.5q-96 0 -185 35t-158.5 99.5t-111.5 155.5t-42 206zM276 582q0 -80 30 -146.5t80 -114t116.5 -74t140.5 -26.5q76 0 145.5 25.5t124 74t87 114t32.5 145.5v4q0 82 -32.5 147.5t-87 112.5t-124 72.5t-145.5 25.5t-142.5 -25.5t-116.5 -71.5 t-79 -111.5t-29 -147.5v-4z" />
<glyph unicode="h" horiz-adv-x="1261" d="M176 0v1495h158v-621q53 86 139 146.5t223 60.5q94 0 170 -30.5t128.5 -87t80 -134t27.5 -172.5v-657h-158v618q0 147 -75.5 233.5t-217.5 86.5q-68 0 -126 -23.5t-101 -67.5t-66.5 -105.5t-23.5 -135.5v-606h-158z" />
<glyph unicode="i" horiz-adv-x="538" d="M180 1290v174h180v-174h-180zM190 0v1059h158v-1059h-158z" />
<glyph unicode="j" horiz-adv-x="538" d="M-8 -195q18 -4 39.5 -5t38.5 -1q53 0 86.5 34t33.5 108v1118h158v-1120q0 -141 -67.5 -207t-190.5 -66q-29 0 -50.5 2t-47.5 8v129zM180 1290v174h180v-174h-180z" />
<glyph unicode="k" horiz-adv-x="1165" d="M176 0v1495h158v-1032l571 596h197l-445 -455l459 -604h-188l-379 494l-215 -218v-276h-158z" />
<glyph unicode="l" horiz-adv-x="538" d="M190 0v1495h158v-1495h-158z" />
<glyph unicode="m" horiz-adv-x="1947" d="M176 0v1059h158v-178q27 39 58.5 75.5t72.5 64.5t92 44t119 16q129 0 213 -59t127 -152q57 88 145 149.5t228 61.5q186 0 289.5 -113.5t103.5 -312.5v-655h-158v618q0 154 -72.5 237t-201.5 83q-59 0 -112.5 -21.5t-93.5 -63.5t-63.5 -103.5t-23.5 -139.5v-610h-156v623 q0 150 -71.5 232.5t-200.5 82.5q-63 0 -116.5 -24.5t-93.5 -69.5t-62.5 -105.5t-22.5 -134.5v-604h-158z" />
<glyph unicode="n" horiz-adv-x="1261" d="M176 0v1059h158v-185q53 86 139 146.5t223 60.5q94 0 170 -30.5t128.5 -87t80 -134t27.5 -172.5v-657h-158v618q0 147 -75.5 233.5t-217.5 86.5q-68 0 -126 -23.5t-101 -67.5t-66.5 -105.5t-23.5 -135.5v-606h-158z" />
<glyph unicode="o" horiz-adv-x="1323" d="M111 524v4q0 113 41 213.5t114.5 176t175 119.5t222.5 44q119 0 220 -44t175 -118.5t114.5 -174t40.5 -212.5v-4q0 -113 -42 -213t-115.5 -176t-176 -120t-221.5 -44t-219 44t-173.5 119t-114.5 174.5t-41 211.5zM272 528q0 -86 30 -160.5t82 -130t124 -88t156 -32.5 q86 0 157.5 32.5t122.5 88t80 129t29 157.5v4q0 86 -30 161t-83 131.5t-125 89t-156 32.5q-86 0 -157.5 -32.5t-121.5 -88t-79 -130.5t-29 -159v-4z" />
<glyph unicode="p" horiz-adv-x="1359" d="M176 -328v1387h158v-213q33 47 72.5 90t89 74.5t110 51t133.5 19.5q94 0 185.5 -36.5t163 -107.5t114.5 -172t43 -233v-4q0 -129 -43 -231t-113.5 -173t-161.5 -109t-188 -38q-74 0 -135 18.5t-110.5 49.5t-89 72t-70.5 86v-531h-158zM328 528q0 -92 31.5 -167.5t86 -129 t123 -83t142.5 -29.5q76 0 144.5 27.5t118.5 80t79.5 128t29.5 171.5v4q0 94 -29.5 170t-80.5 129.5t-119 82t-143 28.5q-74 0 -142.5 -29.5t-123 -84t-86 -129t-31.5 -165.5v-4z" />
<glyph unicode="q" horiz-adv-x="1359" d="M115 526v4q0 129 43 231.5t114.5 173.5t161.5 108.5t187 37.5q74 0 135 -18.5t110 -49t89 -71.5t71 -86v203h158v-1387h-158v541q-33 -47 -73 -90t-89 -76t-109.5 -51.5t-133.5 -18.5q-96 0 -186.5 37t-162 108t-114.5 172t-43 232zM276 528q0 -94 30 -169.5t81 -129 t118.5 -82t143.5 -28.5q74 0 142.5 29.5t123 84t86 129t31.5 166.5v4q0 92 -31.5 167t-86 128.5t-123 83t-142.5 29.5q-78 0 -145.5 -27.5t-117.5 -80t-80 -128t-30 -172.5v-4z" />
<glyph unicode="r" horiz-adv-x="829" d="M176 0v1059h158v-277q60 133 170 216q105 79 248 79h14v-170h-12q-86 0 -163 -30.5t-134.5 -92t-90 -152.5t-32.5 -210v-422h-158z" />
<glyph unicode="s" horiz-adv-x="1019" d="M88 135l80 113q176 -135 367 -135q98 0 158.5 45t60.5 123v4q0 39 -21.5 67.5t-58.5 50t-85 37t-100 31.5q-61 18 -123.5 38.5t-112.5 54.5t-82 83t-32 123v4q0 68 27 124t75 96t114.5 61.5t144.5 21.5q98 0 198.5 -31.5t182.5 -84.5l-72 -119q-74 47 -155 74.5 t-158 27.5q-94 0 -149.5 -44t-55.5 -109v-5q0 -37 22.5 -64.5t60.5 -48t87 -36.5t102 -33q61 -18 121.5 -40.5t110 -57.5t79 -84t29.5 -121v-4q0 -76 -29.5 -134.5t-80 -99t-119 -62t-148.5 -21.5q-117 0 -231.5 41.5t-206.5 113.5z" />
<glyph unicode="t" horiz-adv-x="827" d="M84 920v139h147v319h158v-319h336v-139h-336v-619q0 -98 49 -137t129 -39q41 0 77 8t77 29v-135q-82 -45 -191 -45q-66 0 -120 16t-94 52t-62.5 93.5t-22.5 137.5v639h-147z" />
<glyph unicode="u" horiz-adv-x="1261" d="M160 401v658h157v-619q0 -147 76 -233t217 -86q68 0 126.5 23.5t100.5 67.5t66.5 105.5t24.5 135.5v606h155v-1059h-155v184q-53 -86 -139.5 -146.5t-223.5 -60.5q-96 0 -171 31t-127 87.5t-79.5 134t-27.5 171.5z" />
<glyph unicode="v" horiz-adv-x="1202" d="M72 1059h174l356 -879l359 879h169l-460 -1067h-140z" />
<glyph unicode="w" horiz-adv-x="1763" d="M86 1059h168l278 -850l285 854h131l287 -854l278 850h164l-372 -1067h-138l-284 835l-287 -835h-139z" />
<glyph unicode="x" horiz-adv-x="1175" d="M80 0l416 539l-400 520h180l314 -410l313 410h176l-401 -516l418 -543h-183l-327 432l-330 -432h-176z" />
<glyph unicode="y" horiz-adv-x="1210" d="M70 1059h174l385 -883l340 883h168l-445 -1094q-68 -164 -150.5 -231.5t-201.5 -67.5q-66 0 -119 13.5t-106 39.5l53 125q39 -20 77 -29.5t89 -9.5q72 0 121 43t96 156z" />
<glyph unicode="z" horiz-adv-x="1138" d="M115 0v100l702 826h-678v133h893v-101l-704 -825h704v-133h-917z" />
<glyph unicode="{" horiz-adv-x="989" d="M115 526v123h53q137 0 189.5 61.5t52.5 184.5v33.5t-1 45t-1 44v33.5q0 80 17 145.5t66.5 116.5t135.5 89t225 62l25 -104q-109 -29 -171.5 -57.5t-96.5 -66.5t-43 -87t-9 -119q0 -31 1 -76t1 -77q0 -129 -57.5 -194t-155.5 -95q102 -33 157.5 -97.5t55.5 -191.5 q0 -33 -1 -78t-1 -76q0 -68 9 -118t43 -88.5t96.5 -67.5t171.5 -55l-25 -105q-139 25 -225 63t-135.5 89t-66.5 116.5t-17 145.5v32.5t1 43t1 44v36.5q0 119 -52.5 182t-189.5 63h-53z" />
<glyph unicode="|" horiz-adv-x="620" d="M244 -262v1896h133v-1896h-133z" />
<glyph unicode="}" horiz-adv-x="989" d="M111 -184q109 27 172 56.5t97 67t43 88t9 117.5q0 31 -1 76t-1 78q0 129 57.5 193.5t155.5 95.5q-104 33 -158.5 96.5t-54.5 192.5q0 33 1 77.5t1 75.5q0 70 -9 119t-43 87t-97.5 66.5t-171.5 57.5l26 104q137 -25 224.5 -62.5t136.5 -88.5t66.5 -117t17.5 -145v-33 t-1 -44.5t-1 -45v-33.5q0 -123 51 -184.5t188 -61.5h53v-123h-53q-137 0 -188 -61.5t-51 -183.5v-36t1 -44.5t1 -43v-32.5q0 -80 -17.5 -145.5t-66.5 -116.5t-136.5 -89t-224.5 -63z" />
<glyph unicode="~" horiz-adv-x="968" d="M150 512q31 117 75.5 167t118.5 50q33 0 71 -13.5t73.5 -28.5t69.5 -28.5t60 -13.5q41 0 62.5 22.5t44.5 80.5l94 -27q-31 -117 -75 -167t-117 -50q-35 0 -72 13t-74 28.5t-69.5 29t-59.5 13.5q-41 0 -62.5 -22.5t-43.5 -80.5z" />
<glyph unicode="&#xa1;" horiz-adv-x="555" d="M184 1219v215h189v-215h-189zM186 0v117l47 911h89l49 -911v-117h-185z" />
<glyph unicode="&#xa2;" horiz-adv-x="1189" d="M119 723v4q0 113 42 213t114.5 176t172 120t214.5 44h26l31 166h133l-37 -184q86 -23 151.5 -69t118.5 -103l-102 -107q-43 45 -92 82t-109 55l-157 -803q10 -2 21 -2h22q104 0 183 45.5t142 112.5l99 -92q-80 -92 -182.5 -149.5t-250.5 -57.5h-27.5t-27.5 2l-37 -188 h-133l45 217q-80 29 -146.5 80t-113.5 118.5t-73.5 148.5t-26.5 171zM279 727q0 -129 64.5 -231.5t168.5 -149.5l154 793h-9q-80 0 -149.5 -32t-119.5 -87t-79.5 -129t-29.5 -160v-4z" />
<glyph unicode="&#xa3;" horiz-adv-x="1318" d="M137 0v94l172 43v467h-172v141h172v222q0 236 129 364q123 123 324 123q80 0 145.5 -17.5t118.5 -47t95 -69.5t79 -87l-125 -98q-59 76 -131 123t-184 47q-59 0 -109.5 -17.5t-91.5 -58.5q-88 -88 -88 -262v-222h571v-141h-571v-461h727v-143h-1061z" />
<glyph unicode="&#xa4;" horiz-adv-x="1474" d="M115 485v129h166q-4 25 -4.5 48.5t-0.5 50.5v4q0 31 2.5 61.5t6.5 57.5h-170v127h192q29 106 82 197t126 157.5t163 103.5t192 37q90 0 164 -21.5t133.5 -58.5t107.5 -88t89 -112l-123 -88q-39 53 -78 95t-84 70.5t-97 43t-118 14.5q-137 0 -240.5 -97.5t-150.5 -252.5 h526v-127h-553q-4 -25 -6 -55.5t-2 -59.5v-4q0 -29 1 -53.5t3 -49.5h557v-129h-530q47 -166 155.5 -265t262.5 -99q121 0 206 63.5t158 171.5l117 -82q-43 -63 -92 -118.5t-107.5 -95.5t-129 -62.5t-158.5 -22.5q-109 0 -203 37t-169 104.5t-128 161t-80 207.5h-186z" />
<glyph unicode="&#xa5;" horiz-adv-x="1404" d="M55 1434h193l457 -701l460 701h185l-523 -762h373v-127h-420v-180h420v-127h-420v-238h-155v238h-420v127h420v180h-420v127h370z" />
<glyph unicode="&#xa7;" horiz-adv-x="1294" d="M127 733v4q0 94 73.5 153.5t196.5 80.5q-70 35 -110.5 88t-40.5 119v4q0 123 102.5 197.5t274.5 74.5q143 0 263 -53t206 -141l-103 -99q-72 70 -165 114t-206 44q-111 0 -160.5 -38t-49.5 -97v-4q0 -29 16 -53.5t54 -47t102.5 -44t160.5 -44.5q117 -29 198 -57.5 t132 -62t73.5 -75.5t22.5 -96v-4q0 -92 -73.5 -152.5t-196.5 -80.5q70 -35 111 -88t41 -119v-4q0 -123 -102.5 -197.5t-274.5 -74.5q-143 0 -263 53t-206 141l102 98q72 -70 165 -113.5t206 -43.5q111 0 161 39t50 96v4q0 29 -16.5 53.5t-55.5 47t-103.5 44t-158.5 43.5 q-117 27 -198 56.5t-132 64.5t-73.5 77t-22.5 93zM279 750q0 -25 13 -48.5t47 -45t90 -43t140 -42.5q74 -18 128.5 -25t95.5 -7q100 0 161.5 42t61.5 99v4q0 25 -13.5 48.5t-47 45t-90 43t-140.5 41.5q-76 18 -129 25.5t-94 7.5q-100 0 -161.5 -42t-61.5 -99v-4z" />
<glyph unicode="&#xa8;" horiz-adv-x="1024" d="M240 1219v194h184v-194h-184zM600 1219v194h184v-194h-184z" />
<glyph unicode="&#xa9;" horiz-adv-x="1699" d="M109 713v4q0 150 57 285t157.5 236t235.5 160.5t293 59.5q156 0 291 -58.5t234.5 -158.5t156.5 -234.5t57 -285.5v-4q0 -152 -57 -286t-157.5 -235.5t-236.5 -161t-292 -59.5t-291 58.5t-234.5 159t-156.5 234.5t-57 286zM176 713q0 -139 51.5 -262t141.5 -214.5 t213 -144.5t266 -53t267 54t215 146.5t142.5 215.5t51.5 262v4q0 139 -51.5 262t-141.5 214t-213 144.5t-266 53.5q-145 0 -268 -54.5t-214 -146.5t-142.5 -216t-51.5 -261v-4zM477 725v4q0 80 29 150.5t81 125t121.5 85t153.5 30.5q104 0 171 -34.5t124 -88.5l-76 -82 q-45 43 -99 73t-122 30q-57 0 -106 -22.5t-85 -62.5t-56.5 -92.5t-20.5 -109.5v-4q0 -59 20.5 -111.5t57.5 -92.5t86 -62.5t106 -22.5q72 0 123 28t102 75l74 -72q-59 -61 -129 -98t-174 -37q-82 0 -151.5 30.5t-120.5 84t-80 125t-29 151.5z" />
<glyph unicode="&#xaa;" horiz-adv-x="798" d="M119 592v96h532v-96h-532zM125 1020v4q0 92 70.5 141t181.5 49q53 0 91 -6t73 -16v10q0 72 -42 109t-118 37q-47 0 -89 -12.5t-87 -32.5l-31 86q53 23 102.5 37t114.5 14q119 0 191 -66q59 -59 59 -172v-354h-100v78q-35 -41 -83 -65.5t-114 -24.5q-41 0 -80 11 t-69.5 34.5t-50 57.5t-19.5 81zM231 1024q0 -49 39 -75.5t92 -26.5q72 0 125.5 38.5t53.5 104.5v49q-31 10 -69 16.5t-87 6.5q-72 0 -113 -31t-41 -78v-4z" />
<glyph unicode="&#xab;" horiz-adv-x="1126" d="M98 522v17l332 436l121 -68l-277 -375l277 -378l-121 -70zM555 522v17l332 436l119 -68l-277 -375l277 -378l-119 -70z" />
<glyph unicode="&#xad;" horiz-adv-x="835" d="M133 532v166h569v-166h-569z" />
<glyph unicode="&#xae;" horiz-adv-x="1699" d="M109 713v4q0 150 57 285t157.5 236t235.5 160.5t293 59.5q156 0 291 -58.5t234.5 -158.5t156.5 -234.5t57 -285.5v-4q0 -152 -57 -286t-157.5 -235.5t-236.5 -161t-292 -59.5t-291 58.5t-234.5 159t-156.5 234.5t-57 286zM176 713q0 -139 51.5 -262t141.5 -214.5 t213 -144.5t266 -53t267 54t215 146.5t142.5 215.5t51.5 262v4q0 139 -51.5 262t-141.5 214t-213 144.5t-266 53.5q-145 0 -268 -54.5t-214 -146.5t-142.5 -216t-51.5 -261v-4zM559 358v760h340q72 0 129 -22.5t96 -57.5q29 -29 45.5 -64.5t16.5 -82.5v-4 q0 -92 -55.5 -147.5t-141.5 -75.5l236 -306h-140l-219 287h-4h-190v-287h-113zM672 745h217q80 0 130 35t50 101v4q0 59 -46 95t-128 36h-223v-271z" />
<glyph unicode="&#xaf;" horiz-adv-x="1024" d="M188 1229v137h648v-137h-648z" />
<glyph unicode="&#xb0;" horiz-adv-x="937" d="M147 1130v5q0 63 27 119.5t71 99.5t102.5 67.5t121.5 24.5t120.5 -24.5t102.5 -67.5t72 -99.5t27 -119.5v-5q0 -61 -27 -117.5t-72 -99.5t-102.5 -68.5t-120.5 -25.5t-121.5 25.5t-102.5 68.5t-71 99.5t-27 117.5zM266 1130q0 -41 15.5 -77.5t42 -64t64.5 -45t81 -17.5 t81 17.5t64.5 45t42 64.5t15.5 77v5q0 39 -15.5 76.5t-42 65.5t-64.5 45t-81 17t-81 -17t-64.5 -45t-42 -65.5t-15.5 -76.5v-5z" />
<glyph unicode="&#xb1;" horiz-adv-x="1236" d="M88 233l119 103q78 -98 182.5 -155.5t241.5 -57.5q70 0 129 18.5t102 53t67.5 84t24.5 110.5v4q0 123 -99 191.5t-284 68.5h-147v140h151q74 0 136.5 18t107.5 52t70.5 83t25.5 111v4q0 111 -82.5 180.5t-224.5 69.5q-123 0 -210 -53.5t-160 -151.5l-119 86 q86 121 204.5 193.5t288.5 72.5q102 0 188.5 -28.5t148 -80t96 -122t34.5 -152.5v-4q0 -72 -21.5 -126t-56 -95t-79.5 -68.5t-93 -46.5q123 -41 206 -123t83 -219v-4q0 -86 -35.5 -161.5t-100 -131t-154.5 -88.5t-201 -33q-174 0 -310.5 73t-228.5 185z" />
<glyph unicode="&#xb4;" horiz-adv-x="1024" d="M371 1219l194 297l164 -76l-231 -221h-127z" />
<glyph unicode="&#xb5;" horiz-adv-x="1740" d="M139 713v4q0 147 53.5 282.5t149.5 236.5t231.5 161.5t298.5 60.5q164 0 298.5 -59.5t230.5 -160.5t148.5 -235.5t52.5 -281.5q2 -2 0 -4q0 -172 -68 -321.5t-197 -254.5l353 -336v-12h-238l-270 252q-141 -70 -314 -70q-164 0 -298 59.5t-230 161t-148.5 235.5 t-52.5 282zM307 717q0 -123 42 -230.5t118 -187.5t179 -127t226 -47t226.5 46t177.5 126t116 186.5t42 229.5v4q0 123 -42 230.5t-118 187t-179.5 127t-226.5 47.5t-226 -46t-177 -126t-116 -186.5t-42 -229.5v-4z" />
<glyph unicode="&#xb6;" horiz-adv-x="1044" d="M98 985v4q0 104 40 187.5t112 139.5t171 87t218 31h217v-1434h-164v541h-22q-121 0 -225.5 28.5t-181.5 86t-121 139.5t-44 190z" />
<glyph unicode="&#xb7;" horiz-adv-x="501" d="M158 508v215h188v-215h-188z" />
<glyph unicode="&#xb8;" horiz-adv-x="1024" d="M307 -248l185 268h124l-155 -337z" />
<glyph unicode="&#xba;" horiz-adv-x="798" d="M98 1135v4q0 61 22.5 117.5t63.5 97.5t96.5 65.5t120.5 24.5q63 0 118.5 -23.5t95.5 -65.5t62.5 -96.5t22.5 -115.5v-4q0 -61 -22.5 -117.5t-63.5 -97.5t-96 -65.5t-121 -24.5t-120 23.5t-94 65.5t-62.5 96t-22.5 116zM104 592v96h590v-96h-590zM209 1139 q0 -86 53 -146.5t139 -60.5t137.5 58.5t51.5 144.5v4q0 43 -14.5 80.5t-40 65.5t-61.5 44.5t-77 16.5q-86 0 -137 -58.5t-51 -144.5v-4z" />
<glyph unicode="&#xbb;" horiz-adv-x="1126" d="M121 152l276 376l-276 377l119 70l331 -436v-17l-331 -438zM575 152l277 376l-277 377l121 70l332 -436v-17l-332 -438z" />
<glyph unicode="&#xbf;" horiz-adv-x="1099" d="M98 387v4q0 96 34 169t92.5 123t135 81t164.5 43l19 221h104l33 -332l-10 -10q-203 -4 -305.5 -82t-102.5 -207v-4q0 -55 20.5 -103t59.5 -85t94.5 -57.5t124.5 -20.5q113 0 203 50t168 142l104 -100q-88 -106 -201.5 -171.5t-277.5 -65.5q-104 0 -189 30.5t-144.5 85 t-92.5 128t-33 161.5zM504 1219v215h188v-215h-188z" />
<glyph unicode="&#xc0;" d="M80 0l653 1444h152l653 -1444h-174l-168 379h-780l-170 -379h-166zM479 524h654l-326 731zM512 1782l164 76l194 -297h-127z" />
<glyph unicode="&#xc1;" d="M80 0l653 1444h152l653 -1444h-174l-168 379h-780l-170 -379h-166zM479 524h654l-326 731zM748 1561l194 297l164 -76l-232 -221h-126z" />
<glyph unicode="&#xc2;" d="M80 0l653 1444h152l653 -1444h-174l-168 379h-780l-170 -379h-166zM479 524h654l-326 731zM522 1554l217 269h140l217 -269h-135l-154 138l-154 -138h-131z" />
<glyph unicode="&#xc3;" d="M80 0l653 1444h152l653 -1444h-174l-168 379h-780l-170 -379h-166zM473 1569q31 117 76 166t119 49q35 0 71.5 -13.5t73.5 -29t69.5 -27.5t59.5 -12q41 0 62.5 22.5t44.5 77.5l96 -26q-31 -117 -76 -166t-119 -49q-35 0 -71.5 12t-73.5 27.5t-70 28.5t-59 13 q-41 0 -62.5 -22.5t-44.5 -77.5zM479 524h654l-326 731z" />
<glyph unicode="&#xc4;" d="M80 0l653 1444h152l653 -1444h-174l-168 379h-780l-170 -379h-166zM479 524h654l-326 731zM537 1561v194h184v-194h-184zM897 1561v194h184v-194h-184z" />
<glyph unicode="&#xc5;" d="M80 0l629 1393q-49 27 -81 72.5t-32 103.5v4q0 41 17.5 78t47 64.5t67.5 44t81 16.5t81 -16.5t67.5 -44t47 -64.5t17.5 -78v-4q0 -57 -32 -103.5t-81 -72.5l629 -1393h-174l-168 379h-780l-170 -379h-166zM479 524h654l-326 731zM682 1569q0 -51 38 -88t89 -37t89 37 t38 88v4q0 51 -37 88t-90 37t-90 -37t-37 -88v-4z" />
<glyph unicode="&#xc6;" horiz-adv-x="2140" d="M35 0l842 1434h1130v-148h-838v-489h746v-148h-746v-502h848v-147h-1011v379h-578l-223 -379h-170zM510 524h496v766h-50z" />
<glyph unicode="&#xc7;" horiz-adv-x="1511" d="M139 713v4q0 152 54.5 287t150.5 236t229.5 159.5t290.5 58.5q98 0 177 -16.5t146.5 -46t125 -71.5t110.5 -93l-110 -119q-92 86 -197.5 141.5t-253.5 55.5q-119 0 -220 -45t-176 -125t-117 -187.5t-42 -230.5v-4q0 -125 42 -232.5t117 -187.5t176 -126t220 -46 q147 0 254 54t209 153l107 -105q-106 -111 -233.5 -177t-307.5 -75l-135 -292l-154 69l158 230q-135 18 -250 80.5t-197 159.5t-128 222t-46 269z" />
<glyph unicode="&#xc8;" horiz-adv-x="1372" d="M203 0v1434h1036v-148h-874v-489h782v-148h-782v-502h884v-147h-1046zM465 1782l164 76l194 -297h-127z" />
<glyph unicode="&#xc9;" horiz-adv-x="1372" d="M203 0v1434h1036v-148h-874v-489h782v-148h-782v-502h884v-147h-1046zM608 1561l195 297l164 -76l-232 -221h-127z" />
<glyph unicode="&#xca;" horiz-adv-x="1372" d="M203 0v1434h1036v-148h-874v-489h782v-148h-782v-502h884v-147h-1046zM426 1561l217 268h139l217 -268h-135l-153 137l-154 -137h-131z" />
<glyph unicode="&#xcb;" horiz-adv-x="1372" d="M203 0v1434h1036v-148h-874v-489h782v-148h-782v-502h884v-147h-1046zM440 1561v194h185v-194h-185zM801 1561v194h184v-194h-184z" />
<glyph unicode="&#xcc;" horiz-adv-x="595" d="M4 1782l164 76l194 -297h-126zM217 0v1434h162v-1434h-162z" />
<glyph unicode="&#xcd;" horiz-adv-x="595" d="M217 0v1434h162v-1434h-162zM233 1561l195 297l164 -76l-232 -221h-127z" />
<glyph unicode="&#xce;" horiz-adv-x="595" d="M12 1561l217 268h140l217 -268h-135l-154 137l-154 -137h-131zM217 0v1434h162v-1434h-162z" />
<glyph unicode="&#xcf;" horiz-adv-x="595" d="M27 1561v194h184v-194h-184zM217 0v1434h162v-1434h-162zM387 1561v194h184v-194h-184z" />
<glyph unicode="&#xd0;" horiz-adv-x="1662" d="M111 647v148h153v639h498q168 0 308 -54.5t241.5 -150.5t157 -226.5t55.5 -281.5v-4q0 -152 -55.5 -283t-157 -227t-241.5 -151.5t-308 -55.5h-498v647h-153zM426 150h336q135 0 245.5 43t187.5 118.5t119 178t42 223.5v4q0 119 -42 222t-119 180t-187.5 121t-245.5 44 h-336v-489h430v-148h-430v-497z" />
<glyph unicode="&#xd1;" d="M203 0v1434h151l903 -1149v1149h158v-1434h-129l-926 1176v-1176h-157zM473 1569q31 117 76 166t119 49q35 0 71.5 -13.5t73.5 -29t69.5 -27.5t59.5 -12q41 0 62.5 22.5t44.5 77.5l96 -26q-31 -117 -76 -166t-119 -49q-35 0 -71.5 12t-73.5 27.5t-70 28.5t-59 13 q-41 0 -62.5 -22.5t-44.5 -77.5z" />
<glyph unicode="&#xd2;" horiz-adv-x="1740" d="M139 713v4q0 147 53.5 282.5t149.5 236.5t231.5 161.5t298.5 60.5q164 0 298.5 -59.5t230.5 -160.5t148.5 -235.5t52.5 -281.5q2 -2 0 -4q0 -147 -53.5 -282.5t-149.5 -237t-231.5 -162t-299.5 -60.5t-298 59.5t-230 161t-148.5 235.5t-52.5 282zM307 717 q0 -123 42 -230.5t118 -187.5t179 -127t226 -47t226.5 46t177.5 126t116 186.5t42 229.5v4q0 123 -42 230.5t-118 187t-179.5 127t-226.5 47.5t-226 -46t-177 -126t-116 -186.5t-42 -229.5v-4zM565 1782l164 76l195 -297h-127z" />
<glyph unicode="&#xd3;" horiz-adv-x="1740" d="M139 713v4q0 147 53.5 282.5t149.5 236.5t231.5 161.5t298.5 60.5q164 0 298.5 -59.5t230.5 -160.5t148.5 -235.5t52.5 -281.5q2 -2 0 -4q0 -147 -53.5 -282.5t-149.5 -237t-231.5 -162t-299.5 -60.5t-298 59.5t-230 161t-148.5 235.5t-52.5 282zM307 717 q0 -123 42 -230.5t118 -187.5t179 -127t226 -47t226.5 46t177.5 126t116 186.5t42 229.5v4q0 123 -42 230.5t-118 187t-179.5 127t-226.5 47.5t-226 -46t-177 -126t-116 -186.5t-42 -229.5v-4zM817 1561l195 297l164 -76l-232 -221h-127z" />
<glyph unicode="&#xd4;" horiz-adv-x="1740" d="M139 713v4q0 147 53.5 282.5t149.5 236.5t231.5 161.5t298.5 60.5q164 0 298.5 -59.5t230.5 -160.5t148.5 -235.5t52.5 -281.5q2 -2 0 -4q0 -147 -53.5 -282.5t-149.5 -237t-231.5 -162t-299.5 -60.5t-298 59.5t-230 161t-148.5 235.5t-52.5 282zM307 717 q0 -123 42 -230.5t118 -187.5t179 -127t226 -47t226.5 46t177.5 126t116 186.5t42 229.5v4q0 123 -42 230.5t-118 187t-179.5 127t-226.5 47.5t-226 -46t-177 -126t-116 -186.5t-42 -229.5v-4zM584 1561l217 268h139l217 -268h-135l-154 137l-153 -137h-131z" />
<glyph unicode="&#xd5;" horiz-adv-x="1740" d="M139 713v4q0 147 53.5 282.5t149.5 236.5t231.5 161.5t298.5 60.5q164 0 298.5 -59.5t230.5 -160.5t148.5 -235.5t52.5 -281.5q2 -2 0 -4q0 -147 -53.5 -282.5t-149.5 -237t-231.5 -162t-299.5 -60.5t-298 59.5t-230 161t-148.5 235.5t-52.5 282zM307 717 q0 -123 42 -230.5t118 -187.5t179 -127t226 -47t226.5 46t177.5 126t116 186.5t42 229.5v4q0 123 -42 230.5t-118 187t-179.5 127t-226.5 47.5t-226 -46t-177 -126t-116 -186.5t-42 -229.5v-4zM535 1569q31 117 75.5 166t118.5 49q35 0 72 -13.5t73.5 -29t69.5 -27.5t60 -12 q41 0 62 22.5t44 77.5l96 -26q-31 -117 -76 -166t-118 -49q-35 0 -72 12t-74 27.5t-69.5 28.5t-59.5 13q-41 0 -62.5 -22.5t-43.5 -77.5z" />
<glyph unicode="&#xd6;" horiz-adv-x="1740" d="M139 713v4q0 147 53.5 282.5t149.5 236.5t231.5 161.5t298.5 60.5q164 0 298.5 -59.5t230.5 -160.5t148.5 -235.5t52.5 -281.5q2 -2 0 -4q0 -147 -53.5 -282.5t-149.5 -237t-231.5 -162t-299.5 -60.5t-298 59.5t-230 161t-148.5 235.5t-52.5 282zM307 717 q0 -123 42 -230.5t118 -187.5t179 -127t226 -47t226.5 46t177.5 126t116 186.5t42 229.5v4q0 123 -42 230.5t-118 187t-179.5 127t-226.5 47.5t-226 -46t-177 -126t-116 -186.5t-42 -229.5v-4zM598 1561v194h184v-194h-184zM958 1561v194h185v-194h-185z" />
<glyph unicode="&#xd8;" horiz-adv-x="1740" d="M123 -10l203 221q-92 100 -139.5 229t-47.5 273v4q0 147 53.5 282.5t149.5 236.5t231.5 161.5t298.5 60.5q135 0 246 -40t203 -111l127 137h170l-203 -221q92 -100 139.5 -229.5t47.5 -272.5q2 -2 0 -4q0 -147 -53.5 -282.5t-149.5 -237t-231.5 -162t-299.5 -60.5 q-135 0 -245.5 39t-202.5 111l-127 -135h-170zM307 717q0 -111 34 -208t95 -175l781 852q-70 59 -157 92t-192 33q-123 0 -226 -46t-177 -126t-116 -187.5t-42 -230.5v-4zM524 248q70 -59 157 -92t191 -33q123 0 226.5 46t177.5 126t116 187.5t42 230.5v4q0 111 -34 208 t-95 175z" />
<glyph unicode="&#xd9;" horiz-adv-x="1554" d="M180 600v834h162v-824q0 -236 114.5 -359.5t323.5 -123.5q199 0 315.5 119t116.5 354v834h162v-822q0 -158 -43 -276.5t-122 -198.5t-188.5 -120t-244.5 -40q-133 0 -242.5 40t-188.5 119t-122 196t-43 268zM494 1772l163 75l195 -297h-127z" />
<glyph unicode="&#xda;" horiz-adv-x="1554" d="M180 600v834h162v-824q0 -236 114.5 -359.5t323.5 -123.5q199 0 315.5 119t116.5 354v834h162v-822q0 -158 -43 -276.5t-122 -198.5t-188.5 -120t-244.5 -40q-133 0 -242.5 40t-188.5 119t-122 196t-43 268zM702 1550l195 297l164 -75l-232 -222h-127z" />
<glyph unicode="&#xdb;" horiz-adv-x="1554" d="M180 600v834h162v-824q0 -236 114.5 -359.5t323.5 -123.5q199 0 315.5 119t116.5 354v834h162v-822q0 -158 -43 -276.5t-122 -198.5t-188.5 -120t-244.5 -40q-133 0 -242.5 40t-188.5 119t-122 196t-43 268zM489 1554l218 269h139l217 -269h-135l-154 138l-153 -138h-132 z" />
<glyph unicode="&#xdc;" horiz-adv-x="1554" d="M180 600v834h162v-824q0 -236 114.5 -359.5t323.5 -123.5q199 0 315.5 119t116.5 354v834h162v-822q0 -158 -43 -276.5t-122 -198.5t-188.5 -120t-244.5 -40q-133 0 -242.5 40t-188.5 119t-122 196t-43 268zM504 1554v195h184v-195h-184zM864 1554v195h185v-195h-185z " />
<glyph unicode="&#xdd;" horiz-adv-x="1466" d="M55 1434h197l483 -717l488 717h188l-596 -865v-569h-164v567zM674 1550l194 297l164 -75l-231 -222h-127z" />
<glyph unicode="&#xde;" horiz-adv-x="1378" d="M203 0v1434h162v-246h374q121 0 220.5 -32t170 -90t108.5 -143t38 -190v-4q0 -117 -45 -205t-122 -147.5t-179.5 -89t-216.5 -29.5h-348v-258h-162zM365 406h354q88 0 160.5 23.5t125 64.5t80 99t27.5 130v4q0 154 -105.5 232.5t-279.5 78.5h-362v-632z" />
<glyph unicode="&#xdf;" horiz-adv-x="1269" d="M176 0v1026q0 109 33 198t93 152.5t146.5 98t192.5 34.5q96 0 174 -28.5t133.5 -77.5t85 -116.5t29.5 -145.5v-4q0 -72 -24.5 -131.5t-64.5 -106.5t-91.5 -81t-104.5 -56q72 -16 139.5 -46t120 -74t83 -104.5t30.5 -140.5v-4q0 -94 -39 -168.5t-110.5 -126t-174 -78 t-229.5 -24.5v127q184 4 287.5 72.5t103.5 197.5v4q0 123 -105.5 192.5t-285.5 88.5v117q63 25 119.5 55.5t96.5 70.5t63.5 91t23.5 114v4q0 106 -72.5 173t-195.5 67q-131 0 -215 -91t-84 -251v-1028h-158z" />
<glyph unicode="&#xe0;" horiz-adv-x="1185" d="M96 307v4q0 86 33 150.5t93.5 107.5t143.5 65.5t183 22.5q102 0 177 -12t146 -33v33q0 141 -81.5 214t-231.5 73q-94 0 -171 -20.5t-150 -55.5l-48 129q88 41 178.5 65.5t206.5 24.5q225 0 343 -117q111 -111 110 -311v-647h-156v158q-55 -72 -147 -126.5t-233 -54.5 q-74 0 -146 20.5t-127 62.5t-89 103.5t-34 143.5zM256 315q0 -49 21.5 -89t58.5 -66.5t85 -41t101 -14.5q74 0 137.5 20.5t111.5 58.5t75.5 90.5t27.5 115.5v98q-59 16 -134.5 30.5t-174.5 14.5q-147 0 -228 -57t-81 -156v-4zM303 1440l164 76l195 -297h-127z" />
<glyph unicode="&#xe1;" horiz-adv-x="1185" d="M96 307v4q0 86 33 150.5t93.5 107.5t143.5 65.5t183 22.5q102 0 177 -12t146 -33v33q0 141 -81.5 214t-231.5 73q-94 0 -171 -20.5t-150 -55.5l-48 129q88 41 178.5 65.5t206.5 24.5q225 0 343 -117q111 -111 110 -311v-647h-156v158q-55 -72 -147 -126.5t-233 -54.5 q-74 0 -146 20.5t-127 62.5t-89 103.5t-34 143.5zM256 315q0 -49 21.5 -89t58.5 -66.5t85 -41t101 -14.5q74 0 137.5 20.5t111.5 58.5t75.5 90.5t27.5 115.5v98q-59 16 -134.5 30.5t-174.5 14.5q-147 0 -228 -57t-81 -156v-4zM508 1219l194 297l164 -76l-231 -221h-127z" />
<glyph unicode="&#xe2;" horiz-adv-x="1185" d="M96 307v4q0 86 33 150.5t93.5 107.5t143.5 65.5t183 22.5q102 0 177 -12t146 -33v33q0 141 -81.5 214t-231.5 73q-94 0 -171 -20.5t-150 -55.5l-48 129q88 41 178.5 65.5t206.5 24.5q225 0 343 -117q111 -111 110 -311v-647h-156v158q-55 -72 -147 -126.5t-233 -54.5 q-74 0 -146 20.5t-127 62.5t-89 103.5t-34 143.5zM256 315q0 -49 21.5 -89t58.5 -66.5t85 -41t101 -14.5q74 0 137.5 20.5t111.5 58.5t75.5 90.5t27.5 115.5v98q-59 16 -134.5 30.5t-174.5 14.5q-147 0 -228 -57t-81 -156v-4zM309 1219l217 268h140l217 -268h-135l-154 137 l-154 -137h-131z" />
<glyph unicode="&#xe3;" horiz-adv-x="1185" d="M96 307v4q0 86 33 150.5t93.5 107.5t143.5 65.5t183 22.5q102 0 177 -12t146 -33v33q0 141 -81.5 214t-231.5 73q-94 0 -171 -20.5t-150 -55.5l-48 129q88 41 178.5 65.5t206.5 24.5q225 0 343 -117q111 -111 110 -311v-647h-156v158q-55 -72 -147 -126.5t-233 -54.5 q-74 0 -146 20.5t-127 62.5t-89 103.5t-34 143.5zM256 315q0 -49 21.5 -89t58.5 -66.5t85 -41t101 -14.5q74 0 137.5 20.5t111.5 58.5t75.5 90.5t27.5 115.5v98q-59 16 -134.5 30.5t-174.5 14.5q-147 0 -228 -57t-81 -156v-4zM262 1227q31 117 76 166t119 49 q35 0 71.5 -13.5t73.5 -29t70 -27.5t59 -12q41 0 62.5 22.5t44.5 77.5l96 -26q-31 -117 -76 -166t-119 -49q-35 0 -71.5 12t-73.5 27.5t-69.5 28.5t-59.5 13q-41 0 -62.5 -22.5t-44.5 -77.5z" />
<glyph unicode="&#xe4;" horiz-adv-x="1185" d="M96 307v4q0 86 33 150.5t93.5 107.5t143.5 65.5t183 22.5q102 0 177 -12t146 -33v33q0 141 -81.5 214t-231.5 73q-94 0 -171 -20.5t-150 -55.5l-48 129q88 41 178.5 65.5t206.5 24.5q225 0 343 -117q111 -111 110 -311v-647h-156v158q-55 -72 -147 -126.5t-233 -54.5 q-74 0 -146 20.5t-127 62.5t-89 103.5t-34 143.5zM256 315q0 -49 21.5 -89t58.5 -66.5t85 -41t101 -14.5q74 0 137.5 20.5t111.5 58.5t75.5 90.5t27.5 115.5v98q-59 16 -134.5 30.5t-174.5 14.5q-147 0 -228 -57t-81 -156v-4zM324 1219v194h184v-194h-184zM684 1219v194h184 v-194h-184z" />
<glyph unicode="&#xe5;" horiz-adv-x="1185" d="M96 307v4q0 86 33 150.5t93.5 107.5t143.5 65.5t183 22.5q102 0 177 -12t146 -33v33q0 141 -81.5 214t-231.5 73q-94 0 -171 -20.5t-150 -55.5l-48 129q88 41 178.5 65.5t206.5 24.5q225 0 343 -117q111 -111 110 -311v-647h-156v158q-55 -72 -147 -126.5t-233 -54.5 q-74 0 -146 20.5t-127 62.5t-89 103.5t-34 143.5zM256 315q0 -49 21.5 -89t58.5 -66.5t85 -41t101 -14.5q74 0 137.5 20.5t111.5 58.5t75.5 90.5t27.5 115.5v98q-59 16 -134.5 30.5t-174.5 14.5q-147 0 -228 -57t-81 -156v-4zM383 1417v4q0 41 17.5 78t47 64.5t67.5 44 t81 16.5t81 -16.5t67.5 -44t47 -64.5t17.5 -78v-4q0 -41 -17.5 -77.5t-47 -64.5t-67.5 -44.5t-81 -16.5t-81 16.5t-67.5 44.5t-47 64.5t-17.5 77.5zM469 1417q0 -51 38 -88t89 -37t89 37t38 88v4q0 51 -37 88t-90 37t-90 -36.5t-37 -88.5v-4z" />
<glyph unicode="&#xe6;" horiz-adv-x="1951" d="M96 307v4q0 86 33 150.5t92.5 107.5t141 65.5t178.5 22.5q94 0 164.5 -12t148.5 -33v33q0 143 -81 215t-222 72q-86 0 -163 -20.5t-150 -55.5l-48 129q88 41 177.5 65.5t199.5 24.5q143 0 244.5 -56t142.5 -173q63 106 169 170.5t237 64.5q117 0 208 -44t154.5 -119.5 t96 -178t32.5 -219.5v-23.5t-2 -31.5h-839q8 -84 40.5 -149.5t84 -110.5t115 -68.5t132.5 -23.5q111 0 190 41t144 108l99 -88q-80 -90 -182.5 -144.5t-254.5 -54.5q-129 0 -238.5 56.5t-181.5 156.5q-43 -43 -97 -80.5t-115.5 -67.5t-128 -46.5t-134.5 -16.5 q-72 0 -140.5 20.5t-123.5 62.5t-89 103.5t-34 143.5zM256 315q0 -49 21.5 -89t57.5 -66.5t83 -41t96 -14.5q70 0 124 14.5t99 39t83 59.5t75 76q-37 92 -43 199q-59 16 -131 28t-164 12q-141 0 -221 -57t-80 -156v-4zM1010 592h682q-6 72 -31 136.5t-67 113.5t-102 77.5 t-138 28.5q-68 0 -127.5 -26.5t-104.5 -74.5t-74.5 -113.5t-37.5 -141.5z" />
<glyph unicode="&#xe7;" horiz-adv-x="1169" d="M111 524v4q0 113 41 213.5t113.5 176t172 119.5t215.5 44q76 0 137.5 -14t112.5 -40t94 -60.5t80 -73.5l-104 -111q-63 66 -138 113t-184 47q-80 0 -149.5 -31.5t-120.5 -87t-80 -130.5t-29 -161v-4q0 -86 30 -160.5t82 -131t123 -88t155 -31.5q104 0 182 45t141 112 l100 -94q-78 -86 -171 -141t-230 -64l-135 -292l-154 69l160 234q-96 16 -178 64t-141.5 121t-92 163t-32.5 190z" />
<glyph unicode="&#xe8;" horiz-adv-x="1212" d="M111 528q0 115 37.5 216.5t105.5 176t161 117.5t203 43q117 0 209.5 -44t156 -119.5t96 -178t32.5 -219.5v-23.5t-2 -31.5h-840q8 -84 41 -149.5t84 -110.5t114.5 -68.5t133.5 -23.5q111 0 189.5 41t144.5 108l98 -88q-80 -90 -182 -144.5t-254 -54.5q-109 0 -205 40 t-167.5 113t-113.5 175.5t-42 224.5zM270 592h682q-6 72 -30.5 136.5t-66.5 113.5t-102.5 77.5t-138.5 28.5q-68 0 -127 -26.5t-104 -74.5t-74.5 -113.5t-38.5 -141.5zM334 1440l164 76l194 -297h-127z" />
<glyph unicode="&#xe9;" horiz-adv-x="1212" d="M111 528q0 115 37.5 216.5t105.5 176t161 117.5t203 43q117 0 209.5 -44t156 -119.5t96 -178t32.5 -219.5v-23.5t-2 -31.5h-840q8 -84 41 -149.5t84 -110.5t114.5 -68.5t133.5 -23.5q111 0 189.5 41t144.5 108l98 -88q-80 -90 -182 -144.5t-254 -54.5q-109 0 -205 40 t-167.5 113t-113.5 175.5t-42 224.5zM270 592h682q-6 72 -30.5 136.5t-66.5 113.5t-102.5 77.5t-138.5 28.5q-68 0 -127 -26.5t-104 -74.5t-74.5 -113.5t-38.5 -141.5zM520 1219l195 297l164 -76l-232 -221h-127z" />
<glyph unicode="&#xea;" horiz-adv-x="1212" d="M111 528q0 115 37.5 216.5t105.5 176t161 117.5t203 43q117 0 209.5 -44t156 -119.5t96 -178t32.5 -219.5v-23.5t-2 -31.5h-840q8 -84 41 -149.5t84 -110.5t114.5 -68.5t133.5 -23.5q111 0 189.5 41t144.5 108l98 -88q-80 -90 -182 -144.5t-254 -54.5q-109 0 -205 40 t-167.5 113t-113.5 175.5t-42 224.5zM270 592h682q-6 72 -30.5 136.5t-66.5 113.5t-102.5 77.5t-138.5 28.5q-68 0 -127 -26.5t-104 -74.5t-74.5 -113.5t-38.5 -141.5zM326 1219l217 268h139l217 -268h-135l-154 137l-153 -137h-131z" />
<glyph unicode="&#xeb;" horiz-adv-x="1212" d="M111 528q0 115 37.5 216.5t105.5 176t161 117.5t203 43q117 0 209.5 -44t156 -119.5t96 -178t32.5 -219.5v-23.5t-2 -31.5h-840q8 -84 41 -149.5t84 -110.5t114.5 -68.5t133.5 -23.5q111 0 189.5 41t144.5 108l98 -88q-80 -90 -182 -144.5t-254 -54.5q-109 0 -205 40 t-167.5 113t-113.5 175.5t-42 224.5zM270 592h682q-6 72 -30.5 136.5t-66.5 113.5t-102.5 77.5t-138.5 28.5q-68 0 -127 -26.5t-104 -74.5t-74.5 -113.5t-38.5 -141.5zM340 1219v194h184v-194h-184zM700 1219v194h185v-194h-185z" />
<glyph unicode="&#xec;" horiz-adv-x="538" d="M-23 1440l164 76l195 -297h-127zM190 0v1059h158v-1059h-158z" />
<glyph unicode="&#xed;" horiz-adv-x="538" d="M190 0v1059h158v-1059h-158zM205 1219l194 297l164 -76l-231 -221h-127z" />
<glyph unicode="&#xee;" horiz-adv-x="538" d="M-18 1219l217 268h139l217 -268h-135l-154 137l-153 -137h-131zM190 0v1059h158v-1059h-158z" />
<glyph unicode="&#xef;" horiz-adv-x="538" d="M-4 1219v194h184v-194h-184zM190 0v1059h158v-1059h-158zM356 1219v194h185v-194h-185z" />
<glyph unicode="&#xf0;" horiz-adv-x="1296" d="M111 502v4q0 111 38.5 201t105.5 154.5t155 99t186 34.5q111 0 187.5 -32.5t144.5 -79.5l-269 377l-262 -130l-73 97l268 125l-103 143h189l53 -80l203 98l72 -96l-209 -96l207 -305q84 -123 132 -238.5t48 -259.5v-4q0 -109 -38 -206t-108.5 -171t-172 -118t-226.5 -44 q-115 0 -211 42t-167 114t-110.5 167t-39.5 204zM270 496q0 -74 28 -142.5t79 -122t119.5 -85t152.5 -31.5t152.5 30.5t118 84t76 122t26.5 146.5v4q0 76 -29.5 142.5t-82 116.5t-124 79.5t-153.5 29.5q-84 0 -150.5 -28.5t-113.5 -78.5t-73 -117.5t-26 -145.5v-4z" />
<glyph unicode="&#xf1;" horiz-adv-x="1261" d="M176 0v1059h158v-185q53 86 139 146.5t223 60.5q94 0 170 -30.5t128.5 -87t80 -134t27.5 -172.5v-657h-158v618q0 147 -75.5 233.5t-217.5 86.5q-68 0 -126 -23.5t-101 -67.5t-66.5 -105.5t-23.5 -135.5v-606h-158zM303 1227q31 117 76 166t119 49q35 0 71.5 -13.5 t73.5 -29t69.5 -27.5t59.5 -12q41 0 62.5 22.5t44.5 77.5l96 -26q-31 -117 -76 -166t-119 -49q-35 0 -71.5 12t-73.5 27.5t-70 28.5t-59 13q-41 0 -62.5 -22.5t-44.5 -77.5z" />
<glyph unicode="&#xf2;" horiz-adv-x="1323" d="M111 524v4q0 113 41 213.5t114.5 176t175 119.5t222.5 44q119 0 220 -44t175 -118.5t114.5 -174t40.5 -212.5v-4q0 -113 -42 -213t-115.5 -176t-176 -120t-221.5 -44t-219 44t-173.5 119t-114.5 174.5t-41 211.5zM272 528q0 -86 30 -160.5t82 -130t124 -88t156 -32.5 q86 0 157.5 32.5t122.5 88t80 129t29 157.5v4q0 86 -30 161t-83 131.5t-125 89t-156 32.5q-86 0 -157.5 -32.5t-121.5 -88t-79 -130.5t-29 -159v-4zM367 1440l163 76l195 -297h-127z" />
<glyph unicode="&#xf3;" horiz-adv-x="1323" d="M111 524v4q0 113 41 213.5t114.5 176t175 119.5t222.5 44q119 0 220 -44t175 -118.5t114.5 -174t40.5 -212.5v-4q0 -113 -42 -213t-115.5 -176t-176 -120t-221.5 -44t-219 44t-173.5 119t-114.5 174.5t-41 211.5zM272 528q0 -86 30 -160.5t82 -130t124 -88t156 -32.5 q86 0 157.5 32.5t122.5 88t80 129t29 157.5v4q0 86 -30 161t-83 131.5t-125 89t-156 32.5q-86 0 -157.5 -32.5t-121.5 -88t-79 -130.5t-29 -159v-4zM600 1219l195 297l163 -76l-231 -221h-127z" />
<glyph unicode="&#xf4;" horiz-adv-x="1323" d="M111 524v4q0 113 41 213.5t114.5 176t175 119.5t222.5 44q119 0 220 -44t175 -118.5t114.5 -174t40.5 -212.5v-4q0 -113 -42 -213t-115.5 -176t-176 -120t-221.5 -44t-219 44t-173.5 119t-114.5 174.5t-41 211.5zM272 528q0 -86 30 -160.5t82 -130t124 -88t156 -32.5 q86 0 157.5 32.5t122.5 88t80 129t29 157.5v4q0 86 -30 161t-83 131.5t-125 89t-156 32.5q-86 0 -157.5 -32.5t-121.5 -88t-79 -130.5t-29 -159v-4zM375 1219l217 268h139l217 -268h-135l-154 137l-153 -137h-131z" />
<glyph unicode="&#xf5;" horiz-adv-x="1323" d="M111 524v4q0 113 41 213.5t114.5 176t175 119.5t222.5 44q119 0 220 -44t175 -118.5t114.5 -174t40.5 -212.5v-4q0 -113 -42 -213t-115.5 -176t-176 -120t-221.5 -44t-219 44t-173.5 119t-114.5 174.5t-41 211.5zM272 528q0 -86 30 -160.5t82 -130t124 -88t156 -32.5 q86 0 157.5 32.5t122.5 88t80 129t29 157.5v4q0 86 -30 161t-83 131.5t-125 89t-156 32.5q-86 0 -157.5 -32.5t-121.5 -88t-79 -130.5t-29 -159v-4zM326 1227q31 117 75.5 166t118.5 49q35 0 72 -13.5t73.5 -29t69.5 -27.5t60 -12q41 0 62.5 22.5t43.5 77.5l96 -26 q-31 -117 -75.5 -166t-118.5 -49q-35 0 -72 12t-73.5 27.5t-69.5 28.5t-60 13q-41 0 -62.5 -22.5t-43.5 -77.5z" />
<glyph unicode="&#xf6;" horiz-adv-x="1323" d="M111 524v4q0 113 41 213.5t114.5 176t175 119.5t222.5 44q119 0 220 -44t175 -118.5t114.5 -174t40.5 -212.5v-4q0 -113 -42 -213t-115.5 -176t-176 -120t-221.5 -44t-219 44t-173.5 119t-114.5 174.5t-41 211.5zM272 528q0 -86 30 -160.5t82 -130t124 -88t156 -32.5 q86 0 157.5 32.5t122.5 88t80 129t29 157.5v4q0 86 -30 161t-83 131.5t-125 89t-156 32.5q-86 0 -157.5 -32.5t-121.5 -88t-79 -130.5t-29 -159v-4zM389 1219v194h184v-194h-184zM750 1219v194h184v-194h-184z" />
<glyph unicode="&#xf8;" horiz-adv-x="1323" d="M80 -10l162 174q-61 72 -96 164t-35 196v4q0 113 41 213.5t114.5 176t175 119.5t222.5 44q195 0 329 -110l92 100h160l-74 -78q-29 -31 -55 -59.5t-35 -38.5q63 -72 98 -165t35 -198v-4q0 -113 -42 -213t-115.5 -176t-176 -120t-221.5 -44q-98 0 -180 29t-149 80l-92 -94 h-158zM270 528q0 -72 20.5 -134t57.5 -115l549 579q-102 86 -238 86q-86 0 -157.5 -32.5t-122.5 -89t-80 -131.5t-29 -159v-4zM428 199q97 -84 236 -84q86 0 158.5 32.5t123.5 88t80 130t29 158.5v4q0 72 -21.5 135.5t-58.5 114.5z" />
<glyph unicode="&#xf9;" horiz-adv-x="1261" d="M160 401v658h157v-619q0 -147 76 -233t217 -86q68 0 126.5 23.5t100.5 67.5t66.5 105.5t24.5 135.5v606h155v-1059h-155v184q-53 -86 -139.5 -146.5t-223.5 -60.5q-96 0 -171 31t-127 87.5t-79.5 134t-27.5 171.5zM350 1432l164 75l195 -297h-127z" />
<glyph unicode="&#xfa;" horiz-adv-x="1261" d="M160 401v658h157v-619q0 -147 76 -233t217 -86q68 0 126.5 23.5t100.5 67.5t66.5 105.5t24.5 135.5v606h155v-1059h-155v184q-53 -86 -139.5 -146.5t-223.5 -60.5q-96 0 -171 31t-127 87.5t-79.5 134t-27.5 171.5zM545 1210l194 297l164 -75l-231 -222h-127z" />
<glyph unicode="&#xfb;" horiz-adv-x="1261" d="M160 401v658h157v-619q0 -147 76 -233t217 -86q68 0 126.5 23.5t100.5 67.5t66.5 105.5t24.5 135.5v606h155v-1059h-155v184q-53 -86 -139.5 -146.5t-223.5 -60.5q-96 0 -171 31t-127 87.5t-79.5 134t-27.5 171.5zM346 1219l217 268h139l218 -268h-136l-153 137 l-154 -137h-131z" />
<glyph unicode="&#xfc;" horiz-adv-x="1261" d="M160 401v658h157v-619q0 -147 76 -233t217 -86q68 0 126.5 23.5t100.5 67.5t66.5 105.5t24.5 135.5v606h155v-1059h-155v184q-53 -86 -139.5 -146.5t-223.5 -60.5q-96 0 -171 31t-127 87.5t-79.5 134t-27.5 171.5zM360 1219v194h185v-194h-185zM721 1219v194h184v-194 h-184z" />
<glyph unicode="&#xfd;" horiz-adv-x="1210" d="M70 1059h174l385 -883l340 883h168l-445 -1094q-68 -164 -150.5 -231.5t-201.5 -67.5q-66 0 -119 13.5t-106 39.5l53 125q39 -20 77 -29.5t89 -9.5q72 0 121 43t96 156zM547 1210l194 297l164 -75l-231 -222h-127z" />
<glyph unicode="&#xfe;" horiz-adv-x="1359" d="M176 -328v1823h158v-649q33 47 72.5 90t89 74.5t110 51t133.5 19.5q94 0 185.5 -36.5t163 -107.5t114.5 -172t43 -233v-4q0 -129 -43 -231t-113.5 -173t-161.5 -109t-188 -38q-74 0 -135 18.5t-110.5 49.5t-89 72t-70.5 86v-531h-158zM328 528q0 -92 31.5 -167.5t86 -129 t123 -83t142.5 -29.5q76 0 144.5 27.5t118.5 80t79.5 128t29.5 171.5v4q0 94 -29.5 170t-80.5 129.5t-119 82t-143 28.5q-74 0 -142.5 -29.5t-123 -84t-86 -129t-31.5 -165.5v-4z" />
<glyph unicode="&#xff;" horiz-adv-x="1210" d="M70 1059h174l385 -883l340 883h168l-445 -1094q-68 -164 -150.5 -231.5t-201.5 -67.5q-66 0 -119 13.5t-106 39.5l53 125q39 -20 77 -29.5t89 -9.5q72 0 121 43t96 156zM334 1219v194h184v-194h-184zM694 1219v194h185v-194h-185z" />
<glyph unicode="&#x152;" horiz-adv-x="2316" d="M139 713v4q0 152 55.5 282.5t157 227t240.5 152t309 55.5h1282v-148h-837v-489h745v-148h-745v-502h847v-147h-1292q-170 0 -309 54.5t-240.5 150.5t-157 226t-55.5 282zM307 717q0 -119 42 -222.5t119 -180t187.5 -120.5t245.5 -44h283v1134h-283q-135 0 -245.5 -43 t-187.5 -118.5t-119 -179t-42 -222.5v-4z" />
<glyph unicode="&#x153;" horiz-adv-x="2148" d="M111 524v4q0 113 42 213.5t115.5 176t174 119.5t216.5 44q156 0 277 -77.5t186 -202.5q59 129 173 204.5t261 75.5q117 0 208 -44t154.5 -119.5t96.5 -178t33 -219.5v-23.5t-2 -31.5h-840q8 -84 41 -149.5t84 -110.5t114.5 -68.5t133.5 -23.5q111 0 189.5 41t144.5 108 l98 -88q-78 -92 -181.5 -145.5t-252.5 -53.5q-147 0 -269 75t-188 210q-66 -125 -186.5 -205t-280.5 -80q-115 0 -214 44t-171.5 119t-114.5 174.5t-42 211.5zM272 528q0 -86 30 -160.5t82 -130t123 -88t155 -32.5q86 0 156.5 32.5t120.5 88t79 129t29 157.5v4q0 86 -30 161 t-82 131.5t-124 89t-154 32.5q-86 0 -156.5 -32.5t-120.5 -88t-79 -130.5t-29 -159v-4zM1206 592h682q-6 72 -30.5 136.5t-66.5 113.5t-102.5 77.5t-138.5 28.5q-68 0 -127 -26.5t-104 -74.5t-75 -113.5t-38 -141.5z" />
<glyph unicode="&#x178;" horiz-adv-x="1466" d="M55 1434h197l483 -717l488 717h188l-596 -865v-569h-164v567zM461 1554v195h184v-195h-184zM821 1554v195h185v-195h-185z" />
<glyph unicode="&#x2c6;" horiz-adv-x="1024" d="M225 1219l217 268h140l217 -268h-135l-154 137l-154 -137h-131z" />
<glyph unicode="&#x2dc;" horiz-adv-x="1024" d="M176 1227q31 117 76 166t119 49q35 0 71.5 -13.5t73.5 -29t69.5 -27.5t59.5 -12q41 0 62.5 22.5t44.5 77.5l96 -26q-31 -117 -76 -166t-119 -49q-35 0 -71.5 12t-73.5 27.5t-69.5 28.5t-59.5 13q-41 0 -62.5 -22.5t-44.5 -77.5z" />
<glyph unicode="&#x2000;" horiz-adv-x="929" />
<glyph unicode="&#x2001;" horiz-adv-x="1858" />
<glyph unicode="&#x2002;" horiz-adv-x="929" />
<glyph unicode="&#x2003;" horiz-adv-x="1858" />
<glyph unicode="&#x2004;" horiz-adv-x="619" />
<glyph unicode="&#x2005;" horiz-adv-x="464" />
<glyph unicode="&#x2006;" horiz-adv-x="309" />
<glyph unicode="&#x2007;" horiz-adv-x="309" />
<glyph unicode="&#x2008;" horiz-adv-x="232" />
<glyph unicode="&#x2009;" horiz-adv-x="371" />
<glyph unicode="&#x200a;" horiz-adv-x="103" />
<glyph unicode="&#x2010;" horiz-adv-x="835" d="M133 532v166h569v-166h-569z" />
<glyph unicode="&#x2011;" horiz-adv-x="835" d="M133 532v166h569v-166h-569z" />
<glyph unicode="&#x2012;" horiz-adv-x="835" d="M133 532v166h569v-166h-569z" />
<glyph unicode="&#x2013;" horiz-adv-x="1081" d="M133 537v157h815v-157h-815z" />
<glyph unicode="&#x2014;" horiz-adv-x="1839" d="M133 537v157h1573v-157h-1573z" />
<glyph unicode="&#x2018;" horiz-adv-x="501" d="M147 979v184q0 125 54.5 189.5t171.5 91.5l24 -72q-78 -29 -109.5 -70.5t-27.5 -107.5h76v-215h-189z" />
<glyph unicode="&#x2019;" horiz-adv-x="501" d="M104 1040q78 29 111 71t27 108h-74v215h188v-185q0 -125 -55 -189.5t-172 -90.5z" />
<glyph unicode="&#x201a;" horiz-adv-x="501" d="M94 -178q78 29 111 70.5t26 107.5h-73v215h188v-184q0 -125 -55 -189.5t-172 -91.5z" />
<glyph unicode="&#x201c;" horiz-adv-x="911" d="M147 979v184q0 125 54.5 189.5t171.5 91.5l24 -72q-78 -29 -109.5 -70.5t-27.5 -107.5h76v-215h-189zM557 979v184q0 125 54.5 189.5t170.5 91.5l25 -72q-78 -29 -109.5 -70.5t-27.5 -107.5h73v-215h-186z" />
<glyph unicode="&#x201d;" horiz-adv-x="911" d="M104 1040q78 29 111 71t27 108h-74v215h188v-185q0 -125 -55 -189.5t-172 -90.5zM514 1040q78 29 110.5 71t26.5 108h-73v215h186v-185q0 -125 -54.5 -189.5t-170.5 -90.5z" />
<glyph unicode="&#x201e;" horiz-adv-x="911" d="M94 -178q78 29 111 70.5t26 107.5h-73v215h188v-184q0 -125 -55 -189.5t-172 -91.5zM504 -178q78 29 110.5 70.5t26.5 107.5h-74v215h187v-184q0 -125 -54.5 -189.5t-171.5 -91.5z" />
<glyph unicode="&#x2022;" horiz-adv-x="978" d="M221 719v4q0 55 21.5 103t58.5 85t86 57.5t102 20.5q51 0 100.5 -20.5t86.5 -57.5t59.5 -85t22.5 -103v-4q0 -55 -21.5 -103.5t-57.5 -85t-85.5 -57t-104.5 -20.5t-104 20.5t-85 57t-57.5 85t-21.5 103.5z" />
<glyph unicode="&#x2026;" horiz-adv-x="1480" d="M158 0v211h182v-211h-182zM649 0v211h182v-211h-182zM1141 0v211h184v-211h-184z" />
<glyph unicode="&#x202f;" horiz-adv-x="371" />
<glyph unicode="&#x2039;" horiz-adv-x="671" d="M98 522v17l332 436l121 -68l-277 -375l277 -378l-121 -70z" />
<glyph unicode="&#x203a;" horiz-adv-x="671" d="M121 152l276 376l-276 377l119 70l331 -436v-17l-331 -438z" />
<glyph unicode="&#x205f;" horiz-adv-x="464" />
<glyph unicode="&#x2122;" horiz-adv-x="1413" d="M53 1348v86h496v-86h-203v-545h-90v545h-203zM688 803v631h96l226 -347l223 347h94v-631h-88v483l-225 -342h-13l-223 342v-483h-90z" />
<glyph unicode="&#xe000;" horiz-adv-x="1054" d="M0 0v1055h1055v-1055h-1055z" />
<glyph unicode="&#xfb01;" horiz-adv-x="1292" d="M90 920v137h146v92q0 180 92 272q82 82 227 82q55 0 95 -6t79 -20v-138q-43 12 -78 19.5t-76 7.5q-184 0 -184 -225v-86h336v-135h-334v-920h-157v920h-146zM932 1290v174h180v-174h-180zM944 0v1059h156v-1059h-156z" />
<glyph unicode="&#xfb02;" horiz-adv-x="1292" d="M90 920v137h146v92q0 180 92 272q82 82 227 82q55 0 95 -6t79 -20v-138q-43 12 -78 19.5t-76 7.5q-184 0 -184 -225v-86h336v-135h-334v-920h-157v920h-146zM944 0v1495h156v-1495h-156z" />
</font>
</defs></svg> 